"timestamp","RE_Macro_Index"
2011-08-20,0.31
2011-08-23,0.31
2011-08-27,0.31
2011-09-01,0.31
2011-09-05,0.31
2011-09-06,0.31
2011-09-08,0.31
2011-09-09,0.31
2011-09-10,0.31
2011-09-13,0.31
2011-09-16,0.31
2011-09-17,0.31
2011-09-19,0.31
2011-09-20,0.31
2011-09-22,0.31
2011-09-23,0.31
2011-09-24,0.31
2011-09-26,0.31
2011-09-27,0.31
2011-09-28,0.31
2011-09-29,0.31
2011-09-30,0.31
2011-10-01,0.31
2011-10-03,0.31
2011-10-04,0.31
2011-10-05,0.31
2011-10-06,0.31
2011-10-07,0.31
2011-10-08,0.31
2011-10-10,0.31
2011-10-11,0.31
2011-10-12,0.31
2011-10-13,0.31
2011-10-14,0.31
2011-10-15,0.31
2011-10-17,0.31
2011-10-18,0.31
2011-10-19,0.31
2011-10-20,0.31
2011-10-21,0.31
2011-10-22,0.31
2011-10-24,0.31
2011-10-25,0.31
2011-10-26,0.31
2011-10-27,0.31
2011-10-28,0.298474522140417
2011-10-29,0.29847634996706
2011-10-30,0.298477884143756
2011-10-31,0.298479124346949
2011-11-01,0.298480070252612
2011-11-02,0.298480721536239
2011-11-03,0.29848107787285
2011-11-04,0.298481138936985
2011-11-05,0.298480904402704
2011-11-06,0.298480373943587
2011-11-07,0.298479547232737
2011-11-08,0.29847842394277
2011-11-09,0.298219301852533
2011-11-10,0.297959758985634
2011-11-11,0.297699794876567
2011-11-12,0.29743940905914
2011-11-13,0.297232912172087
2011-11-14,0.297026068630195
2011-11-15,0.296818878085434
2011-11-16,0.296611340189311
2011-11-17,0.296403454592863
2011-11-18,0.296195220946664
2011-11-19,0.295986638900815
2011-11-20,0.29577770810495
2011-11-21,0.295568428208233
2011-11-22,0.295275027782339
2011-11-23,0.294981236887776
2011-11-24,0.294687055131343
2011-11-25,0.294392482119314
2011-11-26,0.29409751745743
2011-11-27,0.293802160750905
2011-11-28,0.293990510452526
2011-11-29,0.294154554779994
2011-11-30,0.294296483739209
2011-12-01,0.294418229249241
2011-12-02,0.294521502069532
2011-12-03,0.294607822563205
2011-12-04,0.294678546464343
2011-12-05,0.294734886570897
2011-12-06,0.294777931095523
2011-12-07,0.294808659260035
2011-12-08,0.294827954604698
2011-12-09,0.294836616393708
2011-12-10,0.294935385868944
2011-12-11,0.295024884312131
2011-12-12,0.295105715245017
2011-12-13,0.295178429630722
2011-12-14,0.295341931853573
2011-12-15,0.295498376651171
2011-12-16,0.295648188295697
2011-12-17,0.295791757073711
2011-12-18,0.295929442621641
2011-12-19,0.296061576876006
2011-12-20,0.296188466689309
2011-12-21,0.296310396154979
2011-12-22,0.296427628678428
2011-12-23,0.296432637265939
2011-12-24,0.296433368375265
2011-12-25,0.296430033912149
2011-12-26,0.296299183836198
2011-12-27,0.296164510837779
2011-12-28,0.296026186980652
2011-12-29,0.295884373199868
2011-12-30,0.29573922018574
2011-12-31,0.29559086918487
2012-01-01,0.295439452727183
2012-01-02,0.295285095286797
2012-01-03,0.295127913883674
2012-01-04,0.294968018632134
2012-01-05,0.294805513241644
2012-01-06,0.294640495474633
2012-01-07,0.294473057565603
2012-01-08,0.294303286605285
2012-01-09,0.29367810655693
2012-01-10,0.293050700182173
2012-01-11,0.292421137717558
2012-01-12,0.291789485679045
2012-01-13,0.291155807103746
2012-01-14,0.290432456188859
2012-01-15,0.28970704654182
2012-01-16,0.288979631807444
2012-01-17,0.288250262947868
2012-01-18,0.287518988406178
2012-01-19,0.286785854258205
2012-01-20,0.28605090435348
2012-01-21,0.285314180446215
2012-01-22,0.284509542629857
2012-01-23,0.28370323355027
2012-01-24,0.282895288683963
2012-01-25,0.282085741882929
2012-01-26,0.28125380434583
2012-01-27,0.280419868806079
2012-01-28,0.27958397753393
2012-01-29,0.27874617093843
2012-01-30,0.277906487666879
2012-01-31,0.277064964697961
2012-02-01,0.27622163742904
2012-02-02,0.275376539758018
2012-02-03,0.274529704160159
2012-02-04,0.273681161760235
2012-02-05,0.272830942400324
2012-02-06,0.271979074703556
2012-02-07,0.271125586134095
2012-02-08,0.27027050305361
2012-02-09,0.269322593057749
2012-02-10,0.268373280626151
2012-02-11,0.267422587611343
2012-02-12,0.266470535018977
2012-02-13,0.265568663686788
2012-02-14,0.264665559790831
2012-02-15,0.263761242169966
2012-02-16,0.262855728961304
2012-02-17,0.261949037631631
2012-02-18,0.261041185007166
2012-02-19,0.260132187301747
2012-02-20,0.25922206014353
2012-02-21,0.258310818600312
2012-02-22,0.257354319320874
2012-02-23,0.256396682160917
2012-02-24,0.255437920735111
2012-02-25,0.254234809987077
2012-02-26,0.253031534710408
2012-02-27,0.251828076327011
2012-02-28,0.250624416808527
2012-02-29,0.24942053865464
2012-03-01,0.248216424872396
2012-03-02,0.24701205895649
2012-03-03,0.245807424870454
2012-03-04,0.244602507028708
2012-03-05,0.24339729027943
2012-03-06,0.242191759888184
2012-03-07,0.240985901522296
2012-03-08,0.239779701235915
2012-03-09,0.238573145455726
2012-03-10,0.236993499279729
2012-03-11,0.235413231015392
2012-03-12,0.233832328544805
2012-03-13,0.232250780051179
2012-03-14,0.230668574008085
2012-03-15,0.229397913678955
2012-03-16,0.228127211303249
2012-03-17,0.226856457283066
2012-03-18,0.225585642274396
2012-03-19,0.224314757178427
2012-03-20,0.2230437931332
2012-03-21,0.221772741505611
2012-03-22,0.220501593883724
2012-03-23,0.219186156405518
2012-03-24,0.217870593707465
2012-03-25,0.21655489811015
2012-03-26,0.215239062124461
2012-03-27,0.213934063126402
2012-03-28,0.212629124266516
2012-03-29,0.211324235440727
2012-03-30,0.210019386791735
2012-03-31,0.208714568701261
2012-04-01,0.207409771782583
2012-04-02,0.206104986873356
2012-04-03,0.204800205028688
2012-04-04,0.203495417514479
2012-04-05,0.202190615800993
2012-04-06,0.200885791556676
2012-04-07,0.199580936642184
2012-04-08,0.198276043104638
2012-04-09,0.196971103172067
2012-04-10,0.195860610598939
2012-04-11,0.194750141273508
2012-04-12,0.193639687853501
2012-04-13,0.19252924316048
2012-04-14,0.191514044068983
2012-04-15,0.190498964990077
2012-04-16,0.189483999341887
2012-04-17,0.188469140688552
2012-04-18,0.187454382736098
2012-04-19,0.186439719328466
2012-04-20,0.185425144443657
2012-04-21,0.184410652190018
2012-04-22,0.183396236802642
2012-04-23,0.18230877647124
2012-04-24,0.181221361270456
2012-04-25,0.180133985914549
2012-04-26,0.179028325633005
2012-04-27,0.17792236912921
2012-04-28,0.176816115587808
2012-04-29,0.175709564206321
2012-04-30,0.174602714194805
2012-05-01,0.173495564775501
2012-05-02,0.172388115182514
2012-05-03,0.171280364661492
2012-05-04,0.170172312469318
2012-05-05,0.169063957873813
2012-05-06,0.167955300153448
2012-05-07,0.166846338597057
2012-05-08,0.165737072503577
2012-05-09,0.164627501181773
2012-05-10,0.163517623949992
2012-05-11,0.162725745161787
2012-05-12,0.161933622413709
2012-05-13,0.161141255034432
2012-05-14,0.160348642362387
2012-05-15,0.159699697357804
2012-05-16,0.159050610169619
2012-05-17,0.158401380723282
2012-05-18,0.157752008944205
2012-05-19,0.157102494757758
2012-05-20,0.156452838089275
2012-05-21,0.155803038864047
2012-05-22,0.155153097007327
2012-05-23,0.15450301244433
2012-05-24,0.153918874303046
2012-05-25,0.153334578605778
2012-05-26,0.152750125279981
2012-05-27,0.151917207915834
2012-05-28,0.151083901848451
2012-05-29,0.150250206798108
2012-05-30,0.149416122484804
2012-05-31,0.14858164862827
2012-06-01,0.147746784947959
2012-06-02,0.146911531163055
2012-06-03,0.146075886992464
2012-06-04,0.145239852154819
2012-06-05,0.14440342636848
2012-06-06,0.143566609351531
2012-06-07,0.142729400821779
2012-06-08,0.141891800496757
2012-06-09,0.14114061324848
2012-06-10,0.140389071399229
2012-06-11,0.139637174691779
2012-06-12,0.138884922868654
2012-06-13,0.138132315672124
2012-06-14,0.137379352844208
2012-06-15,0.13643925767293
2012-06-16,0.135498561448325
2012-06-17,0.134557263593502
2012-06-18,0.13361536353083
2012-06-19,0.13267286068194
2012-06-20,0.131729754467719
2012-06-21,0.130786044308312
2012-06-22,0.129841729623123
2012-06-23,0.128895428582964
2012-06-24,0.12794851874378
2012-06-25,0.127000999517699
2012-06-26,0.126052870316088
2012-06-27,0.125199807756659
2012-06-28,0.124346257745258
2012-06-29,0.123492219861403
2012-06-30,0.122637693684126
2012-07-01,0.121782678791971
2012-07-02,0.120927174762997
2012-07-03,0.120071181174773
2012-07-04,0.119214697604382
2012-07-05,0.118357723628416
2012-07-06,0.117500258822976
2012-07-07,0.116642302763674
2012-07-08,0.115783855025631
2012-07-09,0.114924915183474
2012-07-10,0.114179961656076
2012-07-11,0.113434583581965
2012-07-12,0.112688780595144
2012-07-13,0.112086941785618
2012-07-14,0.111484852049827
2012-07-15,0.110882511230723
2012-07-16,0.110279919171125
2012-07-17,0.109677075713723
2012-07-18,0.109073980701074
2012-07-19,0.108470633975602
2012-07-20,0.107867035379604
2012-07-21,0.10726318475524
2012-07-22,0.106659081944542
2012-07-23,0.106054726789407
2012-07-24,0.105403585240054
2012-07-25,0.104752170559662
2012-07-26,0.104100482576294
2012-07-27,0.103009789004697
2012-07-28,0.101918163250536
2012-07-29,0.10082560397797
2012-07-30,0.0997321098482658
2012-07-31,0.0986376795197887
2012-08-01,0.0975423116479945
2012-08-02,0.0964460048854199
2012-08-03,0.0953487578816744
2012-08-04,0.0942505692834319
2012-08-05,0.0931514377344204
2012-08-06,0.0920513618754136
2012-08-07,0.0909503403442212
2012-08-08,0.0898483717756835
2012-08-09,0.0888130094470803
2012-08-10,0.0877768015617528
2012-08-11,0.0867397469801764
2012-08-12,0.0857018445605136
2012-08-13,0.0846985225180708
2012-08-14,0.0836944038095748
2012-08-15,0.0826894873450692
2012-08-16,0.0816837720322484
2012-08-17,0.0806772567764528
2012-08-18,0.0796699404806591
2012-08-19,0.0786618220454759
2012-08-20,0.0776529003691352
2012-08-21,0.0766431743474811
2012-08-22,0.0756326428739694
2012-08-23,0.0745386294088821
2012-08-24,0.0734437508654291
2012-08-25,0.072348006067217
2012-08-26,0.071251393835328
2012-08-27,0.0700937612891583
2012-08-28,0.0689348054220953
2012-08-29,0.0677745224022433
2012-08-30,0.066612908379148
2012-08-31,0.0654499594836827
2012-09-01,0.0642856718279291
2012-09-02,0.063120041505051
2012-09-03,0.0619530645891773
2012-09-04,0.0607847371352773
2012-09-05,0.0596150551790365
2012-09-06,0.0584440147367329
2012-09-07,0.05727161180511
2012-09-08,0.05609784236125
2012-09-09,0.0549692250551435
2012-09-10,0.0538392014354532
2012-09-11,0.0527077671711348
2012-09-12,0.0518221995034645
2012-09-13,0.0509356916727935
2012-09-14,0.0500482409318277
2012-09-15,0.0491598445208096
2012-09-16,0.048270499667446
2012-09-17,0.0473802035868353
2012-09-18,0.0464889534813956
2012-09-19,0.0455967465407874
2012-09-20,0.0447035799418429
2012-09-21,0.0438094508484861
2012-09-22,0.0429143564116643
2012-09-23,0.0418978538643875
2012-09-24,0.040880275698762
2012-09-25,0.0398616187424566
2012-09-26,0.0384531860644047
2012-09-27,0.0370426578852119
2012-09-28,0.0356300265429768
2012-09-29,0.0342152843308894
2012-09-30,0.0327984234968884
2012-10-01,0.0313794362433175
2012-10-02,0.029958314726571
2012-10-03,0.0285350510567417
2012-10-04,0.0271096372972625
2012-10-05,0.0256820654645509
2012-10-06,0.0242523275276385
2012-10-07,0.0228204154078086
2012-10-08,0.021386320978226
2012-10-09,0.019998024521184
2012-10-10,0.0186076429260221
2012-10-11,0.0172151684218834
2012-10-12,0.0158205931914098
2012-10-13,0.0144082895076869
2012-10-14,0.0129939066440498
2012-10-15,0.0115774371647243
2012-10-16,0.0101588735907657
2012-10-17,0.00873820839972433
2012-10-18,0.00731543402531777
2012-10-19,0.00589054285709404
2012-10-20,0.00446352724008792
2012-10-21,0.0030343794744851
2012-10-22,0.00160309181527265
2012-10-23,0.000169656471891322
2012-10-24,-0.00125803748661926
2012-10-25,-0.00268783319313461
2012-10-26,-0.0041197382507154
2012-10-27,-0.00534010533406499
2012-10-28,-0.00656214101859823
2012-10-29,-0.00778585142688008
2012-10-30,-0.0090112427167562
2012-10-31,-0.0102383210816153
2012-11-01,-0.0114670927506547
2012-11-02,-0.0126975639891455
2012-11-03,-0.0139297410987014
2012-11-04,-0.0151636304175505
2012-11-05,-0.0163992383208094
2012-11-06,-0.017636571220759
2012-11-07,-0.0188756355671215
2012-11-08,-0.0201164378473455
2012-11-09,-0.0212782519800124
2012-11-10,-0.0224416683803346
2012-11-11,-0.0236066930388061
2012-11-12,-0.024753977971144
2012-11-13,-0.0259030114407895
2012-11-14,-0.0270538007776215
2012-11-15,-0.0282063533580932
2012-11-16,-0.0293606766056086
2012-11-17,-0.0305167779909047
2012-11-18,-0.0316746650324331
2012-11-19,-0.0328343452967514
2012-11-20,-0.0339958263989123
2012-11-21,-0.0353344621533259
2012-11-22,-0.0366751879472838
2012-11-23,-0.0380180127141812
2012-11-24,-0.03936294544507
2012-11-25,-0.040709995189131
2012-11-26,-0.0420591710541534
2012-11-27,-0.0430502636724615
2012-11-28,-0.0440423016223689
2012-11-29,-0.0450352877037569
2012-11-30,-0.0460292247291153
2012-12-01,-0.0470241155236148
2012-12-02,-0.0480199629251786
2012-12-03,-0.0490167697845584
2012-12-04,-0.0500145389654029
2012-12-05,-0.0510132733443369
2012-12-06,-0.0520129758110325
2012-12-07,-0.0530136492682867
2012-12-08,-0.0540152966320948
2012-12-09,-0.0550179208317281
2012-12-10,-0.0561020886763211
2012-12-11,-0.0571874414353613
2012-12-12,-0.0582739827866923
2012-12-13,-0.0590576115715167
2012-12-14,-0.0598418746277007
2012-12-15,-0.0606267736606716
2012-12-16,-0.0614123103820153
2012-12-17,-0.0621984865094961
2012-12-18,-0.0629853037670942
2012-12-19,-0.0637727638850243
2012-12-20,-0.0645608685997721
2012-12-21,-0.065349619654116
2012-12-22,-0.0662022398000046
2012-12-23,-0.0670555436273346
2012-12-24,-0.0679095329891686
2012-12-25,-0.0687642097453107
2012-12-26,-0.0695199512604338
2012-12-27,-0.0702762546663579
2012-12-28,-0.071033121459322
2012-12-29,-0.0717905531406124
2012-12-30,-0.0725485512165814
2012-12-31,-0.0733071171986718
2013-01-01,-0.074066252603437
2013-01-02,-0.0748259589525639
2013-01-03,-0.075586237772893
2013-01-04,-0.0763470905964411
2013-01-05,-0.077108518960422
2013-01-06,-0.0778705244072742
2013-01-07,-0.0786331084846739
2013-01-08,-0.0793962727455653
2013-01-09,-0.080168907937215
2013-01-10,-0.0809422476117001
2013-01-11,-0.0817162936375689
2013-01-12,-0.0824910478897544
2013-01-13,-0.0833874545647544
2013-01-14,-0.0842848277586235
2013-01-15,-0.0851831703575316
2013-01-16,-0.0860824852591504
2013-01-17,-0.0869827753727121
2013-01-18,-0.0878840436190668
2013-01-19,-0.0887862929307402
2013-01-20,-0.0896895262519936
2013-01-21,-0.0904332689384863
2013-01-22,-0.091178083757608
2013-01-23,-0.0919239739366058
2013-01-24,-0.0926709427156911
2013-01-25,-0.0934189933481071
2013-01-26,-0.0940406322449881
2013-01-27,-0.0946633942804394
2013-01-28,-0.0952872829654758
2013-01-29,-0.0959123018256072
2013-01-30,-0.0965384544009148
2013-01-31,-0.0971657442461221
2013-02-01,-0.097794174930679
2013-02-02,-0.0984237500388288
2013-02-03,-0.0990544731696921
2013-02-04,-0.0996863479373393
2013-02-05,-0.100319377970873
2013-02-06,-0.100953566914501
2013-02-07,-0.10158891842762
2013-02-08,-0.102225436184893
2013-02-09,-0.102820746313623
2013-02-10,-0.103417308173274
2013-02-11,-0.104015125693716
2013-02-12,-0.104046032606535
2013-02-13,-0.10407730502233
2013-02-14,-0.104108943128127
2013-02-15,-0.104140947111434
2013-02-16,-0.104173317160246
2013-02-17,-0.104206053463048
2013-02-18,-0.104239156208807
2013-02-19,-0.10427262558698
2013-02-20,-0.104306461787515
2013-02-21,-0.104458392607979
2013-02-22,-0.104610708478113
2013-02-23,-0.104763409657144
2013-02-24,-0.10491649640485
2013-02-25,-0.104979014236586
2013-02-26,-0.105041709596376
2013-02-27,-0.105104582460996
2013-02-28,-0.105167632807297
2013-03-01,-0.105230860612204
2013-03-02,-0.105294265852719
2013-03-03,-0.105357848505921
2013-03-04,-0.105421608548961
2013-03-05,-0.105485545959069
2013-03-06,-0.105549660713548
2013-03-07,-0.105613952789778
2013-03-08,-0.105678422165212
2013-03-09,-0.105743068817381
2013-03-10,-0.105807892723889
2013-03-11,-0.105788165476498
2013-03-12,-0.105768649709815
2013-03-13,-0.105749345378359
2013-03-14,-0.105730252436745
2013-03-15,-0.10555984698118
2013-03-16,-0.105389498068318
2013-03-17,-0.10521920566242
2013-03-18,-0.105048969727787
2013-03-19,-0.104878790228767
2013-03-20,-0.10470866712975
2013-03-21,-0.104538600395168
2013-03-22,-0.104368589989498
2013-03-23,-0.104178287411307
2013-03-24,-0.103988018927267
2013-03-25,-0.103797784553985
2013-03-26,-0.103607584307989
2013-03-27,-0.103417418205739
2013-03-28,-0.103182137810802
2013-03-29,-0.102946914948039
2013-03-30,-0.102711749623629
2013-03-31,-0.102476641843686
2013-04-01,-0.102241591614249
2013-04-02,-0.102006598941292
2013-04-03,-0.101771663830717
2013-04-04,-0.101536786288359
2013-04-05,-0.101301966319983
2013-04-06,-0.101067203931287
2013-04-07,-0.1008324991279
2013-04-08,-0.100597851915383
2013-04-09,-0.100363262299227
2013-04-10,-0.100128730284861
2013-04-11,-0.0997673648106827
2013-04-12,-0.0994061222940123
2013-04-13,-0.0990450026805822
2013-04-14,-0.0982308981003389
2013-04-15,-0.097417494499027
2013-04-16,-0.0966047907668066
2013-04-17,-0.0957927857967039
2013-04-18,-0.0949814784846046
2013-04-19,-0.094170867729239
2013-04-20,-0.0933609524321782
2013-04-21,-0.0925517314978135
2013-04-22,-0.0917432038333565
2013-04-23,-0.0907883301496229
2013-04-24,-0.0898342666120748
2013-04-25,-0.0888810119624479
2013-04-26,-0.0879285649456687
2013-04-27,-0.0869209400490807
2013-04-28,-0.0859142517338511
2013-04-29,-0.0849084983350864
2013-04-30,-0.0839036781927967
2013-05-01,-0.0828997896518758
2013-05-02,-0.0818968310620825
2013-05-03,-0.0808948007780183
2013-05-04,-0.0798936971591065
2013-05-05,-0.078893518569576
2013-05-06,-0.0778942633784363
2013-05-07,-0.0768959299594603
2013-05-08,-0.0758985166911648
2013-05-09,-0.0749020219567899
2013-05-10,-0.07390644414428
2013-05-11,-0.0729117816462617
2013-05-12,-0.0719284200302309
2013-05-13,-0.0709459346115547
2013-05-14,-0.0699643239121512
2013-05-15,-0.0692037970101826
2013-05-16,-0.0684437989860466
2013-05-17,-0.067684329055318
2013-05-18,-0.0669253864356406
2013-05-19,-0.0661669703467151
2013-05-20,-0.0654090800102977
2013-05-21,-0.0646517146501853
2013-05-22,-0.0638948734922134
2013-05-23,-0.0631385557642462
2013-05-24,-0.0623103923038729
2013-05-25,-0.0614828344063026
2013-05-26,-0.0606558811265825
2013-05-27,-0.05982953152231
2013-05-28,-0.0589170572747531
2013-05-29,-0.0580053617100664
2013-05-30,-0.0570944433794586
2013-05-31,-0.0561843008387312
2013-06-01,-0.0552749326482575
2013-06-02,-0.0543663373729629
2013-06-03,-0.0534585135823069
2013-06-04,-0.0525514598502621
2013-06-05,-0.0516451747552918
2013-06-06,-0.050739656880336
2013-06-07,-0.0498349048127865
2013-06-08,-0.048930917144472
2013-06-09,-0.0478531498512106
2013-06-10,-0.0467763289901051
2013-06-11,-0.0457004527651827
2013-06-12,-0.0446255193861774
2013-06-13,-0.0435515270685064
2013-06-14,-0.0424784740332428
2013-06-15,-0.0417777822055218
2013-06-16,-0.0410773672765813
2013-06-17,-0.0403772290636967
2013-06-18,-0.03967736738433
2013-06-19,-0.0389777820561291
2013-06-20,-0.0382784728969264
2013-06-21,-0.0375794397247391
2013-06-22,-0.0368806823577709
2013-06-23,-0.0362319111709164
2013-06-24,-0.0355833651324935
2013-06-25,-0.0349350441254613
2013-06-26,-0.0342869480328596
2013-06-27,-0.0336390767378092
2013-06-28,-0.0330744941449562
2013-06-29,-0.0325101136637725
2013-06-30,-0.0319459351857918
2013-07-01,-0.0313819586026237
2013-07-02,-0.0308181838059566
2013-07-03,-0.0302546106875553
2013-07-04,-0.0296912391392618
2013-07-05,-0.029128069052997
2013-07-06,-0.0285651003207571
2013-07-07,-0.0280023328346172
2013-07-08,-0.0274397664867278
2013-07-09,-0.0268774011693183
2013-07-10,-0.0262539597366352
2013-07-11,-0.0256307405528341
2013-07-12,-0.0250077434991249
2013-07-13,-0.0243849684568021
2013-07-14,-0.023857704100138
2013-07-15,-0.0233305949719418
2013-07-16,-0.0228036410046684
2013-07-17,-0.0222768421308131
2013-07-18,-0.0217501982829087
2013-07-19,-0.0212237093935272
2013-07-20,-0.0206973753952787
2013-07-21,-0.0201711962208141
2013-07-22,-0.0196451718028195
2013-07-23,-0.0191193020740223
2013-07-24,-0.0185115330984557
2013-07-25,-0.0179039414133619
2013-07-26,-0.0172965269421127
2013-07-27,-0.0166892896081215
2013-07-28,-0.0160918757846416
2013-07-29,-0.0154947453214223
2013-07-30,-0.0148978980852384
2013-07-31,-0.0143013339429577
2013-08-01,-0.0137050527615452
2013-08-02,-0.0131090544080599
2013-08-03,-0.0125133387496558
2013-08-04,-0.0119179056535818
2013-08-05,-0.0113227549871831
2013-08-06,-0.0107278866178966
2013-08-07,-0.010133300413256
2013-08-08,-0.00953899624088981
2013-08-09,-0.00909937458103473
2013-08-10,-0.00865996338790829
2013-08-11,-0.00822076256309403
2013-08-12,-0.00778177200824751
2013-08-13,-0.00734299162509182
2013-08-14,-0.00701972433484052
2013-08-15,-0.00669655621439861
2013-08-16,-0.00637348723689522
2013-08-17,-0.00605051737546901
2013-08-18,-0.00572764660327224
2013-08-19,-0.00540487489346836
2013-08-20,-0.00508220221923152
2013-08-21,-0.00475962855374889
2013-08-22,-0.00443715387021673
2013-08-23,-0.00374923885098406
2013-08-24,-0.00306146160987491
2013-08-25,-0.0023738221042116
2013-08-26,-0.00168632029133558
2013-08-27,-0.000998956128605139
2013-08-28,-0.000270385520104732
2013-08-29,0.000457965944150325
2013-08-30,0.00118609835494394
2013-08-31,0.00191401180300794
2013-09-01,0.00264170637901902
2013-09-02,0.00336918217360023
2013-09-03,0.0040964392773227
2013-09-04,0.00482347778070283
2013-09-05,0.00555029777420445
2013-09-06,0.00627689934823782
2013-09-07,0.00700328259315962
2013-09-08,0.00772944759927417
2013-09-09,0.00856676972012899
2013-09-10,0.00940386943117403
2013-09-11,0.0102407468335388
2013-09-12,0.0110774020282952
2013-09-13,0.0118291219700585
2013-09-14,0.0125805660805951
2013-09-15,0.0133317344283281
2013-09-16,0.0140826270815681
2013-09-17,0.0148332441085181
2013-09-18,0.0155835855772713
2013-09-19,0.0163336515558105
2013-09-20,0.0170834421120111
2013-09-21,0.0178329573136363
2013-09-22,0.0185821972283426
2013-09-23,0.0191988349287408
2013-09-24,0.0198152391991566
2013-09-25,0.020431410091331
2013-09-26,0.0210473476569045
2013-09-27,0.0217451396458951
2013-09-28,0.0224426108553165
2013-09-29,0.0231397614184936
2013-09-30,0.0238365914685857
2013-10-01,0.0245331011385857
2013-10-02,0.0252292905613175
2013-10-03,0.0259251598694388
2013-10-04,0.0266207091954421
2013-10-05,0.027315938671651
2013-10-06,0.0280108484302225
2013-10-07,0.0287054386031493
2013-10-08,0.029399709322253
2013-10-09,0.030073342672702
2013-10-10,0.0307467018892808
2013-10-11,0.0314197871132371
2013-10-12,0.0320925984856882
2013-10-13,0.0327651361476247
2013-10-14,0.0333985488781759
2013-10-15,0.0340317836790889
2013-10-16,0.0346648406398416
2013-10-17,0.0352977198498666
2013-10-18,0.0359304213985515
2013-10-19,0.0365629453752397
2013-10-20,0.0371952918692287
2013-10-21,0.0378274609697737
2013-10-22,0.0384594527660838
2013-10-23,0.0390912673473245
2013-10-24,0.0394965203204048
2013-10-25,0.0399015746461777
2013-10-26,0.0403064303572305
2013-10-27,0.0407110874860749
2013-10-28,0.041238881075325
2013-10-29,0.041766423305802
2013-10-30,0.0422937143076966
2013-10-31,0.0428207542110875
2013-11-01,0.0433475431459345
2013-11-02,0.0438740812420834
2013-11-03,0.0444003686292639
2013-11-04,0.044926405437092
2013-11-05,0.0454521917950665
2013-11-06,0.0459777278325721
2013-11-07,0.0465030136788785
2013-11-08,0.0470280494631413
2013-11-09,0.0474112998954381
2013-11-10,0.047794341392354
2013-11-11,0.0481771740512243
2013-11-12,0.0485597979692897
2013-11-13,0.0488893142006677
2013-11-14,0.0492186010074982
2013-11-15,0.0495476584432352
2013-11-16,0.0498764865612144
2013-11-17,0.0502050854146536
2013-11-18,0.0505334550566553
2013-11-19,0.0508615955402048
2013-11-20,0.0511895069181685
2013-11-21,0.0515009277506868
2013-11-22,0.0518121176948376
2013-11-23,0.0521230767982287
2013-11-24,0.0524338051083484
2013-11-25,0.0527443026725646
2013-11-26,0.0530545695381293
2013-11-27,0.0533646057521721
2013-11-28,0.0536621496124005
2013-11-29,0.053959418664125
2013-11-30,0.0542564129246924
2013-12-01,0.0545531324112549
2013-12-02,0.0548495771407722
2013-12-03,0.055145747130011
2013-12-04,0.0554416423955442
2013-12-05,0.0557372629537521
2013-12-06,0.0560326088208203
2013-12-07,0.0563276800127419
2013-12-08,0.0566224765453159
2013-12-09,0.0569169984341485
2013-12-10,0.0571399246878127
2013-12-11,0.0573625606522357
2013-12-12,0.0575849063110769
2013-12-13,0.0578069616477779
2013-12-14,0.0579446465373315
2013-12-15,0.0580819827942882
2013-12-16,0.0582189702226973
2013-12-17,0.0583556086261045
2013-12-18,0.0584918978075447
2013-12-19,0.058627837569547
2013-12-20,0.0587634277141307
2013-12-21,0.0588986680428048
2013-12-22,0.0593911935949293
2013-12-23,0.0598834030461455
2013-12-24,0.0603752963826633
2013-12-25,0.0608668735903952
2013-12-26,0.0615343355496456
2013-12-27,0.0622014505069535
2013-12-28,0.0628682186776075
2013-12-29,0.0635346402766711
2013-12-30,0.0642007155189823
2013-12-31,0.0648664446191517
2014-01-01,0.065531827791567
2014-01-02,0.0661968652503893
2014-01-03,0.0668615572095539
2014-01-04,0.0675259038827735
2014-01-05,0.0681899054835347
2014-01-06,0.0688535622251006
2014-01-07,0.0695168743205105
2014-01-08,0.0701798419825792
2014-01-09,0.0708956185728463
2014-01-10,0.0716111036114354
2014-01-11,0.0723262973304006
2014-01-12,0.0730411999616105
2014-01-13,0.0737558117367463
2014-01-14,0.0745607139481662
2014-01-15,0.0753653199142502
2014-01-16,0.0761696298419308
2014-01-17,0.0769736439379544
2014-01-18,0.0777773624088773
2014-01-19,0.0785807854610711
2014-01-20,0.0793839133007189
2014-01-21,0.0798571856998141
2014-01-22,0.0803302630578484
2014-01-23,0.0808031455090581
2014-01-24,0.0812758331875583
2014-01-25,0.0817483262273426
2014-01-26,0.0822810998684695
2014-01-27,0.0828136336758946
2014-01-28,0.0833459278281043
2014-01-29,0.0838779825034087
2014-01-30,0.0844097978799378
2014-01-31,0.0849413741356442
2014-02-01,0.0854727114483016
2014-02-02,0.0860038099955065
2014-02-03,0.086534669954677
2014-02-04,0.0870652915030553
2014-02-05,0.0875956748177031
2014-02-06,0.0881258200755098
2014-02-07,0.088655727453185
2014-02-08,0.0891853971272616
2014-02-09,0.0896355085307469
2014-02-10,0.0900854208051369
2014-02-11,0.0905351340978903
2014-02-12,0.0909846485563187
2014-02-13,0.0914540719355654
2014-02-14,0.0919232978692266
2014-02-15,0.0923923264822739
2014-02-16,0.092861157899573
2014-02-17,0.0933297922458861
2014-02-18,0.0937982296458671
2014-02-19,0.0942664702240664
2014-02-20,0.094734514104928
2014-02-21,0.0953462133902133
2014-02-22,0.0959576577310406
2014-02-23,0.0965688472873727
2014-02-24,0.0971797822190383
2014-02-25,0.0976544428412241
2014-02-26,0.0981289102547608
2014-02-27,0.0986031846001208
2014-02-28,0.0990772660176249
2014-03-01,0.0995511546474453
2014-03-02,0.100024850629603
2014-03-03,0.100498354103971
2014-03-04,0.100971665210272
2014-03-05,0.101444784088077
2014-03-06,0.101917710876813
2014-03-07,0.102390445715754
2014-03-08,0.102862988744028
2014-03-09,0.103335340100612
2014-03-10,0.103807499924337
2014-03-11,0.103918710672409
2014-03-12,0.104029857116753
2014-03-13,0.104140939312947
2014-03-14,0.104251957316506
2014-03-15,0.104362911182879
2014-03-16,0.104440380807324
2014-03-17,0.104517755122381
2014-03-18,0.104595034240052
2014-03-19,0.104672218272176
2014-03-20,0.104749307330429
2014-03-21,0.104826301526322
2014-03-22,0.104903200971199
2014-03-23,0.105014924693062
2014-03-24,0.105126516602764
2014-03-25,0.105237976854173
2014-03-26,0.10534930560093
2014-03-27,0.105460502996452
2014-03-28,0.105682699985261
2014-03-29,0.10590464901209
2014-03-30,0.106126350454459
2014-03-31,0.106347804689138
2014-04-01,0.106569012092145
2014-04-02,0.10678997303875
2014-04-03,0.107010687903477
2014-04-04,0.107231157060103
2014-04-05,0.107451380881665
2014-04-06,0.107671359740457
2014-04-07,0.107891094008032
2014-04-08,0.108110584055208
2014-04-09,0.108329830252065
2014-04-10,0.108548832967952
2014-04-11,0.10889512094304
2014-04-12,0.109241142465715
2014-04-13,0.109586897906874
2014-04-14,0.109932387636696
2014-04-15,0.110201888133183
2014-04-16,0.110471147309928
2014-04-17,0.110740165514077
2014-04-18,0.111008943092106
2014-04-19,0.111277480389824
2014-04-20,0.111545777752367
2014-04-21,0.11181383552421
2014-04-22,0.112081654049156
2014-04-23,0.112386525611731
2014-04-24,0.112691128428709
2014-04-25,0.112995462884574
2014-04-26,0.11329952936307
2014-04-27,0.113588198513226
2014-04-28,0.113876513731686
2014-04-29,0.114164475626039
2014-04-30,0.114452084802493
2014-05-01,0.11473934186587
2014-05-02,0.115026247419617
2014-05-03,0.115312802065805
2014-05-04,0.115599006405139
2014-05-05,0.115884861036954
2014-05-06,0.116170366559225
2014-05-07,0.116455523568569
2014-05-08,0.116740332660247
2014-05-09,0.117024794428172
2014-05-10,0.117308909464908
2014-05-11,0.117592678361677
2014-05-12,0.118097301160686
2014-05-13,0.118601446904863
2014-05-14,0.119105116395767
2014-05-15,0.119608310433142
2014-05-16,0.119995366854929
2014-05-17,0.120382062485495
2014-05-18,0.120768397840974
2014-05-19,0.121154373436522
2014-05-20,0.121539989786308
2014-05-21,0.121925247403527
2014-05-22,0.122310146800398
2014-05-23,0.122694688488164
2014-05-24,0.123033819393223
2014-05-25,0.12337258887824
2014-05-26,0.123710997455486
2014-05-27,0.124049045636262
2014-05-28,0.124253699054634
2014-05-29,0.124458024671511
2014-05-30,0.124662022862506
2014-05-31,0.124865694002578
2014-06-01,0.125069038466041
2014-06-02,0.125272056626562
2014-06-03,0.125474748857165
2014-06-04,0.125677115530229
2014-06-05,0.125879157017492
2014-06-06,0.12608087369005
2014-06-07,0.126282265918361
2014-06-08,0.126483334072245
2014-06-09,0.126699866310084
2014-06-10,0.126916068897669
2014-06-11,0.12713194221269
2014-06-12,0.12734748663219
2014-06-13,0.127562702532565
2014-06-14,0.127777590289565
2014-06-15,0.127992150278297
2014-06-16,0.128216589839884
2014-06-17,0.128440633629234
2014-06-18,0.128664282161432
2014-06-19,0.128887535950561
2014-06-20,0.129110395509704
2014-06-21,0.129332861350944
2014-06-22,0.129554933985375
2014-06-23,0.129699983058575
2014-06-24,0.129844595129806
2014-06-25,0.129988770737731
2014-06-26,0.130132510419955
2014-06-27,0.130275814713032
2014-06-28,0.130351869802783
2014-06-29,0.130427588123054
2014-06-30,0.130502969958939
2014-07-01,0.130578015595066
2014-07-02,0.130652725315594
2014-07-03,0.130727099404221
2014-07-04,0.130801138144176
2014-07-05,0.130874841818227
2014-07-06,0.130948210708678
2014-07-07,0.13102124509737
2014-07-08,0.131093945265686
2014-07-09,0.131166311494545
2014-07-10,0.130891631364572
2014-07-11,0.130616663025333
2014-07-12,0.130341406635296
2014-07-13,0.130065862352624
2014-07-14,0.129628929684249
2014-07-15,0.129191729708164
2014-07-16,0.128754262364798
2014-07-17,0.128316527594484
2014-07-18,0.127878525337455
2014-07-19,0.127440255533845
2014-07-20,0.127001718123691
2014-07-21,0.12656291304693
2014-07-22,0.126123840243403
2014-07-23,0.125684499652849
2014-07-24,0.124923655458018
2014-07-25,0.124162464413412
2014-07-26,0.123400926402426
2014-07-27,0.122639041308335
2014-07-28,0.121922775098531
2014-07-29,0.121206019977494
2014-07-30,0.120488775941333
2014-07-31,0.119771042985748
2014-08-01,0.119052821106032
2014-08-02,0.118334110297071
2014-08-03,0.117614910553342
2014-08-04,0.116895221868919
2014-08-05,0.116175044237467
2014-08-06,0.115454377652247
2014-08-07,0.114733222106113
2014-08-08,0.114011577591515
2014-08-09,0.113611096606684
2014-08-10,0.113210138787614
2014-08-11,0.112808704253219
2014-08-12,0.112406793121916
2014-08-13,0.112004405511627
2014-08-14,0.111544226462672
2014-08-15,0.111083557202366
2014-08-16,0.110622397733026
2014-08-17,0.110160748056556
2014-08-18,0.109698608174442
2014-08-19,0.109235978087762
2014-08-20,0.108772857797176
2014-08-21,0.108309247302932
2014-08-22,0.107845146604867
2014-08-23,0.109360027414995
2014-08-24,0.110873250342081
2014-08-25,0.1123848166802
2014-08-26,0.113894727721348
2014-08-27,0.11540298475545
2014-08-28,0.116831547260829
2014-08-29,0.118258400865954
2014-08-30,0.119683546695491
2014-08-31,0.121106985872039
2014-09-01,0.122528719516135
2014-09-02,0.123948748746256
2014-09-03,0.125367074678818
2014-09-04,0.126783698428186
2014-09-05,0.12819862110667
2014-09-06,0.129611843824529
2014-09-07,0.131023367689978
2014-09-08,0.132433193809184
2014-09-09,0.133702525698554
2014-09-10,0.134970172504118
2014-09-11,0.136236135254279
2014-09-12,0.137500414975435
2014-09-13,0.138918871603994
2014-09-14,0.140336236635184
2014-09-15,0.141752510670697
2014-09-16,0.14316769431155
2014-09-17,0.144581788158079
2014-09-18,0.145994792809949
2014-09-19,0.147406708866148
2014-09-20,0.148817536924991
2014-09-21,0.150227277584118
2014-09-22,0.151635931440499
2014-09-23,0.152512751948223
2014-09-24,0.153388445522972
2014-09-25,0.154263012662084
2014-09-26,0.15513645386225
2014-09-27,0.155683846454143
2014-09-28,0.156230812453559
2014-09-29,0.156777351368641
2014-09-30,0.157323462706954
2014-10-01,0.157869145975483
2014-10-02,0.158414400680631
2014-10-03,0.15895922632822
2014-10-04,0.15950362242349
2014-10-05,0.160047588471097
2014-10-06,0.160591123975114
2014-10-07,0.161134228439028
2014-10-08,0.16167690136574
2014-10-09,0.162188604738363
2014-10-10,0.162699880763542
2014-10-11,0.163210728950921
2014-10-12,0.163721148809565
2014-10-13,0.164231139847958
2014-10-14,0.16464791385237
2014-10-15,0.165064553616251
2014-10-16,0.165481058791721
2014-10-17,0.165897429030298
2014-10-18,0.1663136639829
2014-10-19,0.16672976329984
2014-10-20,0.167145726630831
2014-10-21,0.167561553624976
2014-10-22,0.167977243930777
2014-10-23,0.168392797196125
2014-10-24,0.167506653866783
2014-10-25,0.166619709745562
2014-10-26,0.165731963943016
2014-10-27,0.164843415568484
2014-10-28,0.164089080603021
2014-10-29,0.163334313995895
2014-10-30,0.162579115397388
2014-10-31,0.161823484457422
2014-11-01,0.161067420825549
2014-11-02,0.160310924150959
2014-11-03,0.159553994082475
2014-11-04,0.158796630268554
2014-11-05,0.158038832357285
2014-11-06,0.157280599996392
2014-11-07,0.15652193283323
2014-11-08,0.155762830514787
2014-11-09,0.154967389424481
2014-11-10,0.154171497776726
2014-11-11,0.153375155208329
2014-11-12,0.152578361355719
2014-11-13,0.15181876037761
2014-11-14,0.151059006104203
2014-11-15,0.150299098573323
2014-11-16,0.149539037822971
2014-11-17,0.148778823891331
2014-11-18,0.148018456816763
2014-11-19,0.14725793663781
2014-11-20,0.146497263393193
2014-11-21,0.145169657886712
2014-11-22,0.143841640997722
2014-11-23,0.142513212584165
2014-11-24,0.14118437250399
2014-11-25,0.139855120615154
2014-11-26,0.138525456775624
2014-11-27,0.137195380843372
2014-11-28,0.136046624507963
2014-11-29,0.134897344953482
2014-11-30,0.133747541949564
2014-12-01,0.132597215265715
2014-12-02,0.13144636467131
2014-12-03,0.130294989935598
2014-12-04,0.129143090827698
2014-12-05,0.1279906671166
2014-12-06,0.126837718571163
2014-12-07,0.125684244960119
2014-12-08,0.124530246052072
2014-12-09,0.123375721615493
2014-12-10,0.122267613053257
2014-12-11,0.121158992196255
2014-12-12,0.120049858818313
2014-12-13,0.11894021269313
2014-12-14,0.117970874923083
2014-12-15,0.117001230016149
2014-12-16,0.116031277923084
2014-12-17,0.115061018594624
2014-12-18,0.114090451981497
2014-12-19,0.113119578034408
2014-12-20,0.112148396704051
2014-12-21,0.111176907941104
2014-12-22,0.10958080640152
2014-12-23,0.10798443405174
2014-12-24,0.106387790839567
2014-12-25,0.104790876712792
2014-12-26,0.103205986988372
2014-12-27,0.101620831203635
2014-12-28,0.100035409315196
2014-12-29,0.0984497212796556
2014-12-30,0.0968637670536034
2014-12-31,0.0952775465936113
2015-01-01,0.0936910598562434
2015-01-02,0.092104306798048
2015-01-03,0.0905172873755603
2015-01-04,0.0889300015453031
2015-01-05,0.0873424492637858
2015-01-06,0.0857546304875036
2015-01-07,0.0841665451729416
2015-01-08,0.0825781932765686
2015-01-09,0.0810705634274608
2015-01-10,0.0795626834842349
2015-01-11,0.0780545534056849
2015-01-12,0.0765461731505931
2015-01-13,0.0750375426777279
2015-01-14,0.0735809966676905
2015-01-15,0.0721242086096126
2015-01-16,0.0706671785119932
2015-01-17,0.0692099063833067
2015-01-18,0.0677523922320032
2015-01-19,0.0662946360665077
2015-01-20,0.0648366378952207
2015-01-21,0.0639985857311814
2015-01-22,0.0631602908716855
2015-01-23,0.0623217533523294
2015-01-24,0.061482973208674
2015-01-25,0.0606439504762455
2015-01-26,0.0594873572169808
2015-01-27,0.0583303305084985
2015-01-28,0.0571728701087336
2015-01-29,0.0560149757754424
2015-01-30,0.0548566472662016
2015-01-31,0.0536978843384086
2015-02-01,0.0525386867492808
2015-02-02,0.0513790542558553
2015-02-03,0.0502189866149891
2015-02-04,0.0490584835833607
2015-02-05,0.0478975449174646
2015-02-06,0.0467361703736176
2015-02-07,0.0455743597079547
2015-02-08,0.0444121126764303
2015-02-09,0.0435806703680771
2015-02-10,0.0427489088933067
2015-02-11,0.0419168280703852
2015-02-12,0.0410844277174427
2015-02-13,0.0402472679720331
2015-02-14,0.0394099549274939
2015-02-15,0.0385724886323124
2015-02-16,0.0377348691351735
2015-02-17,0.0368970964849671
2015-02-18,0.0360591707307804
2015-02-19,0.0352210919219043
2015-02-20,0.0343828601078333
2015-02-21,0.0342932319822143
2015-02-22,0.0342038118737894
2015-02-23,0.0341146001280224
2015-02-24,0.0340255970909373
2015-02-25,0.0342501293429197
2015-02-26,0.0344747966802751
2015-02-27,0.0346995991563299
2015-02-28,0.0349245368244364
2015-03-01,0.0351496097379737
2015-03-02,0.0353748179503431
2015-03-03,0.0356001615149734
2015-03-04,0.0358256404853169
2015-03-05,0.0360512549148526
2015-03-06,0.0362770048570845
2015-03-07,0.0365028903655393
2015-03-08,0.0367289114937723
2015-03-09,0.036955068295362
2015-03-10,0.037181360823913
2015-03-11,0.035410148312193
2015-03-12,0.0336386448739814
2015-03-13,0.031866850419608
2015-03-14,0.0300947648593651
2015-03-15,0.0283223881035043
2015-03-16,0.0266413074513093
2015-03-17,0.0249600083839688
2015-03-18,0.0232784908245557
2015-03-19,0.0215967546961124
2015-03-20,0.0199147999216466
2015-03-21,0.0182326264241359
2015-03-22,0.0165502341265241
2015-03-23,0.0148496980968014
2015-03-24,0.0131489091664442
2015-03-25,0.0114478672489007
2015-03-26,0.00974657225758274
2015-03-27,0.00804502410586519
2015-03-28,0.00622576533034885
2015-03-29,0.00440576353859104
2015-03-30,0.00258501813040229
2015-03-31,0.000763528504929306
2015-04-01,-0.00105870593935206
2015-04-02,-0.0028816858046308
2015-04-03,-0.00470541169376601
2015-04-04,-0.00652988421028752
2015-04-05,-0.00835510395839401
2015-04-06,-0.0101810715429569
2015-04-07,-0.0120077875695204
2015-04-08,-0.0138352526443019
2015-04-09,-0.0156634673741922
2015-04-10,-0.0174924323667598
2015-04-11,-0.0187775541026677
2015-04-12,-0.0200633243514219
2015-04-13,-0.0213497436512537
2015-04-14,-0.0226368125409936
2015-04-15,-0.0235816322750577
2015-04-16,-0.0245264204180345
2015-04-17,-0.025471176965128
2015-04-18,-0.0264159019115449
2015-04-19,-0.0273605952524966
2015-04-20,-0.0283052569831973
2015-04-21,-0.0292498870988655
2015-04-22,-0.0301944855947247
2015-04-23,-0.0313786687338419
2015-04-24,-0.0325627887892203
2015-04-25,-0.0337468457646981
2015-04-26,-0.0349308396641125
2015-04-27,-0.0361212237553572
2015-04-28,-0.0373118705145868
2015-04-29,-0.0385027800119625
2015-04-30,-0.0396939523176811
2015-05-01,-0.0408853875019718
2015-05-02,-0.0420770856350938
2015-05-03,-0.0432690467873421
2015-05-04,-0.0444612710290417
2015-05-05,-0.0456537584305512
2015-05-06,-0.0468465090622625
2015-05-07,-0.0480395229945994
2015-05-08,-0.0492328002980172
2015-05-09,-0.050426341043006
2015-05-10,-0.0516201453000867
2015-05-11,-0.0528142131398148
2015-05-12,-0.0526828824115738
2015-05-13,-0.0525518659721746
2015-05-14,-0.0524211637905887
2015-05-15,-0.0522907758358387
2015-05-16,-0.0523147240043888
2015-05-17,-0.0523388442608199
2015-05-18,-0.0523631366306191
2015-05-19,-0.0523876011392885
2015-05-20,-0.0524122378123419
2015-05-21,-0.0524370466753082
2015-05-22,-0.0524620277537281
2015-05-23,-0.0524871810731585
2015-05-24,-0.0519442101862459
2015-05-25,-0.0514014164265072
2015-05-26,-0.0508587998058912
2015-05-27,-0.0503163603363581
2015-05-28,-0.0498016038591879
2015-05-29,-0.0492870886315719
2015-05-30,-0.0487728147225601
2015-05-31,-0.0482587822012553
2015-06-01,-0.0477449911368146
2015-06-02,-0.0472314415984488
2015-06-03,-0.0467181336554229
2015-06-04,-0.0462050673770576
2015-06-05,-0.045692242832725
2015-06-06,-0.0451796600918533
2015-06-07,-0.0446673192239241
2015-06-08,-0.0441552202984742
2015-06-09,-0.0430702885942228
2015-06-10,-0.041985571647684
2015-06-11,-0.0409010694950241
2015-06-12,-0.0398167821724444
2015-06-13,-0.0387327097161801
2015-06-14,-0.0376488521625044
2015-06-15,-0.0365652095477248
2015-06-16,-0.0356847490818653
2015-06-17,-0.0348045550301199
2015-06-18,-0.0339246278142608
2015-06-19,-0.0330449678567996
2015-06-20,-0.0321655755809876
2015-06-21,-0.0312864514108151
2015-06-22,-0.0304075957710175
2015-06-23,-0.0302246092896236
2015-06-24,-0.0300423554258066
2015-06-25,-0.0298608351995449
2015-06-26,-0.0296800496325953
2015-06-27,-0.0294999997484971
2015-06-28,-0.0292666622703298
2015-06-29,-0.0290341404484323
2015-06-30,-0.0288024353527213
2015-07-01,-0.0285715480550063
2015-07-02,-0.0283414796289988
2015-07-03,-0.0281122311503089
2015-07-04,-0.027883803696456
2015-07-05,-0.0276561983468699
2015-07-06,-0.0274294161828962
2015-07-07,-0.0272034582877994
2015-07-08,-0.0269783257467692
2015-07-09,-0.0267540196469206
2015-07-10,-0.0258874702609706
2015-07-11,-0.0250211713407781
2015-07-12,-0.0241551232079685
2015-07-13,-0.0232893261847412
2015-07-14,-0.022438203929551
2015-07-15,-0.0215873421077293
2015-07-16,-0.0207367410845099
2015-07-17,-0.0198864012258109
2015-07-18,-0.0190363228982363
2015-07-19,-0.0181865064690747
2015-07-20,-0.0173369523063041
2015-07-21,-0.0164876607785915
2015-07-22,-0.0156386322552953
2015-07-23,-0.0147898671064671
2015-07-24,-0.0135487430190464
2015-07-25,-0.0123076688337247
2015-07-26,-0.0110666446208133
2015-07-27,-0.00982567045075679
2015-07-28,-0.00848649324606024
2015-07-29,-0.00714756798959809
2015-07-30,-0.00580889477577684
2015-07-31,-0.00447047369928229
2015-08-01,-0.00313230485508165
2015-08-02,-0.0017943883384204
2015-08-03,-0.000456724244829759
2015-08-04,0.00088068732988085
2015-08-05,0.00221784628961756
2015-08-06,0.00355475253800187
2015-08-07,0.00489140597837262
2015-08-08,0.00622780651378148
2015-08-09,0.00693605127422618
2015-08-10,0.00764392337805973
2015-08-11,0.00835142243078396
2015-08-12,0.00905854803699571
2015-08-13,0.00976529980038629
2015-08-14,0.0108164107168192
2015-08-15,0.0118669991920458
2015-08-16,0.0129170654482352
2015-08-17,0.0139666097073154
2015-08-18,0.0150156321909739
2015-08-19,0.0160641331206565
2015-08-20,0.0171121127175695
2015-08-21,0.0181595712026786
2015-08-22,0.0192065087967088
2015-08-23,0.0211611272910003
2015-08-24,0.0231152752986932
2015-08-25,0.025068953277414
2015-08-26,0.0270221616846052
2015-08-27,0.0289749009775241
2015-08-28,0.0312706835596503
2015-08-29,0.0335651747868799
2015-08-30,0.0358583761835093
2015-08-31,0.0381502892717179
2015-09-01,0.0404409155715725
2015-09-02,0.0427302566010279
2015-09-03,0.0450183138759347
2015-09-04,0.0473050889100399
2015-09-05,0.049590583214992
2015-09-06,0.051874798300345
2015-09-07,0.0541577356735621
2015-09-08,0.0564393968400194
2015-09-09,0.0579599940928148
2015-09-10,0.0594795306120145
2015-09-11,0.0609980075437181
2015-09-12,0.0625154260323917
2015-09-13,0.0637133359954908
2015-09-14,0.0649106598370002
2015-09-15,0.0661073978921588
2015-09-16,0.0673035504958232
2015-09-17,0.0684991179824708
2015-09-18,0.0696941006861943
2015-09-19,0.0708884989407081
2015-09-20,0.0720823130793435
2015-09-21,0.0732755434350523
2015-09-22,0.0744681903404064
2015-09-23,0.074951774255042
2015-09-24,0.0754347804529671
2015-09-25,0.0759172089210564
2015-09-26,0.0763990596456114
2015-09-27,0.0752983717766201
2015-09-28,0.0741798878184617
2015-09-29,0.0730433351502425
2015-09-30,0.0718884355003544
2015-10-01,0.0707149047993363
2015-10-02,0.0695224530281271
2015-10-03,0.0683107840615115
2015-10-04,0.0670795955066121
2015-10-05,0.0658285785362186
2015-10-06,0.0645574177167686
2015-10-07,0.063265790830788
2015-10-08,0.0619533686935696
2015-10-09,0.0606574993964492
2015-10-10,0.0593419071082334
2015-10-11,0.0580062689391793
2015-10-12,0.0566502548637784
2015-10-13,0.0552735275225747
2015-10-14,0.0540148560170014
2015-10-15,0.0527361785281868
2015-10-16,0.0514371714751661
2015-10-17,0.050117504187734
2015-10-18,0.0487768387113006
2015-10-19,0.0474148296052537
2015-10-20,0.0460311237345926
2015-10-21,0.0446253600545587
2015-10-22,0.0431971693879994
2015-10-23,0.0417461741951598
2015-10-24,0.0405211161093714
2015-10-25,0.0392719257509659
2015-10-26,0.0379981913211547
2015-10-27,0.0366994914760434
2015-10-28,0.0359406529002822
2015-10-29,0.0351590570869441
2015-10-30,0.0343543505977406
2015-10-31,0.0335261722519551
2015-11-01,0.0326741529140591
2015-11-02,0.0317979152743059
2015-11-03,0.0308970736220139
2015-11-04,0.0299712336112631
2015-11-05,0.0290199920187068
2015-11-06,0.0280429364931765
2015-11-07,0.0270396452967712
2015-11-08,0.0260096870370727
2015-11-09,0.025232905277692
2015-11-10,0.0244305068942003
2015-11-11,0.0236020651927788
2015-11-12,0.0227471434816505
2015-11-13,0.0219126711699554
2015-11-14,0.0210524481204301
2015-11-15,0.0201660474270895
2015-11-16,0.0192530322571154
2015-11-17,0.0183129555615003
2015-11-18,0.0173453597755058
2015-11-19,0.0163497765085269
2015-11-20,0.0153257262229064
2015-11-21,0.0142727179012399
2015-11-22,0.0135554528410331
2015-11-23,0.0128089633779224
2015-11-24,0.0120327397789857
2015-11-25,0.0112262598059877
2015-11-26,0.0103889883306705
2015-11-27,0.00952037693575844
2015-11-28,0.0102739609879994
2015-11-29,0.0110117091739845
2015-11-30,0.0117334811061265
2015-12-01,0.0124391339769344
2015-12-02,0.0131285225106085
2015-12-03,0.0138014989134595
2015-12-04,0.014457912823103
2015-12-05,0.0150976112564046
2015-12-06,0.0157204385561386
2015-12-07,0.0163262363363195
2015-12-08,0.0169148434261651
2015-12-09,0.0174860958126656
2015-12-10,0.0173942026163742
2015-12-11,0.0172830136562217
2015-12-12,0.0171523269806851
2015-12-13,0.0170019370854793
2015-12-14,0.0168901011513256
2015-12-15,0.0167590102180852
2015-12-16,0.0166084649925333
2015-12-17,0.0164382627095247
2015-12-18,0.0162481970593591
2015-12-19,0.0160380581133043
2015-12-20,0.0158076322472178
2015-12-21,0.0155567020632104
2015-12-22,0.0152850463092931
2015-12-23,0.0142093895431992
2015-12-24,0.0131110408974354
2015-12-25,0.011989735405659
2015-12-26,0.011563430764626
2015-12-27,0.0111185247684698
2015-12-28,0.0106548585981709
2015-12-29,0.0101722709296984
2015-12-30,0.00967059788874886
2015-12-31,0.00914967300447539
2016-01-01,0.00860932716218438
2016-01-02,0.00804938855496776
2016-01-03,0.0074696826342513
2016-01-04,0.0068700320592172
2016-01-05,0.00625025664508853
2016-01-06,0.00561017331022877
2016-01-07,0.00494959602203829
2016-01-08,0.00426833574160403
2016-01-09,0.00463825176316388
2016-01-10,0.00499378223965255
2016-01-11,0.00533481043500765
2016-01-12,0.0056612176184461
2016-01-13,0.00597288302665873
2016-01-14,0.00623120002352411
2016-01-15,0.00647479603839568
2016-01-16,0.00670354472580012
2016-01-17,0.00691731758223396
2016-01-18,0.00711598390439083
2016-01-19,0.00729941074639748
2016-01-20,0.00746746287601868
2016-01-21,0.00762000272981651
2016-01-22,0.00731934481502357
2016-01-23,0.0069998942028518
2016-01-24,0.00666146826980435
2016-01-25,0.00630388126278247
2016-01-26,0.00749527618087828
2016-01-27,0.00868267037142695
2016-01-28,0.00986606846893628
2016-01-29,0.0110454750624092
2016-01-30,0.0122208946953939
2016-01-31,0.0133923318660205
2016-02-01,0.0145597910270407
2016-02-02,0.0157232765858685
2016-02-03,0.0168827929046155
2016-02-04,0.0180383443001278
2016-02-05,0.0191899350440179
2016-02-06,0.0203375693627017
2016-02-07,0.0214812514374268
2016-02-08,0.0226209854043032
2016-02-09,0.0231830421767265
2016-02-10,0.0237404453944207
2016-02-11,0.0242931949118941
2016-02-12,0.0248412905253238
2016-02-13,0.0253607767003957
2016-02-14,0.0258762829900787
2016-02-15,0.0263878097011015
2016-02-16,0.0268953570986902
2016-02-17,0.0273989254065328
2016-02-18,0.0278985148067381
2016-02-19,0.0283941254397977
2016-02-20,0.0288857574045454
2016-02-21,0.0293734107581133
2016-02-22,0.0297287224604176
2016-02-23,0.0300799071371385
2016-02-24,0.0304269639482378
2016-02-25,0.029963631294312
2016-02-26,0.0294943150830189
2016-02-27,0.029018990506328
2016-02-28,0.0285376325581705
2016-02-29,0.0280502160326995
2016-03-01,0.0275567155225225
2016-03-02,0.0270571054169224
2016-03-03,0.0265513599000508
2016-03-04,0.0260394529491097
2016-03-05,0.0255213583325068
2016-03-06,0.0249970496079919
2016-03-07,0.0244665001207729
2016-03-08,0.0239296830016124
2016-03-09,0.0233865711649
2016-03-10,0.0215342744088373
2016-03-11,0.0196726671464625
2016-03-12,0.0178017018484255
2016-03-13,0.0159213306216687
2016-03-14,0.0140315052060685
2016-03-15,0.0117816748530394
2016-03-16,0.00952129653735401
2016-03-17,0.00725030669586327
2016-03-18,0.0049686412370773
2016-03-19,0.00267623553570195
2016-03-20,0.000373024427109653
2016-03-21,-0.001941057798266
2016-03-22,-0.0042660774005947
2016-03-23,-0.00668580246518113
2016-03-24,-0.00911694936255569
2016-03-25,-0.0115595882426372
2016-03-26,-0.0140137898478735
2016-03-27,-0.0178508481976929
2016-03-28,-0.0217161749520741
2016-03-29,-0.025610091933722
2016-03-30,-0.029532925861467
2016-03-31,-0.0334850084437402
2016-04-01,-0.0374666764741985
2016-04-02,-0.0414782719295537
2016-04-03,-0.0455201420696739
2016-04-04,-0.0495926395400108
2016-04-05,-0.0536961224764172
2016-04-06,-0.0578309546124273
2016-04-07,-0.0619975053890575
2016-04-08,-0.0661961500672075
2016-04-09,-0.0704272698427204
2016-04-10,-0.0737457429845298
2016-04-11,-0.0770932768681872
2016-04-12,-0.080470218635149
2016-04-13,-0.0838769210072538
2016-04-14,-0.0803509190521515
2016-04-15,-0.0768610988332538
2016-04-16,-0.0734068362602007
2016-04-17,-0.0699875216087306
2016-04-18,-0.0666025591095341
2016-04-19,-0.0632513665511419
2016-04-20,-0.0599333748962985
2016-04-21,-0.0566480279112949
2016-04-22,-0.0533947818077358
2016-04-23,-0.0499688145656662
2016-04-24,-0.0465750400223675
2016-04-25,-0.043212931821983
2016-04-26,-0.0395223690811806
2016-04-27,-0.0358717949643535
2016-04-28,-0.0322604819243367
2016-04-29,-0.028687720044043
2016-04-30,-0.0251528165055555
2016-05-01,-0.0216550950782878
2016-05-02,-0.0181938956254236
2016-05-03,-0.0147685736278746
2016-05-04,-0.0113784997250344
2016-05-05,-0.00802305927164473
2016-05-06,-0.00470165191011668
2016-05-07,-0.00141369115768036
2016-05-08,0.00184139599222971
2016-05-09,0.00506416945492863
2016-05-10,0.00825517642631127
2016-05-11,0.0112187811996316
2016-05-12,0.0141511229440131
2016-05-13,0.0170527240645757
2016-05-14,0.0199240953611141
2016-05-15,0.0220539008074767
2016-05-16,0.0241619056632761
2016-05-17,0.0262484248404583
2016-05-18,0.0283137672176936
2016-05-19,0.0303582357841765
2016-05-20,0.0323821277793271
2016-05-21,0.03438573482854
2016-05-22,0.0363693430750995
2016-05-23,0.0383332333083982
2016-05-24,0.040602040563609
2016-05-25,0.0428455405080692
2016-05-26,0.0450640220459404
2016-05-27,0.0476607064753378
2016-05-28,0.0502272368555622
2016-05-29,0.052764009566952
2016-05-30,0.0552714116313587
2016-05-31,0.0577498209137743
2016-06-01,0.0601996063168141
2016-06-02,0.0626211279682719
2016-06-03,0.0650147374019413
2016-06-04,0.0673807777319025
2016-06-05,0.0697195838204418
2016-06-06,0.0720314824397925
2016-06-07,0.0743167924278484
2016-06-08,0.0765758248380118
2016-06-09,0.0784545064508666
2016-06-10,0.0803074274261141
2016-06-11,0.0821348603962692
2016-06-12,0.0839370706618795
2016-06-13,0.0857143163053058
2016-06-14,0.0874668482992831
2016-06-15,0.0873792347781681
2016-06-16,0.087281759072868
2016-06-17,0.0871743780485054
2016-06-18,0.0870570464741022
2016-06-19,0.0869297169748894
2016-06-20,0.0867923399827735
2016-06-21,0.0866448636848856
2016-06-22,0.0864872339701455
2016-06-23,0.0863193943737479
2016-06-24,0.0861412860195007
2016-06-25,0.0859528475599168
2016-06-26,0.0857540151139784
2016-06-27,0.0848957305730689
2016-06-28,0.0840280647411904
2016-06-29,0.0831509169655155
2016-06-30,0.0822641837782945
2016-07-01,0.0813677588124634
2016-07-02,0.0804615327140592
2016-07-03,0.0795453930513033
2016-07-04,0.0786192242201997
2016-07-05,0.0776829073465033
2016-07-06,0.0767363201838824
2016-07-07,0.0757793370081168
2016-07-08,0.0748118285071443
2016-07-09,0.0738336616667633
2016-07-10,0.0736421790791595
2016-07-11,0.0734433990959621
2016-07-12,0.0731132117951112
2016-07-13,0.0721146234516618
2016-07-14,0.0711088515246985
2016-07-15,0.0700957945538928
2016-07-16,0.0690753482936714
2016-07-17,0.0680474056176849
2016-07-18,0.0670118564192928
2016-07-19,0.0659685875078683
2016-07-20,0.0649174825007222
2016-07-21,0.0638584217104225
2016-07-22,0.0627912820272787
2016-07-23,0.061715936796754
2016-07-24,0.0606322556915445
2016-07-25,0.0595401045780471
2016-07-26,0.0584393453769374
2016-07-27,0.0584417115471969
2016-07-28,0.0584302366545726
2016-07-29,0.0584048576253826
2016-07-30,0.0583655069914882
2016-07-31,0.0583121127579304
2016-08-01,0.0582445982638694
2016-08-02,0.0581628820364672
2016-08-03,0.0580668776373409
2016-08-04,0.0579564935011937
2016-08-05,0.0578316327661896
2016-08-06,0.0576921930956272
2016-08-07,0.0575380664904333
2016-08-08,0.0573691390919565
2016-08-09,0.0577309681696577
2016-08-10,0.058083916711822
2016-08-11,0.0584280220813269
2016-08-12,0.0587633202338628
2016-08-13,0.0579931253717551
2016-08-14,0.0572206172055543
2016-08-15,0.0564457623208365
2016-08-16,0.0556685260270092
2016-08-17,0.054888872296408
2016-08-18,0.0541067636999737
2016-08-19,0.0533221613392739
2016-08-20,0.0525350247746447
2016-08-21,0.0517453119491858
2016-08-22,0.0509529791083337
2016-08-23,0.050157980714722
2016-08-24,0.0493602693580033
2016-08-25,0.0485597956592882
2016-08-26,0.0477565081698352
2016-08-27,0.0464263302333373
2016-08-28,0.0450927956826994
2016-08-29,0.0437558385606855
2016-08-30,0.0424153901151172
2016-08-31,0.0410713786493995
2016-09-01,0.0397237293635771
2016-09-02,0.0383723641852221
2016-09-03,0.0370172015894033
2016-09-04,0.0356581564069058
2016-09-05,0.0342951396198246
2016-09-06,0.032928058143561
2016-09-07,0.0315568145941656
2016-09-08,0.0301813070398926
2016-09-09,0.0290023849298727
2016-09-10,0.0278232351356134
2016-09-11,0.026643875244287
2016-09-12,0.0261493912335332
2016-09-13,0.0256556393735069
2016-09-14,0.0251626397116849
2016-09-15,0.0246704123865086
2016-09-16,0.0241789775990927
2016-09-17,0.0236883555813358
2016-09-18,0.0231985665600401
2016-09-19,0.0227096307166049
2016-09-20,0.0222215681418088
2016-09-21,0.0217343987851438
2016-09-22,0.0212481423980976
2016-09-23,0.0207628184707105
2016-09-24,0.0202784461606609
2016-09-25,0.0197950442140405
2016-09-26,0.0181288493736896
2016-09-27,0.0164609764433872
2016-09-28,0.0147914271842419
2016-09-29,0.0131202020997831
2016-09-30,0.0114473002687843
2016-10-01,0.00977271915942284
2016-10-02,0.00809645442260785
2016-10-03,0.00641849966201838
2016-10-04,0.00473884617809578
2016-10-05,0.00305748268285465
2016-10-06,0.00137439498197506
2016-10-07,-0.00031043437984099
2016-10-08,-0.00199702651481488
2016-10-09,-0.00349284481954837
2016-10-10,-0.00498352793576269
2016-10-11,-0.00646875504912671
2016-10-12,-0.00794818656629996
2016-10-13,-0.00844224576507464
2016-10-14,-0.00892743564148196
2016-10-15,-0.00940336248053709
2016-10-16,-0.00986960845500313
2016-10-17,-0.0103257296062674
2016-10-18,-0.0107712536077277
2016-10-19,-0.0112056772819432
