<?xml version="1.0" encoding="UTF-8"?>
<svg xmlns="http://www.w3.org/2000/svg" xmlns:xlink="http://www.w3.org/1999/xlink" width="504pt" height="504pt" viewBox="0 0 504 504" version="1.1">
<defs>
<g>
<symbol overflow="visible" id="glyph0-0">
<path style="stroke:none;" d=""/>
</symbol>
<symbol overflow="visible" id="glyph0-1">
<path style="stroke:none;" d="M 3.296875 -8.515625 C 2.515625 -8.515625 1.78125 -8.15625 1.34375 -7.578125 C 0.796875 -6.828125 0.515625 -5.6875 0.515625 -4.109375 C 0.515625 -1.234375 1.46875 0.28125 3.296875 0.28125 C 5.09375 0.28125 6.078125 -1.25 6.078125 -4.046875 C 6.078125 -5.703125 5.8125 -6.796875 5.25 -7.578125 C 4.8125 -8.171875 4.109375 -8.515625 3.296875 -8.515625 Z M 3.296875 -7.578125 C 4.4375 -7.578125 5 -6.4375 5 -4.140625 C 5 -1.734375 4.453125 -0.59375 3.28125 -0.59375 C 2.15625 -0.59375 1.59375 -1.78125 1.59375 -4.109375 C 1.59375 -6.4375 2.15625 -7.578125 3.296875 -7.578125 Z M 3.296875 -7.578125 "/>
</symbol>
<symbol overflow="visible" id="glyph0-2">
<path style="stroke:none;" d="M 6.078125 -1.046875 L 1.59375 -1.046875 C 1.703125 -1.734375 2.09375 -2.1875 3.125 -2.796875 L 4.328125 -3.4375 C 5.515625 -4.09375 6.125 -4.96875 6.125 -6.015625 C 6.125 -6.71875 5.84375 -7.375 5.34375 -7.84375 C 4.84375 -8.296875 4.21875 -8.515625 3.40625 -8.515625 C 2.328125 -8.515625 1.53125 -8.140625 1.0625 -7.40625 C 0.75 -6.953125 0.625 -6.421875 0.59375 -5.5625 L 1.65625 -5.5625 C 1.6875 -6.125 1.765625 -6.484375 1.90625 -6.75 C 2.1875 -7.265625 2.734375 -7.578125 3.375 -7.578125 C 4.328125 -7.578125 5.046875 -6.90625 5.046875 -5.984375 C 5.046875 -5.3125 4.65625 -4.734375 3.90625 -4.3125 L 2.796875 -3.6875 C 1.015625 -2.671875 0.5 -1.875 0.40625 0 L 6.078125 0 Z M 6.078125 -1.046875 "/>
</symbol>
<symbol overflow="visible" id="glyph0-3">
<path style="stroke:none;" d="M 3.921875 -2.046875 L 3.921875 0 L 4.984375 0 L 4.984375 -2.046875 L 6.234375 -2.046875 L 6.234375 -2.984375 L 4.984375 -2.984375 L 4.984375 -8.515625 L 4.203125 -8.515625 L 0.34375 -3.15625 L 0.34375 -2.046875 Z M 3.921875 -2.984375 L 1.265625 -2.984375 L 3.921875 -6.703125 Z M 3.921875 -2.984375 "/>
</symbol>
<symbol overflow="visible" id="glyph0-4">
<path style="stroke:none;" d="M 5.96875 -6.28125 C 5.765625 -7.6875 4.859375 -8.515625 3.5625 -8.515625 C 2.625 -8.515625 1.78125 -8.0625 1.28125 -7.296875 C 0.75 -6.46875 0.515625 -5.421875 0.515625 -3.875 C 0.515625 -2.4375 0.734375 -1.53125 1.234375 -0.78125 C 1.6875 -0.09375 2.4375 0.28125 3.375 0.28125 C 4.984375 0.28125 6.15625 -0.921875 6.15625 -2.59375 C 6.15625 -4.171875 5.078125 -5.296875 3.546875 -5.296875 C 2.71875 -5.296875 2.046875 -4.96875 1.59375 -4.34375 C 1.609375 -6.421875 2.28125 -7.578125 3.484375 -7.578125 C 4.234375 -7.578125 4.75 -7.109375 4.921875 -6.28125 Z M 3.421875 -4.359375 C 4.4375 -4.359375 5.078125 -3.640625 5.078125 -2.515625 C 5.078125 -1.4375 4.359375 -0.65625 3.390625 -0.65625 C 2.40625 -0.65625 1.65625 -1.46875 1.65625 -2.5625 C 1.65625 -3.625 2.375 -4.359375 3.421875 -4.359375 Z M 3.421875 -4.359375 "/>
</symbol>
<symbol overflow="visible" id="glyph0-5">
<path style="stroke:none;" d="M 4.6875 -4.46875 C 5.5625 -5.015625 5.859375 -5.4375 5.859375 -6.234375 C 5.859375 -7.578125 4.8125 -8.515625 3.296875 -8.515625 C 1.796875 -8.515625 0.75 -7.578125 0.75 -6.234375 C 0.75 -5.453125 1.015625 -5.015625 1.890625 -4.46875 C 0.921875 -4.015625 0.4375 -3.296875 0.4375 -2.359375 C 0.4375 -0.796875 1.609375 0.28125 3.296875 0.28125 C 4.984375 0.28125 6.15625 -0.796875 6.15625 -2.359375 C 6.15625 -3.296875 5.671875 -4.015625 4.6875 -4.46875 Z M 3.296875 -7.578125 C 4.203125 -7.578125 4.78125 -7.046875 4.78125 -6.21875 C 4.78125 -5.421875 4.1875 -4.890625 3.296875 -4.890625 C 2.40625 -4.890625 1.828125 -5.421875 1.828125 -6.234375 C 1.828125 -7.046875 2.40625 -7.578125 3.296875 -7.578125 Z M 3.296875 -4.015625 C 4.359375 -4.015625 5.078125 -3.34375 5.078125 -2.34375 C 5.078125 -1.3125 4.375 -0.65625 3.28125 -0.65625 C 2.25 -0.65625 1.53125 -1.34375 1.53125 -2.34375 C 1.53125 -3.34375 2.234375 -4.015625 3.296875 -4.015625 Z M 3.296875 -4.015625 "/>
</symbol>
<symbol overflow="visible" id="glyph0-6">
<path style="stroke:none;" d="M 3.109375 -6.0625 L 3.109375 0 L 4.15625 0 L 4.15625 -8.515625 L 3.46875 -8.515625 C 3.09375 -7.203125 2.859375 -7.015625 1.21875 -6.8125 L 1.21875 -6.0625 Z M 3.109375 -6.0625 "/>
</symbol>
<symbol overflow="visible" id="glyph0-7">
<path style="stroke:none;" d="M 7.9375 -6.03125 C 7.59375 -7.953125 6.484375 -8.890625 4.578125 -8.890625 C 3.390625 -8.890625 2.453125 -8.515625 1.796875 -7.796875 C 1.015625 -6.9375 0.578125 -5.6875 0.578125 -4.265625 C 0.578125 -2.828125 1.015625 -1.59375 1.84375 -0.75 C 2.515625 -0.046875 3.390625 0.28125 4.53125 0.28125 C 6.65625 0.28125 7.859375 -0.875 8.125 -3.1875 L 6.96875 -3.1875 C 6.875 -2.59375 6.75 -2.1875 6.578125 -1.84375 C 6.21875 -1.109375 5.46875 -0.703125 4.53125 -0.703125 C 2.796875 -0.703125 1.6875 -2.09375 1.6875 -4.28125 C 1.6875 -6.53125 2.734375 -7.90625 4.4375 -7.90625 C 5.140625 -7.90625 5.8125 -7.703125 6.171875 -7.359375 C 6.484375 -7.0625 6.671875 -6.703125 6.796875 -6.03125 Z M 7.9375 -6.03125 "/>
</symbol>
<symbol overflow="visible" id="glyph0-8">
<path style="stroke:none;" d="M 3.265625 -6.46875 C 1.484375 -6.46875 0.4375 -5.203125 0.4375 -3.09375 C 0.4375 -0.96875 1.484375 0.28125 3.28125 0.28125 C 5.046875 0.28125 6.125 -0.984375 6.125 -3.046875 C 6.125 -5.234375 5.09375 -6.46875 3.265625 -6.46875 Z M 3.28125 -5.546875 C 4.40625 -5.546875 5.078125 -4.625 5.078125 -3.0625 C 5.078125 -1.578125 4.375 -0.640625 3.28125 -0.640625 C 2.15625 -0.640625 1.46875 -1.578125 1.46875 -3.09375 C 1.46875 -4.625 2.15625 -5.546875 3.28125 -5.546875 Z M 3.28125 -5.546875 "/>
</symbol>
<symbol overflow="visible" id="glyph0-9">
<path style="stroke:none;" d="M 5.25 -4.53125 C 5.25 -5.765625 4.421875 -6.46875 2.96875 -6.46875 C 1.515625 -6.46875 0.5625 -5.71875 0.5625 -4.546875 C 0.5625 -3.5625 1.0625 -3.09375 2.5625 -2.734375 L 3.484375 -2.515625 C 4.1875 -2.34375 4.46875 -2.09375 4.46875 -1.640625 C 4.46875 -1.046875 3.875 -0.640625 3 -0.640625 C 2.453125 -0.640625 2 -0.796875 1.75 -1.0625 C 1.59375 -1.25 1.53125 -1.421875 1.46875 -1.875 L 0.40625 -1.875 C 0.453125 -0.421875 1.265625 0.28125 2.921875 0.28125 C 4.5 0.28125 5.515625 -0.5 5.515625 -1.71875 C 5.515625 -2.65625 4.984375 -3.171875 3.734375 -3.46875 L 2.765625 -3.703125 C 1.953125 -3.890625 1.609375 -4.15625 1.609375 -4.59375 C 1.609375 -5.1875 2.125 -5.546875 2.9375 -5.546875 C 3.75 -5.546875 4.171875 -5.203125 4.203125 -4.53125 Z M 5.25 -4.53125 "/>
</symbol>
<symbol overflow="visible" id="glyph0-10">
<path style="stroke:none;" d="M 3.046875 -6.28125 L 2.015625 -6.28125 L 2.015625 -8.015625 L 1.015625 -8.015625 L 1.015625 -6.28125 L 0.171875 -6.28125 L 0.171875 -5.46875 L 1.015625 -5.46875 L 1.015625 -0.71875 C 1.015625 -0.078125 1.453125 0.28125 2.234375 0.28125 C 2.5 0.28125 2.71875 0.25 3.046875 0.1875 L 3.046875 -0.640625 C 2.90625 -0.609375 2.765625 -0.59375 2.5625 -0.59375 C 2.140625 -0.59375 2.015625 -0.71875 2.015625 -1.15625 L 2.015625 -5.46875 L 3.046875 -5.46875 Z M 3.046875 -6.28125 "/>
</symbol>
<symbol overflow="visible" id="glyph1-0">
<path style="stroke:none;" d=""/>
</symbol>
<symbol overflow="visible" id="glyph1-1">
<path style="stroke:none;" d="M -8.515625 -3.296875 C -8.515625 -2.515625 -8.15625 -1.78125 -7.578125 -1.34375 C -6.828125 -0.796875 -5.6875 -0.515625 -4.109375 -0.515625 C -1.234375 -0.515625 0.28125 -1.46875 0.28125 -3.296875 C 0.28125 -5.09375 -1.25 -6.078125 -4.046875 -6.078125 C -5.703125 -6.078125 -6.796875 -5.8125 -7.578125 -5.25 C -8.171875 -4.8125 -8.515625 -4.109375 -8.515625 -3.296875 Z M -7.578125 -3.296875 C -7.578125 -4.4375 -6.4375 -5 -4.140625 -5 C -1.734375 -5 -0.59375 -4.453125 -0.59375 -3.28125 C -0.59375 -2.15625 -1.78125 -1.59375 -4.109375 -1.59375 C -6.4375 -1.59375 -7.578125 -2.15625 -7.578125 -3.296875 Z M -7.578125 -3.296875 "/>
</symbol>
<symbol overflow="visible" id="glyph1-2">
<path style="stroke:none;" d="M -1.25 -2.296875 L -1.25 -1.046875 L 0 -1.046875 L 0 -2.296875 Z M -1.25 -2.296875 "/>
</symbol>
<symbol overflow="visible" id="glyph1-3">
<path style="stroke:none;" d="M -1.046875 -6.078125 L -1.046875 -1.59375 C -1.734375 -1.703125 -2.1875 -2.09375 -2.796875 -3.125 L -3.4375 -4.328125 C -4.09375 -5.515625 -4.96875 -6.125 -6.015625 -6.125 C -6.71875 -6.125 -7.375 -5.84375 -7.84375 -5.34375 C -8.296875 -4.84375 -8.515625 -4.21875 -8.515625 -3.40625 C -8.515625 -2.328125 -8.140625 -1.53125 -7.40625 -1.0625 C -6.953125 -0.75 -6.421875 -0.625 -5.5625 -0.59375 L -5.5625 -1.65625 C -6.125 -1.6875 -6.484375 -1.765625 -6.75 -1.90625 C -7.265625 -2.1875 -7.578125 -2.734375 -7.578125 -3.375 C -7.578125 -4.328125 -6.90625 -5.046875 -5.984375 -5.046875 C -5.3125 -5.046875 -4.734375 -4.65625 -4.3125 -3.90625 L -3.6875 -2.796875 C -2.671875 -1.015625 -1.875 -0.5 0 -0.40625 L 0 -6.078125 Z M -1.046875 -6.078125 "/>
</symbol>
<symbol overflow="visible" id="glyph1-4">
<path style="stroke:none;" d="M -4.46875 -4.6875 C -5.015625 -5.5625 -5.4375 -5.859375 -6.234375 -5.859375 C -7.578125 -5.859375 -8.515625 -4.8125 -8.515625 -3.296875 C -8.515625 -1.796875 -7.578125 -0.75 -6.234375 -0.75 C -5.453125 -0.75 -5.015625 -1.015625 -4.46875 -1.890625 C -4.015625 -0.921875 -3.296875 -0.4375 -2.359375 -0.4375 C -0.796875 -0.4375 0.28125 -1.609375 0.28125 -3.296875 C 0.28125 -4.984375 -0.796875 -6.15625 -2.359375 -6.15625 C -3.296875 -6.15625 -4.015625 -5.671875 -4.46875 -4.6875 Z M -7.578125 -3.296875 C -7.578125 -4.203125 -7.046875 -4.78125 -6.21875 -4.78125 C -5.421875 -4.78125 -4.890625 -4.1875 -4.890625 -3.296875 C -4.890625 -2.40625 -5.421875 -1.828125 -6.234375 -1.828125 C -7.046875 -1.828125 -7.578125 -2.40625 -7.578125 -3.296875 Z M -4.015625 -3.296875 C -4.015625 -4.359375 -3.34375 -5.078125 -2.34375 -5.078125 C -1.3125 -5.078125 -0.65625 -4.375 -0.65625 -3.28125 C -0.65625 -2.25 -1.34375 -1.53125 -2.34375 -1.53125 C -3.34375 -1.53125 -4.015625 -2.234375 -4.015625 -3.296875 Z M -4.015625 -3.296875 "/>
</symbol>
<symbol overflow="visible" id="glyph1-5">
<path style="stroke:none;" d="M -3.90625 -2.65625 L -3.90625 -3.234375 C -3.90625 -4.390625 -3.390625 -4.984375 -2.359375 -4.984375 C -1.296875 -4.984375 -0.65625 -4.328125 -0.65625 -3.234375 C -0.65625 -2.078125 -1.234375 -1.515625 -2.46875 -1.4375 L -2.46875 -0.390625 C -1.78125 -0.4375 -1.34375 -0.546875 -0.953125 -0.75 C -0.140625 -1.1875 0.28125 -2.03125 0.28125 -3.1875 C 0.28125 -4.9375 -0.765625 -6.078125 -2.375 -6.078125 C -3.453125 -6.078125 -4.0625 -5.65625 -4.40625 -4.625 C -4.734375 -5.421875 -5.3125 -5.8125 -6.171875 -5.8125 C -7.625 -5.8125 -8.515625 -4.84375 -8.515625 -3.234375 C -8.515625 -1.515625 -7.578125 -0.59375 -5.765625 -0.5625 L -5.765625 -1.625 C -6.28125 -1.625 -6.5625 -1.6875 -6.828125 -1.8125 C -7.296875 -2.046875 -7.578125 -2.578125 -7.578125 -3.234375 C -7.578125 -4.171875 -7.046875 -4.734375 -6.125 -4.734375 C -5.53125 -4.734375 -5.171875 -4.53125 -4.984375 -4.0625 C -4.859375 -3.765625 -4.8125 -3.390625 -4.796875 -2.65625 Z M -3.90625 -2.65625 "/>
</symbol>
<symbol overflow="visible" id="glyph1-6">
<path style="stroke:none;" d="M -2.046875 -3.921875 L 0 -3.921875 L 0 -4.984375 L -2.046875 -4.984375 L -2.046875 -6.234375 L -2.984375 -6.234375 L -2.984375 -4.984375 L -8.515625 -4.984375 L -8.515625 -4.203125 L -3.15625 -0.34375 L -2.046875 -0.34375 Z M -2.984375 -3.921875 L -2.984375 -1.265625 L -6.703125 -3.921875 Z M -2.984375 -3.921875 "/>
</symbol>
<symbol overflow="visible" id="glyph1-7">
<path style="stroke:none;" d="M -6.28125 -5.96875 C -7.6875 -5.765625 -8.515625 -4.859375 -8.515625 -3.5625 C -8.515625 -2.625 -8.0625 -1.78125 -7.296875 -1.28125 C -6.46875 -0.75 -5.421875 -0.515625 -3.875 -0.515625 C -2.4375 -0.515625 -1.53125 -0.734375 -0.78125 -1.234375 C -0.09375 -1.6875 0.28125 -2.4375 0.28125 -3.375 C 0.28125 -4.984375 -0.921875 -6.15625 -2.59375 -6.15625 C -4.171875 -6.15625 -5.296875 -5.078125 -5.296875 -3.546875 C -5.296875 -2.71875 -4.96875 -2.046875 -4.34375 -1.59375 C -6.421875 -1.609375 -7.578125 -2.28125 -7.578125 -3.484375 C -7.578125 -4.234375 -7.109375 -4.75 -6.28125 -4.921875 Z M -4.359375 -3.421875 C -4.359375 -4.4375 -3.640625 -5.078125 -2.515625 -5.078125 C -1.4375 -5.078125 -0.65625 -4.359375 -0.65625 -3.390625 C -0.65625 -2.40625 -1.46875 -1.65625 -2.5625 -1.65625 C -3.625 -1.65625 -4.359375 -2.375 -4.359375 -3.421875 Z M -4.359375 -3.421875 "/>
</symbol>
<symbol overflow="visible" id="glyph1-8">
<path style="stroke:none;" d="M -3.984375 -2.203125 L -3.984375 -6.953125 L -4.96875 -6.953125 L -4.96875 -2.203125 L -7.765625 -2.203125 L -7.765625 -7.140625 L -8.75 -7.140625 L -8.75 -1.078125 L 0 -1.078125 L 0 -7.359375 L -0.984375 -7.359375 L -0.984375 -2.203125 Z M -3.984375 -2.203125 "/>
</symbol>
<symbol overflow="visible" id="glyph1-9">
<path style="stroke:none;" d="M -6.28125 -0.828125 L 0 -0.828125 L 0 -1.84375 L -3.265625 -1.84375 C -4.78125 -1.84375 -5.453125 -2.46875 -5.40625 -3.859375 L -6.4375 -3.859375 C -6.453125 -3.6875 -6.46875 -3.59375 -6.46875 -3.46875 C -6.46875 -2.8125 -6.078125 -2.328125 -5.140625 -1.75 L -6.28125 -1.75 Z M -6.28125 -0.828125 "/>
</symbol>
<symbol overflow="visible" id="glyph1-10">
<path style="stroke:none;" d="M -6.46875 -3.265625 C -6.46875 -1.484375 -5.203125 -0.4375 -3.09375 -0.4375 C -0.96875 -0.4375 0.28125 -1.484375 0.28125 -3.28125 C 0.28125 -5.046875 -0.984375 -6.125 -3.046875 -6.125 C -5.234375 -6.125 -6.46875 -5.09375 -6.46875 -3.265625 Z M -5.546875 -3.28125 C -5.546875 -4.40625 -4.625 -5.078125 -3.0625 -5.078125 C -1.578125 -5.078125 -0.640625 -4.375 -0.640625 -3.28125 C -0.640625 -2.15625 -1.578125 -1.46875 -3.09375 -1.46875 C -4.625 -1.46875 -5.546875 -2.15625 -5.546875 -3.28125 Z M -5.546875 -3.28125 "/>
</symbol>
<symbol overflow="visible" id="glyph1-11">
<path style="stroke:none;" d=""/>
</symbol>
<symbol overflow="visible" id="glyph1-12">
<path style="stroke:none;" d="M -3.765625 -2.234375 L -3.765625 -5.109375 C -3.765625 -6.109375 -3.28125 -6.546875 -2.203125 -6.546875 L -1.421875 -6.546875 C -0.890625 -6.546875 -0.359375 -6.640625 0 -6.796875 L 0 -8.140625 L -0.28125 -8.140625 C -0.5625 -7.734375 -0.875 -7.640625 -2.046875 -7.625 C -3.484375 -7.609375 -3.90625 -7.375 -4.3125 -6.4375 C -4.8125 -7.421875 -5.40625 -7.8125 -6.40625 -7.8125 C -7.921875 -7.8125 -8.75 -6.875 -8.75 -5.140625 L -8.75 -1.109375 L 0 -1.109375 L 0 -2.234375 Z M -4.75 -2.234375 L -7.765625 -2.234375 L -7.765625 -4.9375 C -7.765625 -5.5625 -7.671875 -5.921875 -7.421875 -6.1875 C -7.171875 -6.484375 -6.78125 -6.640625 -6.265625 -6.640625 C -5.21875 -6.640625 -4.75 -6.125 -4.75 -4.9375 Z M -4.75 -2.234375 "/>
</symbol>
<symbol overflow="visible" id="glyph1-13">
<path style="stroke:none;" d="M -0.59375 -6.421875 C -0.5625 -6.3125 -0.5625 -6.265625 -0.5625 -6.203125 C -0.5625 -5.859375 -0.75 -5.65625 -1.0625 -5.65625 L -4.75 -5.65625 C -5.875 -5.65625 -6.46875 -4.84375 -6.46875 -3.296875 C -6.46875 -2.375 -6.203125 -1.640625 -5.734375 -1.21875 C -5.40625 -0.921875 -5.046875 -0.796875 -4.421875 -0.78125 L -4.421875 -1.78125 C -5.203125 -1.875 -5.546875 -2.328125 -5.546875 -3.265625 C -5.546875 -4.171875 -5.203125 -4.671875 -4.609375 -4.671875 L -4.34375 -4.671875 C -3.90625 -4.65625 -3.75 -4.4375 -3.640625 -3.625 C -3.46875 -2.203125 -3.421875 -1.984375 -3.265625 -1.609375 C -2.953125 -0.875 -2.40625 -0.5 -1.578125 -0.5 C -0.4375 -0.5 0.28125 -1.296875 0.28125 -2.5625 C 0.28125 -3.359375 0 -4 -0.640625 -4.703125 C 0 -4.78125 0.28125 -5.09375 0.28125 -5.734375 C 0.28125 -5.953125 0.25 -6.078125 0.171875 -6.421875 Z M -1.984375 -4.671875 C -1.640625 -4.671875 -1.4375 -4.578125 -1.15625 -4.265625 C -0.796875 -3.859375 -0.59375 -3.375 -0.59375 -2.78125 C -0.59375 -2 -0.96875 -1.546875 -1.609375 -1.546875 C -2.265625 -1.546875 -2.609375 -1.984375 -2.765625 -3.0625 C -2.90625 -4.125 -2.953125 -4.328125 -3.109375 -4.671875 Z M -1.984375 -4.671875 "/>
</symbol>
<symbol overflow="visible" id="glyph1-14">
<path style="stroke:none;" d="M -6.28125 -3.046875 L -6.28125 -2.015625 L -8.015625 -2.015625 L -8.015625 -1.015625 L -6.28125 -1.015625 L -6.28125 -0.171875 L -5.46875 -0.171875 L -5.46875 -1.015625 L -0.71875 -1.015625 C -0.078125 -1.015625 0.28125 -1.453125 0.28125 -2.234375 C 0.28125 -2.5 0.25 -2.71875 0.1875 -3.046875 L -0.640625 -3.046875 C -0.609375 -2.90625 -0.59375 -2.765625 -0.59375 -2.5625 C -0.59375 -2.140625 -0.71875 -2.015625 -1.15625 -2.015625 L -5.46875 -2.015625 L -5.46875 -3.046875 Z M -6.28125 -3.046875 "/>
</symbol>
<symbol overflow="visible" id="glyph1-15">
<path style="stroke:none;" d="M -2.8125 -6.15625 C -3.765625 -6.15625 -4.34375 -6.078125 -4.8125 -5.90625 C -5.84375 -5.5 -6.46875 -4.53125 -6.46875 -3.359375 C -6.46875 -1.609375 -5.140625 -0.484375 -3.0625 -0.484375 C -0.984375 -0.484375 0.28125 -1.5625 0.28125 -3.34375 C 0.28125 -4.78125 -0.546875 -5.765625 -1.90625 -6.03125 L -1.90625 -5.015625 C -1.078125 -4.734375 -0.640625 -4.171875 -0.640625 -3.375 C -0.640625 -2.734375 -0.9375 -2.203125 -1.46875 -1.859375 C -1.828125 -1.625 -2.1875 -1.53125 -2.8125 -1.53125 Z M -3.625 -1.546875 C -4.78125 -1.625 -5.546875 -2.34375 -5.546875 -3.34375 C -5.546875 -4.375 -4.75 -5.078125 -3.625 -5.078125 Z M -3.625 -1.546875 "/>
</symbol>
<symbol overflow="visible" id="glyph2-0">
<path style="stroke:none;" d=""/>
</symbol>
<symbol overflow="visible" id="glyph2-1">
<path style="stroke:none;" d="M 8.75 -7.296875 C 8.734375 -9.484375 7.28125 -10.671875 4.625 -10.671875 C 2.109375 -10.671875 0.640625 -9.5 0.640625 -7.453125 C 0.640625 -5.8125 1.46875 -5.03125 3.59375 -4.625 L 5.078125 -4.34375 C 6.515625 -4.0625 7.046875 -3.65625 7.046875 -2.8125 C 7.046875 -1.9375 6.234375 -1.390625 4.921875 -1.390625 C 3.453125 -1.390625 2.640625 -2.015625 2.5625 -3.140625 L 0.46875 -3.140625 C 0.59375 -0.890625 2.125 0.328125 4.8125 0.328125 C 7.515625 0.328125 9.125 -0.921875 9.125 -3.0625 C 9.125 -4.71875 8.28125 -5.59375 6.34375 -5.96875 L 4.703125 -6.28125 C 3.15625 -6.578125 2.703125 -6.890625 2.703125 -7.65625 C 2.703125 -8.4375 3.40625 -8.953125 4.53125 -8.953125 C 5.890625 -8.953125 6.65625 -8.375 6.734375 -7.296875 Z M 8.75 -7.296875 "/>
</symbol>
<symbol overflow="visible" id="glyph2-2">
<path style="stroke:none;" d="M 5.71875 0 L 9.328125 -10.5 L 7.140625 -10.5 L 4.859375 -2.59375 L 2.515625 -10.5 L 0.34375 -10.5 L 3.890625 0 Z M 5.71875 0 "/>
</symbol>
<symbol overflow="visible" id="glyph2-3">
<path style="stroke:none;" d="M 3.109375 -8.1875 L 5 0 L 7.15625 0 L 9.015625 -8.1875 L 9.015625 0 L 11.171875 0 L 11.171875 -10.5 L 7.921875 -10.5 L 6.078125 -2.140625 L 4.171875 -10.5 L 0.953125 -10.5 L 0.953125 0 L 3.109375 0 Z M 3.109375 -8.1875 "/>
</symbol>
<symbol overflow="visible" id="glyph2-4">
<path style="stroke:none;" d=""/>
</symbol>
<symbol overflow="visible" id="glyph2-5">
<path style="stroke:none;" d="M 9.828125 -6.9375 C 9.75 -7.84375 9.5625 -8.421875 9.125 -9.015625 C 8.3125 -10.078125 7.015625 -10.671875 5.453125 -10.671875 C 2.484375 -10.671875 0.640625 -8.5625 0.640625 -5.15625 C 0.640625 -1.765625 2.46875 0.328125 5.390625 0.328125 C 8.015625 0.328125 9.734375 -1.1875 9.875 -3.59375 L 7.765625 -3.59375 C 7.625 -2.25 6.78125 -1.484375 5.453125 -1.484375 C 3.78125 -1.484375 2.796875 -2.84375 2.796875 -5.125 C 2.796875 -7.453125 3.8125 -8.828125 5.515625 -8.828125 C 6.765625 -8.828125 7.484375 -8.21875 7.765625 -6.9375 Z M 9.828125 -6.9375 "/>
</symbol>
<symbol overflow="visible" id="glyph2-6">
<path style="stroke:none;" d="M 4.34375 -7.90625 C 1.953125 -7.90625 0.5 -6.34375 0.5 -3.78125 C 0.5 -1.21875 1.953125 0.328125 4.34375 0.328125 C 6.734375 0.328125 8.203125 -1.21875 8.203125 -3.734375 C 8.203125 -6.375 6.765625 -7.90625 4.34375 -7.90625 Z M 4.34375 -6.28125 C 5.453125 -6.28125 6.1875 -5.28125 6.1875 -3.765625 C 6.1875 -2.3125 5.4375 -1.296875 4.34375 -1.296875 C 3.25 -1.296875 2.515625 -2.296875 2.515625 -3.78125 C 2.515625 -5.28125 3.25 -6.28125 4.34375 -6.28125 Z M 4.34375 -6.28125 "/>
</symbol>
<symbol overflow="visible" id="glyph2-7">
<path style="stroke:none;" d="M 7.28125 -5.265625 C 7.25 -6.921875 5.984375 -7.90625 3.890625 -7.90625 C 1.921875 -7.90625 0.6875 -6.921875 0.6875 -5.3125 C 0.6875 -4.796875 0.84375 -4.34375 1.125 -4.046875 C 1.390625 -3.78125 1.640625 -3.640625 2.390625 -3.40625 L 4.796875 -2.65625 C 5.296875 -2.5 5.46875 -2.328125 5.46875 -2.015625 C 5.46875 -1.546875 4.90625 -1.25 3.96875 -1.25 C 3.4375 -1.25 3.046875 -1.34375 2.78125 -1.53125 C 2.5625 -1.6875 2.484375 -1.84375 2.390625 -2.265625 L 0.421875 -2.265625 C 0.46875 -0.546875 1.734375 0.328125 4.09375 0.328125 C 5.171875 0.328125 6 0.09375 6.5625 -0.359375 C 7.140625 -0.828125 7.484375 -1.546875 7.484375 -2.3125 C 7.484375 -3.3125 6.984375 -3.96875 5.96875 -4.265625 L 3.421875 -5 C 2.859375 -5.171875 2.703125 -5.28125 2.703125 -5.609375 C 2.703125 -6.03125 3.171875 -6.328125 3.875 -6.328125 C 4.84375 -6.328125 5.3125 -5.984375 5.328125 -5.265625 Z M 7.28125 -5.265625 "/>
</symbol>
<symbol overflow="visible" id="glyph2-8">
<path style="stroke:none;" d="M 4.34375 -7.625 L 3.21875 -7.625 L 3.21875 -9.703125 L 1.203125 -9.703125 L 1.203125 -7.625 L 0.203125 -7.625 L 0.203125 -6.28125 L 1.203125 -6.28125 L 1.203125 -1.5 C 1.203125 -0.28125 1.84375 0.328125 3.171875 0.328125 C 3.625 0.328125 3.96875 0.28125 4.34375 0.171875 L 4.34375 -1.234375 C 4.140625 -1.203125 4.03125 -1.203125 3.875 -1.203125 C 3.34375 -1.203125 3.21875 -1.359375 3.21875 -2.046875 L 3.21875 -6.28125 L 4.34375 -6.28125 Z M 4.34375 -7.625 "/>
</symbol>
<symbol overflow="visible" id="glyph2-9">
<path style="stroke:none;" d="M 5.046875 0 L 7.71875 -7.78125 L 5.59375 -7.78125 L 4.015625 -2.09375 L 2.328125 -7.78125 L 0.203125 -7.78125 L 2.921875 0 Z M 5.046875 0 "/>
</symbol>
<symbol overflow="visible" id="glyph2-10">
<path style="stroke:none;" d="M 3.078125 -2.109375 L 0.921875 -2.109375 L 0.921875 0 L 3.078125 0 Z M 3.078125 -2.109375 "/>
</symbol>
<symbol overflow="visible" id="glyph2-11">
<path style="stroke:none;" d="M 3.296875 -4.53125 L 8.328125 -4.53125 L 8.328125 -6.328125 L 3.296875 -6.328125 L 3.296875 -8.703125 L 8.734375 -8.703125 L 8.734375 -10.5 L 1.140625 -10.5 L 1.140625 0 L 8.984375 0 L 8.984375 -1.796875 L 3.296875 -1.796875 Z M 3.296875 -4.53125 "/>
</symbol>
<symbol overflow="visible" id="glyph2-12">
<path style="stroke:none;" d="M 0.90625 -7.78125 L 0.90625 0 L 2.921875 0 L 2.921875 -4.140625 C 2.921875 -5.3125 3.515625 -5.90625 4.703125 -5.90625 C 4.90625 -5.90625 5.0625 -5.890625 5.328125 -5.84375 L 5.328125 -7.890625 C 5.21875 -7.90625 5.171875 -7.90625 5.078125 -7.90625 C 4.15625 -7.90625 3.375 -7.296875 2.921875 -6.25 L 2.921875 -7.78125 Z M 0.90625 -7.78125 "/>
</symbol>
<symbol overflow="visible" id="glyph2-13">
<path style="stroke:none;" d="M 4.515625 -7.625 L 3.3125 -7.625 L 3.3125 -8.390625 C 3.3125 -8.78125 3.484375 -8.984375 3.859375 -8.984375 C 4.046875 -8.984375 4.234375 -8.96875 4.4375 -8.953125 L 4.4375 -10.453125 C 4 -10.484375 3.59375 -10.5 3.28125 -10.5 C 1.9375 -10.5 1.296875 -9.875 1.296875 -8.5625 L 1.296875 -7.625 L 0.203125 -7.625 L 0.203125 -6.28125 L 1.296875 -6.28125 L 1.296875 0 L 3.3125 0 L 3.3125 -6.28125 L 4.515625 -6.28125 Z M 4.515625 -7.625 "/>
</symbol>
<symbol overflow="visible" id="glyph2-14">
<path style="stroke:none;" d="M 0.96875 -10.5 L 0.96875 0 L 2.984375 0 L 2.984375 -4.671875 C 2.984375 -5.5625 3.625 -6.1875 4.53125 -6.1875 C 4.984375 -6.1875 5.3125 -6.03125 5.546875 -5.71875 C 5.734375 -5.453125 5.78125 -5.25 5.78125 -4.75 L 5.78125 0 L 7.796875 0 L 7.796875 -5.21875 C 7.796875 -6.1875 7.53125 -6.875 7 -7.3125 C 6.5625 -7.6875 5.90625 -7.90625 5.265625 -7.90625 C 4.265625 -7.90625 3.546875 -7.515625 2.984375 -6.65625 L 2.984375 -10.5 Z M 0.96875 -10.5 "/>
</symbol>
<symbol overflow="visible" id="glyph2-15">
<path style="stroke:none;" d="M 7.546875 -3.25 C 7.5625 -3.421875 7.5625 -3.5 7.5625 -3.59375 C 7.5625 -4.375 7.453125 -5.09375 7.265625 -5.640625 C 6.734375 -7.0625 5.484375 -7.90625 3.921875 -7.90625 C 1.6875 -7.90625 0.3125 -6.296875 0.3125 -3.6875 C 0.3125 -1.203125 1.671875 0.328125 3.875 0.328125 C 5.625 0.328125 7.03125 -0.640625 7.484375 -2.1875 L 5.484375 -2.1875 C 5.25 -1.5625 4.6875 -1.203125 3.953125 -1.203125 C 3.375 -1.203125 2.90625 -1.453125 2.625 -1.890625 C 2.4375 -2.171875 2.359375 -2.515625 2.328125 -3.25 Z M 2.359375 -4.59375 C 2.5 -5.796875 3 -6.375 3.890625 -6.375 C 4.8125 -6.375 5.359375 -5.75 5.453125 -4.59375 Z M 2.359375 -4.59375 "/>
</symbol>
<symbol overflow="visible" id="glyph2-16">
<path style="stroke:none;" d="M 3.3125 -4.15625 L 5.796875 -4.15625 C 6.734375 -4.15625 7.125 -3.78125 7.125 -2.921875 L 7.125 -2.5 C 7.109375 -2.21875 7.109375 -1.953125 7.109375 -1.796875 C 7.109375 -0.8125 7.171875 -0.5 7.4375 0 L 9.75 0 L 9.75 -0.390625 C 9.421875 -0.578125 9.296875 -0.796875 9.296875 -1.25 C 9.234375 -4.34375 9.171875 -4.5 7.84375 -5.078125 C 9.015625 -5.53125 9.609375 -6.375 9.609375 -7.671875 C 9.609375 -8.5 9.328125 -9.265625 8.8125 -9.78125 C 8.34375 -10.265625 7.671875 -10.5 6.78125 -10.5 L 1.15625 -10.5 L 1.15625 0 L 3.3125 0 Z M 3.3125 -5.96875 L 3.3125 -8.703125 L 5.921875 -8.703125 C 6.546875 -8.703125 6.78125 -8.640625 7.0625 -8.421875 C 7.3125 -8.21875 7.453125 -7.84375 7.453125 -7.359375 C 7.453125 -6.859375 7.3125 -6.453125 7.0625 -6.234375 C 6.8125 -6.03125 6.546875 -5.96875 5.921875 -5.96875 Z M 3.3125 -5.96875 "/>
</symbol>
<symbol overflow="visible" id="glyph2-17">
<path style="stroke:none;" d="M 7.546875 -0.25 C 7.203125 -0.578125 7.09375 -0.8125 7.09375 -1.203125 L 7.09375 -5.515625 C 7.09375 -7.109375 6 -7.90625 3.90625 -7.90625 C 1.796875 -7.90625 0.703125 -7.015625 0.578125 -5.21875 L 2.515625 -5.21875 C 2.625 -6.015625 2.953125 -6.28125 3.953125 -6.28125 C 4.71875 -6.28125 5.109375 -6.015625 5.109375 -5.5 C 5.109375 -5.25 4.984375 -5.03125 4.765625 -4.890625 C 4.5 -4.75 4.5 -4.75 3.5 -4.59375 L 2.6875 -4.453125 C 1.15625 -4.1875 0.40625 -3.40625 0.40625 -2 C 0.40625 -0.609375 1.34375 0.328125 2.765625 0.328125 C 3.625 0.328125 4.40625 -0.03125 5.125 -0.78125 C 5.125 -0.375 5.171875 -0.234375 5.359375 0 L 7.546875 0 Z M 5.109375 -3.125 C 5.109375 -1.953125 4.53125 -1.296875 3.515625 -1.296875 C 2.84375 -1.296875 2.421875 -1.65625 2.421875 -2.234375 C 2.421875 -2.84375 2.734375 -3.125 3.578125 -3.296875 L 4.265625 -3.421875 C 4.796875 -3.53125 4.890625 -3.5625 5.109375 -3.671875 Z M 5.109375 -3.125 "/>
</symbol>
<symbol overflow="visible" id="glyph2-18">
<path style="stroke:none;" d="M 5.828125 0 L 7.84375 0 L 7.84375 -10.5 L 5.828125 -10.5 L 5.828125 -6.765625 C 5.328125 -7.546875 4.671875 -7.90625 3.6875 -7.90625 C 1.828125 -7.90625 0.421875 -6.125 0.421875 -3.78125 C 0.421875 -2.71875 0.734375 -1.65625 1.25 -0.90625 C 1.78125 -0.140625 2.734375 0.328125 3.6875 0.328125 C 4.671875 0.328125 5.328125 -0.015625 5.828125 -0.796875 Z M 4.140625 -6.21875 C 5.15625 -6.21875 5.828125 -5.25 5.828125 -3.75 C 5.828125 -2.328125 5.140625 -1.359375 4.140625 -1.359375 C 3.125 -1.359375 2.4375 -2.34375 2.4375 -3.78125 C 2.4375 -5.234375 3.125 -6.21875 4.140625 -6.21875 Z M 4.140625 -6.21875 "/>
</symbol>
<symbol overflow="visible" id="glyph2-19">
<path style="stroke:none;" d="M 2.984375 -7.78125 L 0.96875 -7.78125 L 0.96875 0 L 2.984375 0 Z M 2.984375 -10.5 L 0.96875 -10.5 L 0.96875 -8.703125 L 2.984375 -8.703125 Z M 2.984375 -10.5 "/>
</symbol>
<symbol overflow="visible" id="glyph2-20">
<path style="stroke:none;" d="M 2.984375 -10.5 L 0.96875 -10.5 L 0.96875 0 L 2.984375 0 Z M 2.984375 -10.5 "/>
</symbol>
<symbol overflow="visible" id="glyph2-21">
<path style="stroke:none;" d="M 3.234375 -3.515625 L 4.3125 -4.640625 L 7.75 0 L 10.328125 0 L 5.6875 -5.984375 L 9.875 -10.5 L 7.328125 -10.5 L 3.234375 -5.890625 L 3.234375 -10.5 L 1.0625 -10.5 L 1.0625 0 L 3.234375 0 Z M 3.234375 -3.515625 "/>
</symbol>
<symbol overflow="visible" id="glyph2-22">
<path style="stroke:none;" d="M 0.90625 -7.78125 L 0.90625 0 L 2.921875 0 L 2.921875 -4.671875 C 2.921875 -5.59375 3.5625 -6.1875 4.546875 -6.1875 C 5.421875 -6.1875 5.84375 -5.71875 5.84375 -4.796875 L 5.84375 0 L 7.859375 0 L 7.859375 -5.21875 C 7.859375 -6.9375 6.921875 -7.90625 5.265625 -7.90625 C 4.203125 -7.90625 3.5 -7.53125 2.921875 -6.65625 L 2.921875 -7.78125 Z M 0.90625 -7.78125 "/>
</symbol>
<symbol overflow="visible" id="glyph2-23">
<path style="stroke:none;" d="M 8.828125 0 L 11.03125 -7.78125 L 8.953125 -7.78125 L 7.765625 -2.328125 L 6.59375 -7.78125 L 4.578125 -7.78125 L 3.40625 -2.328125 L 2.15625 -7.78125 L 0.078125 -7.78125 L 2.265625 0 L 4.34375 0 L 5.578125 -5.484375 L 6.734375 0 Z M 8.828125 0 "/>
</symbol>
<symbol overflow="visible" id="glyph2-24">
<path style="stroke:none;" d="M 5.625 -10.671875 C 4.15625 -10.671875 2.9375 -10.1875 2.046875 -9.21875 C 1.109375 -8.21875 0.578125 -6.734375 0.578125 -5.171875 C 0.578125 -3.59375 1.109375 -2.125 2.046875 -1.125 C 2.953125 -0.140625 4.140625 0.328125 5.640625 0.328125 C 7.125 0.328125 8.3125 -0.140625 9.21875 -1.125 C 10.125 -2.09375 10.6875 -3.609375 10.6875 -5.09375 C 10.6875 -6.734375 10.15625 -8.21875 9.21875 -9.21875 C 8.296875 -10.21875 7.140625 -10.671875 5.625 -10.671875 Z M 5.640625 -8.828125 C 7.40625 -8.828125 8.53125 -7.390625 8.53125 -5.109375 C 8.53125 -2.953125 7.359375 -1.515625 5.640625 -1.515625 C 3.875 -1.515625 2.734375 -2.953125 2.734375 -5.171875 C 2.734375 -7.390625 3.875 -8.828125 5.640625 -8.828125 Z M 5.640625 -8.828125 "/>
</symbol>
<symbol overflow="visible" id="glyph2-25">
<path style="stroke:none;" d="M 2.859375 -7.78125 L 0.828125 -7.78125 L 0.828125 3.140625 L 2.859375 3.140625 L 2.859375 -0.921875 C 3.34375 -0.0625 4.03125 0.34375 5.015625 0.34375 C 6.890625 0.34375 8.265625 -1.40625 8.265625 -3.78125 C 8.265625 -4.875 7.953125 -5.96875 7.4375 -6.6875 C 6.921875 -7.421875 5.953125 -7.90625 5.015625 -7.90625 C 4.03125 -7.90625 3.34375 -7.484375 2.859375 -6.625 Z M 4.546875 -6.21875 C 5.578125 -6.21875 6.25 -5.25 6.25 -3.75 C 6.25 -2.3125 5.5625 -1.34375 4.546875 -1.34375 C 3.53125 -1.34375 2.859375 -2.3125 2.859375 -3.78125 C 2.859375 -5.25 3.53125 -6.21875 4.546875 -6.21875 Z M 4.546875 -6.21875 "/>
</symbol>
<symbol overflow="visible" id="glyph2-26">
<path style="stroke:none;" d="M 0.859375 -7.78125 L 0.859375 0 L 2.875 0 L 2.875 -4.671875 C 2.875 -5.640625 3.40625 -6.1875 4.265625 -6.1875 C 4.9375 -6.1875 5.359375 -5.8125 5.359375 -5.1875 L 5.359375 0 L 7.375 0 L 7.375 -4.671875 C 7.375 -5.625 7.890625 -6.1875 8.765625 -6.1875 C 9.4375 -6.1875 9.859375 -5.8125 9.859375 -5.1875 L 9.859375 0 L 11.875 0 L 11.875 -5.5 C 11.875 -7.015625 10.953125 -7.90625 9.390625 -7.90625 C 8.40625 -7.90625 7.71875 -7.5625 7.109375 -6.75 C 6.734375 -7.484375 5.96875 -7.90625 5 -7.90625 C 4.109375 -7.90625 3.53125 -7.625 2.859375 -6.8125 L 2.859375 -7.78125 Z M 0.859375 -7.78125 "/>
</symbol>
<symbol overflow="visible" id="glyph2-27">
<path style="stroke:none;" d="M 7.796875 0 L 7.796875 -7.78125 L 5.78125 -7.78125 L 5.78125 -2.90625 C 5.78125 -1.984375 5.140625 -1.390625 4.15625 -1.390625 C 3.28125 -1.390625 2.859375 -1.84375 2.859375 -2.78125 L 2.859375 -7.78125 L 0.828125 -7.78125 L 0.828125 -2.359375 C 0.828125 -0.640625 1.765625 0.328125 3.4375 0.328125 C 4.5 0.328125 5.203125 -0.046875 5.78125 -0.921875 L 5.78125 0 Z M 7.796875 0 "/>
</symbol>
<symbol overflow="visible" id="glyph2-28">
<path style="stroke:none;" d="M 0.84375 -10.5 L 0.84375 0 L 2.859375 0 L 2.859375 -0.796875 C 3.359375 -0.03125 4.03125 0.328125 5.015625 0.328125 C 6.875 0.328125 8.28125 -1.4375 8.28125 -3.78125 C 8.28125 -4.84375 7.96875 -5.90625 7.453125 -6.65625 C 6.921875 -7.421875 5.96875 -7.90625 5.015625 -7.90625 C 4.03125 -7.90625 3.359375 -7.546875 2.859375 -6.765625 L 2.859375 -10.5 Z M 4.5625 -6.21875 C 5.5625 -6.21875 6.265625 -5.21875 6.265625 -3.78125 C 6.265625 -2.34375 5.578125 -1.359375 4.5625 -1.359375 C 3.546875 -1.359375 2.859375 -2.3125 2.859375 -3.8125 C 2.859375 -5.25 3.5625 -6.21875 4.5625 -6.21875 Z M 4.5625 -6.21875 "/>
</symbol>
</g>
</defs>
<g id="surface497">
<rect x="0" y="0" width="504" height="504" style="fill:rgb(100%,100%,100%);fill-opacity:1;stroke:none;"/>
<path style="fill:none;stroke-width:0.75;stroke-linecap:round;stroke-linejoin:round;stroke:rgb(0%,0%,0%);stroke-opacity:1;stroke-miterlimit:10;" d="M 74.398438 72.800781 L 75.175781 72.800781 L 75.429688 82.339844 L 75.765625 220.882812 L 76.210938 297.320312 L 76.800781 333.230469 L 77.582031 328.453125 L 78.617188 345.199219 L 79.992188 340.40625 L 81.8125 342.800781 L 84.226562 349.929688 L 87.429688 349.960938 L 91.671875 359.5 L 97.300781 373.804688 L 104.757812 380.933594 L 114.648438 366.558594 L 127.757812 388.09375 L 145.136719 388.09375 L 168.175781 402.4375 L 198.71875 416.800781 L 239.210938 392.871094 L 292.890625 368.96875 L 364.054688 357.03125 L 458.398438 340.320312 "/>
<path style="fill:none;stroke-width:0.75;stroke-linecap:round;stroke-linejoin:round;stroke:rgb(0%,0%,0%);stroke-opacity:1;stroke-miterlimit:10;" d="M 74.398438 430.558594 L 458.398438 430.558594 "/>
<path style="fill:none;stroke-width:0.75;stroke-linecap:round;stroke-linejoin:round;stroke:rgb(0%,0%,0%);stroke-opacity:1;stroke-miterlimit:10;" d="M 74.398438 430.558594 L 74.398438 437.761719 "/>
<path style="fill:none;stroke-width:0.75;stroke-linecap:round;stroke-linejoin:round;stroke:rgb(0%,0%,0%);stroke-opacity:1;stroke-miterlimit:10;" d="M 151.199219 430.558594 L 151.199219 437.761719 "/>
<path style="fill:none;stroke-width:0.75;stroke-linecap:round;stroke-linejoin:round;stroke:rgb(0%,0%,0%);stroke-opacity:1;stroke-miterlimit:10;" d="M 228 430.558594 L 228 437.761719 "/>
<path style="fill:none;stroke-width:0.75;stroke-linecap:round;stroke-linejoin:round;stroke:rgb(0%,0%,0%);stroke-opacity:1;stroke-miterlimit:10;" d="M 304.800781 430.558594 L 304.800781 437.761719 "/>
<path style="fill:none;stroke-width:0.75;stroke-linecap:round;stroke-linejoin:round;stroke:rgb(0%,0%,0%);stroke-opacity:1;stroke-miterlimit:10;" d="M 381.601562 430.558594 L 381.601562 437.761719 "/>
<path style="fill:none;stroke-width:0.75;stroke-linecap:round;stroke-linejoin:round;stroke:rgb(0%,0%,0%);stroke-opacity:1;stroke-miterlimit:10;" d="M 458.398438 430.558594 L 458.398438 437.761719 "/>
<g style="fill:rgb(0%,0%,0%);fill-opacity:1;">
  <use xlink:href="#glyph0-1" x="70.898438" y="456.228516"/>
</g>
<g style="fill:rgb(0%,0%,0%);fill-opacity:1;">
  <use xlink:href="#glyph0-2" x="147.699219" y="456.228516"/>
</g>
<g style="fill:rgb(0%,0%,0%);fill-opacity:1;">
  <use xlink:href="#glyph0-3" x="224.5" y="456.228516"/>
</g>
<g style="fill:rgb(0%,0%,0%);fill-opacity:1;">
  <use xlink:href="#glyph0-4" x="301.300781" y="456.228516"/>
</g>
<g style="fill:rgb(0%,0%,0%);fill-opacity:1;">
  <use xlink:href="#glyph0-5" x="378.101562" y="456.228516"/>
</g>
<g style="fill:rgb(0%,0%,0%);fill-opacity:1;">
  <use xlink:href="#glyph0-6" x="451.398438" y="456.228516"/>
  <use xlink:href="#glyph0-1" x="458.070312" y="456.228516"/>
</g>
<path style="fill:none;stroke-width:0.75;stroke-linecap:round;stroke-linejoin:round;stroke:rgb(0%,0%,0%);stroke-opacity:1;stroke-miterlimit:10;" d="M 59.039062 393.886719 L 59.039062 79.539062 "/>
<path style="fill:none;stroke-width:0.75;stroke-linecap:round;stroke-linejoin:round;stroke:rgb(0%,0%,0%);stroke-opacity:1;stroke-miterlimit:10;" d="M 59.039062 393.886719 L 51.839844 393.886719 "/>
<path style="fill:none;stroke-width:0.75;stroke-linecap:round;stroke-linejoin:round;stroke:rgb(0%,0%,0%);stroke-opacity:1;stroke-miterlimit:10;" d="M 59.039062 315.300781 L 51.839844 315.300781 "/>
<path style="fill:none;stroke-width:0.75;stroke-linecap:round;stroke-linejoin:round;stroke:rgb(0%,0%,0%);stroke-opacity:1;stroke-miterlimit:10;" d="M 59.039062 236.710938 L 51.839844 236.710938 "/>
<path style="fill:none;stroke-width:0.75;stroke-linecap:round;stroke-linejoin:round;stroke:rgb(0%,0%,0%);stroke-opacity:1;stroke-miterlimit:10;" d="M 59.039062 158.125 L 51.839844 158.125 "/>
<path style="fill:none;stroke-width:0.75;stroke-linecap:round;stroke-linejoin:round;stroke:rgb(0%,0%,0%);stroke-opacity:1;stroke-miterlimit:10;" d="M 59.039062 79.539062 L 51.839844 79.539062 "/>
<g style="fill:rgb(0%,0%,0%);fill-opacity:1;">
  <use xlink:href="#glyph1-1" x="41.509766" y="405.886719"/>
  <use xlink:href="#glyph1-2" x="41.509766" y="399.214844"/>
  <use xlink:href="#glyph1-3" x="41.509766" y="395.878906"/>
  <use xlink:href="#glyph1-4" x="41.509766" y="389.207031"/>
</g>
<g style="fill:rgb(0%,0%,0%);fill-opacity:1;">
  <use xlink:href="#glyph1-1" x="41.509766" y="327.300781"/>
  <use xlink:href="#glyph1-2" x="41.509766" y="320.628906"/>
  <use xlink:href="#glyph1-5" x="41.509766" y="317.292969"/>
  <use xlink:href="#glyph1-1" x="41.509766" y="310.621094"/>
</g>
<g style="fill:rgb(0%,0%,0%);fill-opacity:1;">
  <use xlink:href="#glyph1-1" x="41.509766" y="248.710938"/>
  <use xlink:href="#glyph1-2" x="41.509766" y="242.039062"/>
  <use xlink:href="#glyph1-5" x="41.509766" y="238.703125"/>
  <use xlink:href="#glyph1-3" x="41.509766" y="232.03125"/>
</g>
<g style="fill:rgb(0%,0%,0%);fill-opacity:1;">
  <use xlink:href="#glyph1-1" x="41.509766" y="170.125"/>
  <use xlink:href="#glyph1-2" x="41.509766" y="163.453125"/>
  <use xlink:href="#glyph1-5" x="41.509766" y="160.117188"/>
  <use xlink:href="#glyph1-6" x="41.509766" y="153.445312"/>
</g>
<g style="fill:rgb(0%,0%,0%);fill-opacity:1;">
  <use xlink:href="#glyph1-1" x="41.509766" y="91.539062"/>
  <use xlink:href="#glyph1-2" x="41.509766" y="84.867188"/>
  <use xlink:href="#glyph1-5" x="41.509766" y="81.53125"/>
  <use xlink:href="#glyph1-7" x="41.509766" y="74.859375"/>
</g>
<path style="fill:none;stroke-width:0.75;stroke-linecap:round;stroke-linejoin:round;stroke:rgb(0%,0%,0%);stroke-opacity:1;stroke-miterlimit:10;" d="M 59.039062 430.558594 L 473.761719 430.558594 L 473.761719 59.039062 L 59.039062 59.039062 L 59.039062 430.558594 "/>
<g style="fill:rgb(0%,0%,0%);fill-opacity:1;">
  <use xlink:href="#glyph2-1" x="129.398438" y="25.875977"/>
  <use xlink:href="#glyph2-2" x="138.541992" y="25.875977"/>
  <use xlink:href="#glyph2-3" x="148.146484" y="25.875977"/>
  <use xlink:href="#glyph2-4" x="160.141602" y="25.875977"/>
  <use xlink:href="#glyph2-5" x="164.144531" y="25.875977"/>
  <use xlink:href="#glyph2-6" x="174.555664" y="25.875977"/>
  <use xlink:href="#glyph2-7" x="183.353516" y="25.875977"/>
  <use xlink:href="#glyph2-8" x="191.344727" y="25.875977"/>
  <use xlink:href="#glyph2-4" x="196.139648" y="25.875977"/>
  <use xlink:href="#glyph2-9" x="200.142578" y="25.875977"/>
  <use xlink:href="#glyph2-7" x="207.888672" y="25.875977"/>
  <use xlink:href="#glyph2-10" x="215.952148" y="25.875977"/>
  <use xlink:href="#glyph2-4" x="219.955078" y="25.875977"/>
  <use xlink:href="#glyph2-11" x="223.958008" y="25.875977"/>
  <use xlink:href="#glyph2-12" x="233.5625" y="25.875977"/>
  <use xlink:href="#glyph2-12" x="239.121094" y="25.875977"/>
  <use xlink:href="#glyph2-6" x="244.708008" y="25.875977"/>
  <use xlink:href="#glyph2-12" x="253.505859" y="25.875977"/>
  <use xlink:href="#glyph2-4" x="259.107422" y="25.875977"/>
  <use xlink:href="#glyph2-13" x="263.110352" y="25.875977"/>
  <use xlink:href="#glyph2-6" x="267.760742" y="25.875977"/>
  <use xlink:href="#glyph2-12" x="276.558594" y="25.875977"/>
  <use xlink:href="#glyph2-4" x="282.160156" y="25.875977"/>
  <use xlink:href="#glyph2-8" x="286.163086" y="25.875977"/>
  <use xlink:href="#glyph2-14" x="290.928711" y="25.875977"/>
  <use xlink:href="#glyph2-15" x="299.726562" y="25.875977"/>
  <use xlink:href="#glyph2-4" x="307.732422" y="25.875977"/>
  <use xlink:href="#glyph2-16" x="311.735352" y="25.875977"/>
  <use xlink:href="#glyph2-17" x="322.131836" y="25.875977"/>
  <use xlink:href="#glyph2-18" x="330.137695" y="25.875977"/>
  <use xlink:href="#glyph2-19" x="338.935547" y="25.875977"/>
  <use xlink:href="#glyph2-17" x="342.938477" y="25.875977"/>
  <use xlink:href="#glyph2-20" x="350.944336" y="25.875977"/>
  <use xlink:href="#glyph2-4" x="354.947266" y="25.875977"/>
  <use xlink:href="#glyph2-21" x="358.950195" y="25.875977"/>
  <use xlink:href="#glyph2-15" x="368.97168" y="25.875977"/>
  <use xlink:href="#glyph2-12" x="376.977539" y="25.875977"/>
  <use xlink:href="#glyph2-22" x="382.536133" y="25.875977"/>
  <use xlink:href="#glyph2-15" x="391.333984" y="25.875977"/>
  <use xlink:href="#glyph2-20" x="399.354492" y="25.875977"/>
</g>
<g style="fill:rgb(0%,0%,0%);fill-opacity:1;">
  <use xlink:href="#glyph2-4" x="194.898438" y="43.157227"/>
  <use xlink:href="#glyph2-23" x="198.901367" y="43.157227"/>
  <use xlink:href="#glyph2-19" x="210.089844" y="43.157227"/>
  <use xlink:href="#glyph2-8" x="214.092773" y="43.157227"/>
  <use xlink:href="#glyph2-14" x="218.858398" y="43.157227"/>
  <use xlink:href="#glyph2-4" x="227.65625" y="43.157227"/>
  <use xlink:href="#glyph2-24" x="231.65918" y="43.157227"/>
  <use xlink:href="#glyph2-25" x="242.862305" y="43.157227"/>
  <use xlink:href="#glyph2-8" x="251.587891" y="43.157227"/>
  <use xlink:href="#glyph2-19" x="256.353516" y="43.157227"/>
  <use xlink:href="#glyph2-26" x="260.356445" y="43.157227"/>
  <use xlink:href="#glyph2-17" x="273.157227" y="43.157227"/>
  <use xlink:href="#glyph2-20" x="281.163086" y="43.157227"/>
  <use xlink:href="#glyph2-4" x="285.166016" y="43.157227"/>
  <use xlink:href="#glyph2-1" x="289.168945" y="43.157227"/>
  <use xlink:href="#glyph2-27" x="298.773438" y="43.157227"/>
  <use xlink:href="#glyph2-28" x="307.571289" y="43.157227"/>
  <use xlink:href="#glyph2-7" x="316.369141" y="43.157227"/>
  <use xlink:href="#glyph2-15" x="324.375" y="43.157227"/>
  <use xlink:href="#glyph2-8" x="332.323242" y="43.157227"/>
</g>
<g style="fill:rgb(0%,0%,0%);fill-opacity:1;">
  <use xlink:href="#glyph0-7" x="253.898438" y="485.029297"/>
  <use xlink:href="#glyph0-8" x="262.538086" y="485.029297"/>
  <use xlink:href="#glyph0-9" x="269.209961" y="485.029297"/>
  <use xlink:href="#glyph0-10" x="275.173828" y="485.029297"/>
</g>
<g style="fill:rgb(0%,0%,0%);fill-opacity:1;">
  <use xlink:href="#glyph1-8" x="12.708984" y="272.300781"/>
  <use xlink:href="#glyph1-9" x="12.708984" y="264.296875"/>
  <use xlink:href="#glyph1-9" x="12.708984" y="260.300781"/>
  <use xlink:href="#glyph1-10" x="12.708984" y="256.376953"/>
  <use xlink:href="#glyph1-9" x="12.708984" y="249.705078"/>
  <use xlink:href="#glyph1-11" x="12.708984" y="245.708984"/>
  <use xlink:href="#glyph1-12" x="12.708984" y="242.373047"/>
  <use xlink:href="#glyph1-13" x="12.708984" y="233.865234"/>
  <use xlink:href="#glyph1-14" x="12.708984" y="227.325195"/>
  <use xlink:href="#glyph1-15" x="12.708984" y="224.157227"/>
</g>
</g>
</svg>
