<?xml version="1.0" encoding="UTF-8"?>
<svg xmlns="http://www.w3.org/2000/svg" xmlns:xlink="http://www.w3.org/1999/xlink" width="504pt" height="504pt" viewBox="0 0 504 504" version="1.1">
<defs>
<g>
<symbol overflow="visible" id="glyph0-0">
<path style="stroke:none;" d=""/>
</symbol>
<symbol overflow="visible" id="glyph0-1">
<path style="stroke:none;" d="M 3.296875 -8.515625 C 2.515625 -8.515625 1.78125 -8.15625 1.34375 -7.578125 C 0.796875 -6.828125 0.515625 -5.6875 0.515625 -4.109375 C 0.515625 -1.234375 1.46875 0.28125 3.296875 0.28125 C 5.09375 0.28125 6.078125 -1.25 6.078125 -4.046875 C 6.078125 -5.703125 5.8125 -6.796875 5.25 -7.578125 C 4.8125 -8.171875 4.109375 -8.515625 3.296875 -8.515625 Z M 3.296875 -7.578125 C 4.4375 -7.578125 5 -6.4375 5 -4.140625 C 5 -1.734375 4.453125 -0.59375 3.28125 -0.59375 C 2.15625 -0.59375 1.59375 -1.78125 1.59375 -4.109375 C 1.59375 -6.4375 2.15625 -7.578125 3.296875 -7.578125 Z M 3.296875 -7.578125 "/>
</symbol>
<symbol overflow="visible" id="glyph0-2">
<path style="stroke:none;" d="M 5.71875 -8.515625 L 1.3125 -8.515625 L 0.6875 -3.875 L 1.65625 -3.875 C 2.140625 -4.46875 2.5625 -4.671875 3.234375 -4.671875 C 4.375 -4.671875 5.078125 -3.890625 5.078125 -2.625 C 5.078125 -1.40625 4.375 -0.65625 3.21875 -0.65625 C 2.296875 -0.65625 1.734375 -1.125 1.46875 -2.09375 L 0.421875 -2.09375 C 0.5625 -1.390625 0.6875 -1.0625 0.9375 -0.75 C 1.421875 -0.09375 2.28125 0.28125 3.234375 0.28125 C 4.953125 0.28125 6.15625 -0.96875 6.15625 -2.765625 C 6.15625 -4.453125 5.046875 -5.609375 3.40625 -5.609375 C 2.8125 -5.609375 2.328125 -5.453125 1.84375 -5.09375 L 2.171875 -7.46875 L 5.71875 -7.46875 Z M 5.71875 -8.515625 "/>
</symbol>
<symbol overflow="visible" id="glyph0-3">
<path style="stroke:none;" d="M 3.109375 -6.0625 L 3.109375 0 L 4.15625 0 L 4.15625 -8.515625 L 3.46875 -8.515625 C 3.09375 -7.203125 2.859375 -7.015625 1.21875 -6.8125 L 1.21875 -6.0625 Z M 3.109375 -6.0625 "/>
</symbol>
<symbol overflow="visible" id="glyph0-4">
<path style="stroke:none;" d="M 6.078125 -1.046875 L 1.59375 -1.046875 C 1.703125 -1.734375 2.09375 -2.1875 3.125 -2.796875 L 4.328125 -3.4375 C 5.515625 -4.09375 6.125 -4.96875 6.125 -6.015625 C 6.125 -6.71875 5.84375 -7.375 5.34375 -7.84375 C 4.84375 -8.296875 4.21875 -8.515625 3.40625 -8.515625 C 2.328125 -8.515625 1.53125 -8.140625 1.0625 -7.40625 C 0.75 -6.953125 0.625 -6.421875 0.59375 -5.5625 L 1.65625 -5.5625 C 1.6875 -6.125 1.765625 -6.484375 1.90625 -6.75 C 2.1875 -7.265625 2.734375 -7.578125 3.375 -7.578125 C 4.328125 -7.578125 5.046875 -6.90625 5.046875 -5.984375 C 5.046875 -5.3125 4.65625 -4.734375 3.90625 -4.3125 L 2.796875 -3.6875 C 1.015625 -2.671875 0.5 -1.875 0.40625 0 L 6.078125 0 Z M 6.078125 -1.046875 "/>
</symbol>
<symbol overflow="visible" id="glyph0-5">
<path style="stroke:none;" d="M 2.65625 -3.90625 L 3.234375 -3.90625 C 4.390625 -3.90625 4.984375 -3.390625 4.984375 -2.359375 C 4.984375 -1.296875 4.328125 -0.65625 3.234375 -0.65625 C 2.078125 -0.65625 1.515625 -1.234375 1.4375 -2.46875 L 0.390625 -2.46875 C 0.4375 -1.78125 0.546875 -1.34375 0.75 -0.953125 C 1.1875 -0.140625 2.03125 0.28125 3.1875 0.28125 C 4.9375 0.28125 6.078125 -0.765625 6.078125 -2.375 C 6.078125 -3.453125 5.65625 -4.0625 4.625 -4.40625 C 5.421875 -4.734375 5.8125 -5.3125 5.8125 -6.171875 C 5.8125 -7.625 4.84375 -8.515625 3.234375 -8.515625 C 1.515625 -8.515625 0.59375 -7.578125 0.5625 -5.765625 L 1.625 -5.765625 C 1.625 -6.28125 1.6875 -6.5625 1.8125 -6.828125 C 2.046875 -7.296875 2.578125 -7.578125 3.234375 -7.578125 C 4.171875 -7.578125 4.734375 -7.046875 4.734375 -6.125 C 4.734375 -5.53125 4.53125 -5.171875 4.0625 -4.984375 C 3.765625 -4.859375 3.390625 -4.8125 2.65625 -4.796875 Z M 2.65625 -3.90625 "/>
</symbol>
<symbol overflow="visible" id="glyph0-6">
<path style="stroke:none;" d="M 4.25 -7.765625 L 7.109375 -7.765625 L 7.109375 -8.75 L 0.25 -8.75 L 0.25 -7.765625 L 3.125 -7.765625 L 3.125 0 L 4.25 0 Z M 4.25 -7.765625 "/>
</symbol>
<symbol overflow="visible" id="glyph0-7">
<path style="stroke:none;" d="M 3.265625 -6.46875 C 1.484375 -6.46875 0.4375 -5.203125 0.4375 -3.09375 C 0.4375 -0.96875 1.484375 0.28125 3.28125 0.28125 C 5.046875 0.28125 6.125 -0.984375 6.125 -3.046875 C 6.125 -5.234375 5.09375 -6.46875 3.265625 -6.46875 Z M 3.28125 -5.546875 C 4.40625 -5.546875 5.078125 -4.625 5.078125 -3.0625 C 5.078125 -1.578125 4.375 -0.640625 3.28125 -0.640625 C 2.15625 -0.640625 1.46875 -1.578125 1.46875 -3.09375 C 1.46875 -4.625 2.15625 -5.546875 3.28125 -5.546875 Z M 3.28125 -5.546875 "/>
</symbol>
<symbol overflow="visible" id="glyph0-8">
<path style="stroke:none;" d="M 3.046875 -6.28125 L 2.015625 -6.28125 L 2.015625 -8.015625 L 1.015625 -8.015625 L 1.015625 -6.28125 L 0.171875 -6.28125 L 0.171875 -5.46875 L 1.015625 -5.46875 L 1.015625 -0.71875 C 1.015625 -0.078125 1.453125 0.28125 2.234375 0.28125 C 2.5 0.28125 2.71875 0.25 3.046875 0.1875 L 3.046875 -0.640625 C 2.90625 -0.609375 2.765625 -0.59375 2.5625 -0.59375 C 2.140625 -0.59375 2.015625 -0.71875 2.015625 -1.15625 L 2.015625 -5.46875 L 3.046875 -5.46875 Z M 3.046875 -6.28125 "/>
</symbol>
<symbol overflow="visible" id="glyph0-9">
<path style="stroke:none;" d="M 6.421875 -0.59375 C 6.3125 -0.5625 6.265625 -0.5625 6.203125 -0.5625 C 5.859375 -0.5625 5.65625 -0.75 5.65625 -1.0625 L 5.65625 -4.75 C 5.65625 -5.875 4.84375 -6.46875 3.296875 -6.46875 C 2.375 -6.46875 1.640625 -6.203125 1.21875 -5.734375 C 0.921875 -5.40625 0.796875 -5.046875 0.78125 -4.421875 L 1.78125 -4.421875 C 1.875 -5.203125 2.328125 -5.546875 3.265625 -5.546875 C 4.171875 -5.546875 4.671875 -5.203125 4.671875 -4.609375 L 4.671875 -4.34375 C 4.65625 -3.90625 4.4375 -3.75 3.625 -3.640625 C 2.203125 -3.46875 1.984375 -3.421875 1.609375 -3.265625 C 0.875 -2.953125 0.5 -2.40625 0.5 -1.578125 C 0.5 -0.4375 1.296875 0.28125 2.5625 0.28125 C 3.359375 0.28125 4 0 4.703125 -0.640625 C 4.78125 0 5.09375 0.28125 5.734375 0.28125 C 5.953125 0.28125 6.078125 0.25 6.421875 0.171875 Z M 4.671875 -1.984375 C 4.671875 -1.640625 4.578125 -1.4375 4.265625 -1.15625 C 3.859375 -0.796875 3.375 -0.59375 2.78125 -0.59375 C 2 -0.59375 1.546875 -0.96875 1.546875 -1.609375 C 1.546875 -2.265625 1.984375 -2.609375 3.0625 -2.765625 C 4.125 -2.90625 4.328125 -2.953125 4.671875 -3.109375 Z M 4.671875 -1.984375 "/>
</symbol>
<symbol overflow="visible" id="glyph0-10">
<path style="stroke:none;" d="M 1.828125 -8.75 L 0.8125 -8.75 L 0.8125 0 L 1.828125 0 Z M 1.828125 -8.75 "/>
</symbol>
<symbol overflow="visible" id="glyph0-11">
<path style="stroke:none;" d=""/>
</symbol>
<symbol overflow="visible" id="glyph0-12">
<path style="stroke:none;" d="M 7.75 -8.75 L 6.703125 -8.75 L 6.703125 -1.59375 L 2.125 -8.75 L 0.90625 -8.75 L 0.90625 0 L 1.96875 0 L 1.96875 -7.09375 L 6.484375 0 L 7.75 0 Z M 7.75 -8.75 "/>
</symbol>
<symbol overflow="visible" id="glyph0-13">
<path style="stroke:none;" d="M 5.78125 0 L 5.78125 -6.28125 L 4.78125 -6.28125 L 4.78125 -2.71875 C 4.78125 -1.4375 4.109375 -0.59375 3.078125 -0.59375 C 2.28125 -0.59375 1.78125 -1.078125 1.78125 -1.84375 L 1.78125 -6.28125 L 0.78125 -6.28125 L 0.78125 -1.4375 C 0.78125 -0.390625 1.5625 0.28125 2.78125 0.28125 C 3.703125 0.28125 4.296875 -0.046875 4.890625 -0.875 L 4.890625 0 Z M 5.78125 0 "/>
</symbol>
<symbol overflow="visible" id="glyph0-14">
<path style="stroke:none;" d="M 0.84375 -6.28125 L 0.84375 0 L 1.84375 0 L 1.84375 -3.953125 C 1.84375 -4.859375 2.515625 -5.59375 3.328125 -5.59375 C 4.0625 -5.59375 4.484375 -5.140625 4.484375 -4.328125 L 4.484375 0 L 5.5 0 L 5.5 -3.953125 C 5.5 -4.859375 6.15625 -5.59375 6.96875 -5.59375 C 7.703125 -5.59375 8.140625 -5.125 8.140625 -4.328125 L 8.140625 0 L 9.140625 0 L 9.140625 -4.71875 C 9.140625 -5.84375 8.5 -6.46875 7.3125 -6.46875 C 6.484375 -6.46875 5.96875 -6.21875 5.390625 -5.515625 C 5.015625 -6.1875 4.515625 -6.46875 3.703125 -6.46875 C 2.859375 -6.46875 2.296875 -6.15625 1.765625 -5.40625 L 1.765625 -6.28125 Z M 0.84375 -6.28125 "/>
</symbol>
<symbol overflow="visible" id="glyph0-15">
<path style="stroke:none;" d="M 0.640625 -8.75 L 0.640625 0 L 1.546875 0 L 1.546875 -0.796875 C 2.03125 -0.078125 2.65625 0.28125 3.546875 0.28125 C 5.203125 0.28125 6.28125 -1.078125 6.28125 -3.171875 C 6.28125 -5.203125 5.25 -6.46875 3.59375 -6.46875 C 2.71875 -6.46875 2.109375 -6.140625 1.640625 -5.4375 L 1.640625 -8.75 Z M 3.390625 -5.53125 C 4.515625 -5.53125 5.234375 -4.5625 5.234375 -3.0625 C 5.234375 -1.625 4.484375 -0.65625 3.390625 -0.65625 C 2.328125 -0.65625 1.640625 -1.625 1.640625 -3.09375 C 1.640625 -4.578125 2.328125 -5.53125 3.390625 -5.53125 Z M 3.390625 -5.53125 "/>
</symbol>
<symbol overflow="visible" id="glyph0-16">
<path style="stroke:none;" d="M 6.15625 -2.8125 C 6.15625 -3.765625 6.078125 -4.34375 5.90625 -4.8125 C 5.5 -5.84375 4.53125 -6.46875 3.359375 -6.46875 C 1.609375 -6.46875 0.484375 -5.140625 0.484375 -3.0625 C 0.484375 -0.984375 1.5625 0.28125 3.34375 0.28125 C 4.78125 0.28125 5.765625 -0.546875 6.03125 -1.90625 L 5.015625 -1.90625 C 4.734375 -1.078125 4.171875 -0.640625 3.375 -0.640625 C 2.734375 -0.640625 2.203125 -0.9375 1.859375 -1.46875 C 1.625 -1.828125 1.53125 -2.1875 1.53125 -2.8125 Z M 1.546875 -3.625 C 1.625 -4.78125 2.34375 -5.546875 3.34375 -5.546875 C 4.375 -5.546875 5.078125 -4.75 5.078125 -3.625 Z M 1.546875 -3.625 "/>
</symbol>
<symbol overflow="visible" id="glyph0-17">
<path style="stroke:none;" d="M 0.828125 -6.28125 L 0.828125 0 L 1.84375 0 L 1.84375 -3.265625 C 1.84375 -4.78125 2.46875 -5.453125 3.859375 -5.40625 L 3.859375 -6.4375 C 3.6875 -6.453125 3.59375 -6.46875 3.46875 -6.46875 C 2.8125 -6.46875 2.328125 -6.078125 1.75 -5.140625 L 1.75 -6.28125 Z M 0.828125 -6.28125 "/>
</symbol>
<symbol overflow="visible" id="glyph0-18">
<path style="stroke:none;" d="M 3.09375 -6.28125 L 2.046875 -6.28125 L 2.046875 -7.265625 C 2.046875 -7.6875 2.28125 -7.90625 2.75 -7.90625 C 2.828125 -7.90625 2.875 -7.90625 3.09375 -7.890625 L 3.09375 -8.71875 C 2.875 -8.765625 2.734375 -8.78125 2.53125 -8.78125 C 1.609375 -8.78125 1.0625 -8.25 1.0625 -7.359375 L 1.0625 -6.28125 L 0.21875 -6.28125 L 0.21875 -5.46875 L 1.0625 -5.46875 L 1.0625 0 L 2.046875 0 L 2.046875 -5.46875 L 3.09375 -5.46875 Z M 3.09375 -6.28125 "/>
</symbol>
<symbol overflow="visible" id="glyph0-19">
<path style="stroke:none;" d="M 5.25 -4.53125 C 5.25 -5.765625 4.421875 -6.46875 2.96875 -6.46875 C 1.515625 -6.46875 0.5625 -5.71875 0.5625 -4.546875 C 0.5625 -3.5625 1.0625 -3.09375 2.5625 -2.734375 L 3.484375 -2.515625 C 4.1875 -2.34375 4.46875 -2.09375 4.46875 -1.640625 C 4.46875 -1.046875 3.875 -0.640625 3 -0.640625 C 2.453125 -0.640625 2 -0.796875 1.75 -1.0625 C 1.59375 -1.25 1.53125 -1.421875 1.46875 -1.875 L 0.40625 -1.875 C 0.453125 -0.421875 1.265625 0.28125 2.921875 0.28125 C 4.5 0.28125 5.515625 -0.5 5.515625 -1.71875 C 5.515625 -2.65625 4.984375 -3.171875 3.734375 -3.46875 L 2.765625 -3.703125 C 1.953125 -3.890625 1.609375 -4.15625 1.609375 -4.59375 C 1.609375 -5.1875 2.125 -5.546875 2.9375 -5.546875 C 3.75 -5.546875 4.171875 -5.203125 4.203125 -4.53125 Z M 5.25 -4.53125 "/>
</symbol>
<symbol overflow="visible" id="glyph1-0">
<path style="stroke:none;" d=""/>
</symbol>
<symbol overflow="visible" id="glyph1-1">
<path style="stroke:none;" d="M -8.515625 -3.296875 C -8.515625 -2.515625 -8.15625 -1.78125 -7.578125 -1.34375 C -6.828125 -0.796875 -5.6875 -0.515625 -4.109375 -0.515625 C -1.234375 -0.515625 0.28125 -1.46875 0.28125 -3.296875 C 0.28125 -5.09375 -1.25 -6.078125 -4.046875 -6.078125 C -5.703125 -6.078125 -6.796875 -5.8125 -7.578125 -5.25 C -8.171875 -4.8125 -8.515625 -4.109375 -8.515625 -3.296875 Z M -7.578125 -3.296875 C -7.578125 -4.4375 -6.4375 -5 -4.140625 -5 C -1.734375 -5 -0.59375 -4.453125 -0.59375 -3.28125 C -0.59375 -2.15625 -1.78125 -1.59375 -4.109375 -1.59375 C -6.4375 -1.59375 -7.578125 -2.15625 -7.578125 -3.296875 Z M -7.578125 -3.296875 "/>
</symbol>
<symbol overflow="visible" id="glyph1-2">
<path style="stroke:none;" d="M -1.25 -2.296875 L -1.25 -1.046875 L 0 -1.046875 L 0 -2.296875 Z M -1.25 -2.296875 "/>
</symbol>
<symbol overflow="visible" id="glyph1-3">
<path style="stroke:none;" d="M -1.046875 -6.078125 L -1.046875 -1.59375 C -1.734375 -1.703125 -2.1875 -2.09375 -2.796875 -3.125 L -3.4375 -4.328125 C -4.09375 -5.515625 -4.96875 -6.125 -6.015625 -6.125 C -6.71875 -6.125 -7.375 -5.84375 -7.84375 -5.34375 C -8.296875 -4.84375 -8.515625 -4.21875 -8.515625 -3.40625 C -8.515625 -2.328125 -8.140625 -1.53125 -7.40625 -1.0625 C -6.953125 -0.75 -6.421875 -0.625 -5.5625 -0.59375 L -5.5625 -1.65625 C -6.125 -1.6875 -6.484375 -1.765625 -6.75 -1.90625 C -7.265625 -2.1875 -7.578125 -2.734375 -7.578125 -3.375 C -7.578125 -4.328125 -6.90625 -5.046875 -5.984375 -5.046875 C -5.3125 -5.046875 -4.734375 -4.65625 -4.3125 -3.90625 L -3.6875 -2.796875 C -2.671875 -1.015625 -1.875 -0.5 0 -0.40625 L 0 -6.078125 Z M -1.046875 -6.078125 "/>
</symbol>
<symbol overflow="visible" id="glyph1-4">
<path style="stroke:none;" d="M -6.28125 -5.96875 C -7.6875 -5.765625 -8.515625 -4.859375 -8.515625 -3.5625 C -8.515625 -2.625 -8.0625 -1.78125 -7.296875 -1.28125 C -6.46875 -0.75 -5.421875 -0.515625 -3.875 -0.515625 C -2.4375 -0.515625 -1.53125 -0.734375 -0.78125 -1.234375 C -0.09375 -1.6875 0.28125 -2.4375 0.28125 -3.375 C 0.28125 -4.984375 -0.921875 -6.15625 -2.59375 -6.15625 C -4.171875 -6.15625 -5.296875 -5.078125 -5.296875 -3.546875 C -5.296875 -2.71875 -4.96875 -2.046875 -4.34375 -1.59375 C -6.421875 -1.609375 -7.578125 -2.28125 -7.578125 -3.484375 C -7.578125 -4.234375 -7.109375 -4.75 -6.28125 -4.921875 Z M -4.359375 -3.421875 C -4.359375 -4.4375 -3.640625 -5.078125 -2.515625 -5.078125 C -1.4375 -5.078125 -0.65625 -4.359375 -0.65625 -3.390625 C -0.65625 -2.40625 -1.46875 -1.65625 -2.5625 -1.65625 C -3.625 -1.65625 -4.359375 -2.375 -4.359375 -3.421875 Z M -4.359375 -3.421875 "/>
</symbol>
<symbol overflow="visible" id="glyph1-5">
<path style="stroke:none;" d="M -8.515625 -5.71875 L -8.515625 -1.3125 L -3.875 -0.6875 L -3.875 -1.65625 C -4.46875 -2.140625 -4.671875 -2.5625 -4.671875 -3.234375 C -4.671875 -4.375 -3.890625 -5.078125 -2.625 -5.078125 C -1.40625 -5.078125 -0.65625 -4.375 -0.65625 -3.21875 C -0.65625 -2.296875 -1.125 -1.734375 -2.09375 -1.46875 L -2.09375 -0.421875 C -1.390625 -0.5625 -1.0625 -0.6875 -0.75 -0.9375 C -0.09375 -1.421875 0.28125 -2.28125 0.28125 -3.234375 C 0.28125 -4.953125 -0.96875 -6.15625 -2.765625 -6.15625 C -4.453125 -6.15625 -5.609375 -5.046875 -5.609375 -3.40625 C -5.609375 -2.8125 -5.453125 -2.328125 -5.09375 -1.84375 L -7.46875 -2.171875 L -7.46875 -5.71875 Z M -8.515625 -5.71875 "/>
</symbol>
<symbol overflow="visible" id="glyph1-6">
<path style="stroke:none;" d="M -8.515625 -6.234375 L -8.515625 -0.546875 L -7.46875 -0.546875 L -7.46875 -5.140625 C -4.578125 -3.125 -2.796875 -2.296875 0 -1.65625 L 0 -2.78125 C -2.71875 -3.25 -5.0625 -4.3125 -7.625 -6.234375 Z M -8.515625 -6.234375 "/>
</symbol>
<symbol overflow="visible" id="glyph1-7">
<path style="stroke:none;" d="M -8.890625 -4.671875 C -8.890625 -2.15625 -7.046875 -0.453125 -4.3125 -0.453125 C -1.5625 -0.453125 0.28125 -2.140625 0.28125 -4.6875 C 0.28125 -5.75 -0.046875 -6.6875 -0.640625 -7.390625 C -1.453125 -8.34375 -2.8125 -8.90625 -4.234375 -8.90625 C -7.0625 -8.90625 -8.890625 -7.234375 -8.890625 -4.671875 Z M -7.90625 -4.671875 C -7.90625 -6.5625 -6.484375 -7.78125 -4.265625 -7.78125 C -2.140625 -7.78125 -0.703125 -6.53125 -0.703125 -4.6875 C -0.703125 -2.8125 -2.140625 -1.578125 -4.3125 -1.578125 C -6.46875 -1.578125 -7.90625 -2.8125 -7.90625 -4.671875 Z M -7.90625 -4.671875 "/>
</symbol>
<symbol overflow="visible" id="glyph1-8">
<path style="stroke:none;" d="M 0 -0.953125 L 0 -4.890625 C 0 -5.71875 -0.234375 -6.34375 -0.734375 -6.796875 C -1.1875 -7.234375 -1.8125 -7.46875 -2.5 -7.46875 C -3.546875 -7.46875 -4.1875 -7 -4.625 -5.875 C -4.984375 -6.6875 -5.625 -7.09375 -6.53125 -7.09375 C -7.171875 -7.09375 -7.734375 -6.859375 -8.140625 -6.390625 C -8.5625 -5.921875 -8.75 -5.34375 -8.75 -4.5 L -8.75 -0.953125 Z M -4.984375 -2.0625 L -7.765625 -2.0625 L -7.765625 -4.21875 C -7.765625 -4.84375 -7.6875 -5.203125 -7.453125 -5.5 C -7.21875 -5.8125 -6.859375 -5.96875 -6.375 -5.96875 C -5.890625 -5.96875 -5.53125 -5.8125 -5.296875 -5.5 C -5.0625 -5.203125 -4.984375 -4.84375 -4.984375 -4.21875 Z M -0.984375 -2.0625 L -4 -2.0625 L -4 -4.78125 C -4 -5.765625 -3.4375 -6.359375 -2.484375 -6.359375 C -1.546875 -6.359375 -0.984375 -5.765625 -0.984375 -4.78125 Z M -0.984375 -2.0625 "/>
</symbol>
<symbol overflow="visible" id="glyph1-9">
<path style="stroke:none;" d=""/>
</symbol>
<symbol overflow="visible" id="glyph1-10">
<path style="stroke:none;" d="M 0 -5.609375 L -7.328125 -8.078125 L 0 -8.078125 L 0 -9.125 L -8.75 -9.125 L -8.75 -7.578125 L -1.125 -5.046875 L -8.75 -2.453125 L -8.75 -0.90625 L 0 -0.90625 L 0 -1.953125 L -7.328125 -1.953125 L 0 -4.4375 Z M 0 -5.609375 "/>
</symbol>
<symbol overflow="visible" id="glyph1-11">
<path style="stroke:none;" d="M -6.28125 -1.796875 L -6.28125 -0.796875 L 0 -0.796875 L 0 -1.796875 Z M -8.75 -1.796875 L -8.75 -0.796875 L -7.484375 -0.796875 L -7.484375 -1.796875 Z M -8.75 -1.796875 "/>
</symbol>
<symbol overflow="visible" id="glyph1-12">
<path style="stroke:none;" d="M -4.53125 -5.25 C -5.765625 -5.25 -6.46875 -4.421875 -6.46875 -2.96875 C -6.46875 -1.515625 -5.71875 -0.5625 -4.546875 -0.5625 C -3.5625 -0.5625 -3.09375 -1.0625 -2.734375 -2.5625 L -2.515625 -3.484375 C -2.34375 -4.1875 -2.09375 -4.46875 -1.640625 -4.46875 C -1.046875 -4.46875 -0.640625 -3.875 -0.640625 -3 C -0.640625 -2.453125 -0.796875 -2 -1.0625 -1.75 C -1.25 -1.59375 -1.421875 -1.53125 -1.875 -1.46875 L -1.875 -0.40625 C -0.421875 -0.453125 0.28125 -1.265625 0.28125 -2.921875 C 0.28125 -4.5 -0.5 -5.515625 -1.71875 -5.515625 C -2.65625 -5.515625 -3.171875 -4.984375 -3.46875 -3.734375 L -3.703125 -2.765625 C -3.890625 -1.953125 -4.15625 -1.609375 -4.59375 -1.609375 C -5.1875 -1.609375 -5.546875 -2.125 -5.546875 -2.9375 C -5.546875 -3.75 -5.203125 -4.171875 -4.53125 -4.203125 Z M -4.53125 -5.25 "/>
</symbol>
<symbol overflow="visible" id="glyph1-13">
<path style="stroke:none;" d="M -4.171875 -5.65625 C -4.78125 -5.609375 -5.1875 -5.46875 -5.53125 -5.234375 C -6.125 -4.796875 -6.46875 -4.046875 -6.46875 -3.171875 C -6.46875 -1.46875 -5.125 -0.375 -3.03125 -0.375 C -1.015625 -0.375 0.28125 -1.453125 0.28125 -3.15625 C 0.28125 -4.65625 -0.625 -5.609375 -2.15625 -5.71875 L -2.15625 -4.71875 C -1.15625 -4.546875 -0.640625 -4.03125 -0.640625 -3.1875 C -0.640625 -2.078125 -1.546875 -1.421875 -3.03125 -1.421875 C -4.609375 -1.421875 -5.546875 -2.0625 -5.546875 -3.15625 C -5.546875 -4 -5.046875 -4.53125 -4.171875 -4.640625 Z M -4.171875 -5.65625 "/>
</symbol>
<symbol overflow="visible" id="glyph1-14">
<path style="stroke:none;" d="M -8.75 -1.828125 L -8.75 -0.8125 L 0 -0.8125 L 0 -1.828125 Z M -8.75 -1.828125 "/>
</symbol>
<symbol overflow="visible" id="glyph1-15">
<path style="stroke:none;" d="M -0.59375 -6.421875 C -0.5625 -6.3125 -0.5625 -6.265625 -0.5625 -6.203125 C -0.5625 -5.859375 -0.75 -5.65625 -1.0625 -5.65625 L -4.75 -5.65625 C -5.875 -5.65625 -6.46875 -4.84375 -6.46875 -3.296875 C -6.46875 -2.375 -6.203125 -1.640625 -5.734375 -1.21875 C -5.40625 -0.921875 -5.046875 -0.796875 -4.421875 -0.78125 L -4.421875 -1.78125 C -5.203125 -1.875 -5.546875 -2.328125 -5.546875 -3.265625 C -5.546875 -4.171875 -5.203125 -4.671875 -4.609375 -4.671875 L -4.34375 -4.671875 C -3.90625 -4.65625 -3.75 -4.4375 -3.640625 -3.625 C -3.46875 -2.203125 -3.421875 -1.984375 -3.265625 -1.609375 C -2.953125 -0.875 -2.40625 -0.5 -1.578125 -0.5 C -0.4375 -0.5 0.28125 -1.296875 0.28125 -2.5625 C 0.28125 -3.359375 0 -4 -0.640625 -4.703125 C 0 -4.78125 0.28125 -5.09375 0.28125 -5.734375 C 0.28125 -5.953125 0.25 -6.078125 0.171875 -6.421875 Z M -1.984375 -4.671875 C -1.640625 -4.671875 -1.4375 -4.578125 -1.15625 -4.265625 C -0.796875 -3.859375 -0.59375 -3.375 -0.59375 -2.78125 C -0.59375 -2 -0.96875 -1.546875 -1.609375 -1.546875 C -2.265625 -1.546875 -2.609375 -1.984375 -2.765625 -3.0625 C -2.90625 -4.125 -2.953125 -4.328125 -3.109375 -4.671875 Z M -1.984375 -4.671875 "/>
</symbol>
<symbol overflow="visible" id="glyph1-16">
<path style="stroke:none;" d="M -6.28125 -3.03125 L -6.28125 -1.984375 L -7.265625 -1.984375 C -7.6875 -1.984375 -7.90625 -2.203125 -7.90625 -2.671875 C -7.90625 -2.765625 -7.90625 -2.796875 -7.890625 -3.03125 L -8.71875 -3.03125 C -8.765625 -2.796875 -8.78125 -2.65625 -8.78125 -2.453125 C -8.78125 -1.53125 -8.25 -0.984375 -7.359375 -0.984375 L -6.28125 -0.984375 L -6.28125 -0.140625 L -5.46875 -0.140625 L -5.46875 -0.984375 L 0 -0.984375 L 0 -1.984375 L -5.46875 -1.984375 L -5.46875 -3.03125 Z M -6.28125 -5.234375 L -6.28125 -4.234375 L 0 -4.234375 L 0 -5.234375 Z M -8.75 -5.234375 L -8.75 -4.234375 L -7.484375 -4.234375 L -7.484375 -5.234375 Z M -8.75 -5.234375 "/>
</symbol>
<symbol overflow="visible" id="glyph1-17">
<path style="stroke:none;" d="M -6.28125 -3.046875 L -6.28125 -2.015625 L -8.015625 -2.015625 L -8.015625 -1.015625 L -6.28125 -1.015625 L -6.28125 -0.171875 L -5.46875 -0.171875 L -5.46875 -1.015625 L -0.71875 -1.015625 C -0.078125 -1.015625 0.28125 -1.453125 0.28125 -2.234375 C 0.28125 -2.5 0.25 -2.71875 0.1875 -3.046875 L -0.640625 -3.046875 C -0.609375 -2.90625 -0.59375 -2.765625 -0.59375 -2.5625 C -0.59375 -2.140625 -0.71875 -2.015625 -1.15625 -2.015625 L -5.46875 -2.015625 L -5.46875 -3.046875 Z M -6.28125 -3.046875 "/>
</symbol>
<symbol overflow="visible" id="glyph1-18">
<path style="stroke:none;" d="M -6.46875 -3.265625 C -6.46875 -1.484375 -5.203125 -0.4375 -3.09375 -0.4375 C -0.96875 -0.4375 0.28125 -1.484375 0.28125 -3.28125 C 0.28125 -5.046875 -0.984375 -6.125 -3.046875 -6.125 C -5.234375 -6.125 -6.46875 -5.09375 -6.46875 -3.265625 Z M -5.546875 -3.28125 C -5.546875 -4.40625 -4.625 -5.078125 -3.0625 -5.078125 C -1.578125 -5.078125 -0.640625 -4.375 -0.640625 -3.28125 C -0.640625 -2.15625 -1.578125 -1.46875 -3.09375 -1.46875 C -4.625 -1.46875 -5.546875 -2.15625 -5.546875 -3.28125 Z M -5.546875 -3.28125 "/>
</symbol>
<symbol overflow="visible" id="glyph1-19">
<path style="stroke:none;" d="M -6.28125 -0.84375 L 0 -0.84375 L 0 -1.84375 L -3.46875 -1.84375 C -4.75 -1.84375 -5.59375 -2.515625 -5.59375 -3.546875 C -5.59375 -4.34375 -5.109375 -4.84375 -4.359375 -4.84375 L 0 -4.84375 L 0 -5.84375 L -4.75 -5.84375 C -5.796875 -5.84375 -6.46875 -5.0625 -6.46875 -3.859375 C -6.46875 -2.921875 -6.109375 -2.3125 -5.234375 -1.765625 L -6.28125 -1.765625 Z M -6.28125 -0.84375 "/>
</symbol>
<symbol overflow="visible" id="glyph1-20">
<path style="stroke:none;" d="M -3.765625 -2.234375 L -3.765625 -5.109375 C -3.765625 -6.109375 -3.28125 -6.546875 -2.203125 -6.546875 L -1.421875 -6.546875 C -0.890625 -6.546875 -0.359375 -6.640625 0 -6.796875 L 0 -8.140625 L -0.28125 -8.140625 C -0.5625 -7.734375 -0.875 -7.640625 -2.046875 -7.625 C -3.484375 -7.609375 -3.90625 -7.375 -4.3125 -6.4375 C -4.8125 -7.421875 -5.40625 -7.8125 -6.40625 -7.8125 C -7.921875 -7.8125 -8.75 -6.875 -8.75 -5.140625 L -8.75 -1.109375 L 0 -1.109375 L 0 -2.234375 Z M -4.75 -2.234375 L -7.765625 -2.234375 L -7.765625 -4.9375 C -7.765625 -5.5625 -7.671875 -5.921875 -7.421875 -6.1875 C -7.171875 -6.484375 -6.78125 -6.640625 -6.265625 -6.640625 C -5.21875 -6.640625 -4.75 -6.125 -4.75 -4.9375 Z M -4.75 -2.234375 "/>
</symbol>
<symbol overflow="visible" id="glyph1-21">
<path style="stroke:none;" d="M -2.8125 -6.15625 C -3.765625 -6.15625 -4.34375 -6.078125 -4.8125 -5.90625 C -5.84375 -5.5 -6.46875 -4.53125 -6.46875 -3.359375 C -6.46875 -1.609375 -5.140625 -0.484375 -3.0625 -0.484375 C -0.984375 -0.484375 0.28125 -1.5625 0.28125 -3.34375 C 0.28125 -4.78125 -0.546875 -5.765625 -1.90625 -6.03125 L -1.90625 -5.015625 C -1.078125 -4.734375 -0.640625 -4.171875 -0.640625 -3.375 C -0.640625 -2.734375 -0.9375 -2.203125 -1.46875 -1.859375 C -1.828125 -1.625 -2.1875 -1.53125 -2.8125 -1.53125 Z M -3.625 -1.546875 C -4.78125 -1.625 -5.546875 -2.34375 -5.546875 -3.34375 C -5.546875 -4.375 -4.75 -5.078125 -3.625 -5.078125 Z M -3.625 -1.546875 "/>
</symbol>
<symbol overflow="visible" id="glyph2-0">
<path style="stroke:none;" d=""/>
</symbol>
<symbol overflow="visible" id="glyph2-1">
<path style="stroke:none;" d="M 3.3125 -4.15625 L 5.796875 -4.15625 C 6.734375 -4.15625 7.125 -3.78125 7.125 -2.921875 L 7.125 -2.5 C 7.109375 -2.21875 7.109375 -1.953125 7.109375 -1.796875 C 7.109375 -0.8125 7.171875 -0.5 7.4375 0 L 9.75 0 L 9.75 -0.390625 C 9.421875 -0.578125 9.296875 -0.796875 9.296875 -1.25 C 9.234375 -4.34375 9.171875 -4.5 7.84375 -5.078125 C 9.015625 -5.53125 9.609375 -6.375 9.609375 -7.671875 C 9.609375 -8.5 9.328125 -9.265625 8.8125 -9.78125 C 8.34375 -10.265625 7.671875 -10.5 6.78125 -10.5 L 1.15625 -10.5 L 1.15625 0 L 3.3125 0 Z M 3.3125 -5.96875 L 3.3125 -8.703125 L 5.921875 -8.703125 C 6.546875 -8.703125 6.78125 -8.640625 7.0625 -8.421875 C 7.3125 -8.21875 7.453125 -7.84375 7.453125 -7.359375 C 7.453125 -6.859375 7.3125 -6.453125 7.0625 -6.234375 C 6.8125 -6.03125 6.546875 -5.96875 5.921875 -5.96875 Z M 3.3125 -5.96875 "/>
</symbol>
<symbol overflow="visible" id="glyph2-2">
<path style="stroke:none;" d="M 7.546875 -0.25 C 7.203125 -0.578125 7.09375 -0.8125 7.09375 -1.203125 L 7.09375 -5.515625 C 7.09375 -7.109375 6 -7.90625 3.90625 -7.90625 C 1.796875 -7.90625 0.703125 -7.015625 0.578125 -5.21875 L 2.515625 -5.21875 C 2.625 -6.015625 2.953125 -6.28125 3.953125 -6.28125 C 4.71875 -6.28125 5.109375 -6.015625 5.109375 -5.5 C 5.109375 -5.25 4.984375 -5.03125 4.765625 -4.890625 C 4.5 -4.75 4.5 -4.75 3.5 -4.59375 L 2.6875 -4.453125 C 1.15625 -4.1875 0.40625 -3.40625 0.40625 -2 C 0.40625 -0.609375 1.34375 0.328125 2.765625 0.328125 C 3.625 0.328125 4.40625 -0.03125 5.125 -0.78125 C 5.125 -0.375 5.171875 -0.234375 5.359375 0 L 7.546875 0 Z M 5.109375 -3.125 C 5.109375 -1.953125 4.53125 -1.296875 3.515625 -1.296875 C 2.84375 -1.296875 2.421875 -1.65625 2.421875 -2.234375 C 2.421875 -2.84375 2.734375 -3.125 3.578125 -3.296875 L 4.265625 -3.421875 C 4.796875 -3.53125 4.890625 -3.5625 5.109375 -3.671875 Z M 5.109375 -3.125 "/>
</symbol>
<symbol overflow="visible" id="glyph2-3">
<path style="stroke:none;" d="M 0.90625 -7.78125 L 0.90625 0 L 2.921875 0 L 2.921875 -4.671875 C 2.921875 -5.59375 3.5625 -6.1875 4.546875 -6.1875 C 5.421875 -6.1875 5.84375 -5.71875 5.84375 -4.796875 L 5.84375 0 L 7.859375 0 L 7.859375 -5.21875 C 7.859375 -6.9375 6.921875 -7.90625 5.265625 -7.90625 C 4.203125 -7.90625 3.5 -7.53125 2.921875 -6.65625 L 2.921875 -7.78125 Z M 0.90625 -7.78125 "/>
</symbol>
<symbol overflow="visible" id="glyph2-4">
<path style="stroke:none;" d="M 5.828125 0 L 7.84375 0 L 7.84375 -10.5 L 5.828125 -10.5 L 5.828125 -6.765625 C 5.328125 -7.546875 4.671875 -7.90625 3.6875 -7.90625 C 1.828125 -7.90625 0.421875 -6.125 0.421875 -3.78125 C 0.421875 -2.71875 0.734375 -1.65625 1.25 -0.90625 C 1.78125 -0.140625 2.734375 0.328125 3.6875 0.328125 C 4.671875 0.328125 5.328125 -0.015625 5.828125 -0.796875 Z M 4.140625 -6.21875 C 5.15625 -6.21875 5.828125 -5.25 5.828125 -3.75 C 5.828125 -2.328125 5.140625 -1.359375 4.140625 -1.359375 C 3.125 -1.359375 2.4375 -2.34375 2.4375 -3.78125 C 2.4375 -5.234375 3.125 -6.21875 4.140625 -6.21875 Z M 4.140625 -6.21875 "/>
</symbol>
<symbol overflow="visible" id="glyph2-5">
<path style="stroke:none;" d="M 4.34375 -7.90625 C 1.953125 -7.90625 0.5 -6.34375 0.5 -3.78125 C 0.5 -1.21875 1.953125 0.328125 4.34375 0.328125 C 6.734375 0.328125 8.203125 -1.21875 8.203125 -3.734375 C 8.203125 -6.375 6.765625 -7.90625 4.34375 -7.90625 Z M 4.34375 -6.28125 C 5.453125 -6.28125 6.1875 -5.28125 6.1875 -3.765625 C 6.1875 -2.3125 5.4375 -1.296875 4.34375 -1.296875 C 3.25 -1.296875 2.515625 -2.296875 2.515625 -3.78125 C 2.515625 -5.28125 3.25 -6.28125 4.34375 -6.28125 Z M 4.34375 -6.28125 "/>
</symbol>
<symbol overflow="visible" id="glyph2-6">
<path style="stroke:none;" d="M 0.859375 -7.78125 L 0.859375 0 L 2.875 0 L 2.875 -4.671875 C 2.875 -5.640625 3.40625 -6.1875 4.265625 -6.1875 C 4.9375 -6.1875 5.359375 -5.8125 5.359375 -5.1875 L 5.359375 0 L 7.375 0 L 7.375 -4.671875 C 7.375 -5.625 7.890625 -6.1875 8.765625 -6.1875 C 9.4375 -6.1875 9.859375 -5.8125 9.859375 -5.1875 L 9.859375 0 L 11.875 0 L 11.875 -5.5 C 11.875 -7.015625 10.953125 -7.90625 9.390625 -7.90625 C 8.40625 -7.90625 7.71875 -7.5625 7.109375 -6.75 C 6.734375 -7.484375 5.96875 -7.90625 5 -7.90625 C 4.109375 -7.90625 3.53125 -7.625 2.859375 -6.8125 L 2.859375 -7.78125 Z M 0.859375 -7.78125 "/>
</symbol>
<symbol overflow="visible" id="glyph2-7">
<path style="stroke:none;" d=""/>
</symbol>
<symbol overflow="visible" id="glyph2-8">
<path style="stroke:none;" d="M 3.234375 -4.53125 L 7.828125 -4.53125 L 7.828125 -6.328125 L 3.234375 -6.328125 L 3.234375 -8.703125 L 8.4375 -8.703125 L 8.4375 -10.5 L 1.0625 -10.5 L 1.0625 0 L 3.234375 0 Z M 3.234375 -4.53125 "/>
</symbol>
<symbol overflow="visible" id="glyph2-9">
<path style="stroke:none;" d="M 0.90625 -7.78125 L 0.90625 0 L 2.921875 0 L 2.921875 -4.140625 C 2.921875 -5.3125 3.515625 -5.90625 4.703125 -5.90625 C 4.90625 -5.90625 5.0625 -5.890625 5.328125 -5.84375 L 5.328125 -7.890625 C 5.21875 -7.90625 5.171875 -7.90625 5.078125 -7.90625 C 4.15625 -7.90625 3.375 -7.296875 2.921875 -6.25 L 2.921875 -7.78125 Z M 0.90625 -7.78125 "/>
</symbol>
<symbol overflow="visible" id="glyph2-10">
<path style="stroke:none;" d="M 7.546875 -3.25 C 7.5625 -3.421875 7.5625 -3.5 7.5625 -3.59375 C 7.5625 -4.375 7.453125 -5.09375 7.265625 -5.640625 C 6.734375 -7.0625 5.484375 -7.90625 3.921875 -7.90625 C 1.6875 -7.90625 0.3125 -6.296875 0.3125 -3.6875 C 0.3125 -1.203125 1.671875 0.328125 3.875 0.328125 C 5.625 0.328125 7.03125 -0.640625 7.484375 -2.1875 L 5.484375 -2.1875 C 5.25 -1.5625 4.6875 -1.203125 3.953125 -1.203125 C 3.375 -1.203125 2.90625 -1.453125 2.625 -1.890625 C 2.4375 -2.171875 2.359375 -2.515625 2.328125 -3.25 Z M 2.359375 -4.59375 C 2.5 -5.796875 3 -6.375 3.890625 -6.375 C 4.8125 -6.375 5.359375 -5.75 5.453125 -4.59375 Z M 2.359375 -4.59375 "/>
</symbol>
<symbol overflow="visible" id="glyph2-11">
<path style="stroke:none;" d="M 7.28125 -5.265625 C 7.25 -6.921875 5.984375 -7.90625 3.890625 -7.90625 C 1.921875 -7.90625 0.6875 -6.921875 0.6875 -5.3125 C 0.6875 -4.796875 0.84375 -4.34375 1.125 -4.046875 C 1.390625 -3.78125 1.640625 -3.640625 2.390625 -3.40625 L 4.796875 -2.65625 C 5.296875 -2.5 5.46875 -2.328125 5.46875 -2.015625 C 5.46875 -1.546875 4.90625 -1.25 3.96875 -1.25 C 3.4375 -1.25 3.046875 -1.34375 2.78125 -1.53125 C 2.5625 -1.6875 2.484375 -1.84375 2.390625 -2.265625 L 0.421875 -2.265625 C 0.46875 -0.546875 1.734375 0.328125 4.09375 0.328125 C 5.171875 0.328125 6 0.09375 6.5625 -0.359375 C 7.140625 -0.828125 7.484375 -1.546875 7.484375 -2.3125 C 7.484375 -3.3125 6.984375 -3.96875 5.96875 -4.265625 L 3.421875 -5 C 2.859375 -5.171875 2.703125 -5.28125 2.703125 -5.609375 C 2.703125 -6.03125 3.171875 -6.328125 3.875 -6.328125 C 4.84375 -6.328125 5.3125 -5.984375 5.328125 -5.265625 Z M 7.28125 -5.265625 "/>
</symbol>
<symbol overflow="visible" id="glyph2-12">
<path style="stroke:none;" d="M 4.34375 -7.625 L 3.21875 -7.625 L 3.21875 -9.703125 L 1.203125 -9.703125 L 1.203125 -7.625 L 0.203125 -7.625 L 0.203125 -6.28125 L 1.203125 -6.28125 L 1.203125 -1.5 C 1.203125 -0.28125 1.84375 0.328125 3.171875 0.328125 C 3.625 0.328125 3.96875 0.28125 4.34375 0.171875 L 4.34375 -1.234375 C 4.140625 -1.203125 4.03125 -1.203125 3.875 -1.203125 C 3.34375 -1.203125 3.21875 -1.359375 3.21875 -2.046875 L 3.21875 -6.28125 L 4.34375 -6.28125 Z M 4.34375 -7.625 "/>
</symbol>
<symbol overflow="visible" id="glyph2-13">
<path style="stroke:none;" d="M 5.625 -10.671875 C 4.15625 -10.671875 2.9375 -10.1875 2.046875 -9.21875 C 1.109375 -8.21875 0.578125 -6.734375 0.578125 -5.171875 C 0.578125 -3.59375 1.109375 -2.125 2.046875 -1.125 C 2.953125 -0.140625 4.140625 0.328125 5.640625 0.328125 C 7.125 0.328125 8.3125 -0.140625 9.21875 -1.125 C 10.125 -2.09375 10.6875 -3.609375 10.6875 -5.09375 C 10.6875 -6.734375 10.15625 -8.21875 9.21875 -9.21875 C 8.296875 -10.21875 7.140625 -10.671875 5.625 -10.671875 Z M 5.640625 -8.828125 C 7.40625 -8.828125 8.53125 -7.390625 8.53125 -5.109375 C 8.53125 -2.953125 7.359375 -1.515625 5.640625 -1.515625 C 3.875 -1.515625 2.734375 -2.953125 2.734375 -5.171875 C 2.734375 -7.390625 3.875 -8.828125 5.640625 -8.828125 Z M 5.640625 -8.828125 "/>
</symbol>
<symbol overflow="visible" id="glyph2-14">
<path style="stroke:none;" d="M 1.1875 0 L 5.90625 0 C 7.109375 0 7.921875 -0.234375 8.5625 -0.765625 C 9.1875 -1.296875 9.59375 -2.171875 9.59375 -3.03125 C 9.59375 -4.0625 9.046875 -4.890625 7.84375 -5.578125 C 8.890625 -6.234375 9.296875 -6.84375 9.296875 -7.734375 C 9.296875 -8.46875 8.9375 -9.21875 8.34375 -9.734375 C 7.71875 -10.265625 6.984375 -10.5 5.859375 -10.5 L 1.1875 -10.5 Z M 3.34375 -8.703125 L 5.6875 -8.703125 C 6.703125 -8.703125 7.21875 -8.296875 7.21875 -7.515625 C 7.21875 -6.734375 6.703125 -6.328125 5.6875 -6.328125 L 3.34375 -6.328125 Z M 3.34375 -4.53125 L 5.921875 -4.53125 C 6.96875 -4.53125 7.515625 -4.0625 7.515625 -3.15625 C 7.515625 -2.265625 6.96875 -1.796875 5.921875 -1.796875 L 3.34375 -1.796875 Z M 3.34375 -4.53125 "/>
</symbol>
<symbol overflow="visible" id="glyph2-15">
<path style="stroke:none;" d="M 3.296875 -4.53125 L 8.328125 -4.53125 L 8.328125 -6.328125 L 3.296875 -6.328125 L 3.296875 -8.703125 L 8.734375 -8.703125 L 8.734375 -10.5 L 1.140625 -10.5 L 1.140625 0 L 8.984375 0 L 8.984375 -1.796875 L 3.296875 -1.796875 Z M 3.296875 -4.53125 "/>
</symbol>
<symbol overflow="visible" id="glyph2-16">
<path style="stroke:none;" d="M 0.84375 -10.5 L 0.84375 0 L 2.859375 0 L 2.859375 -0.796875 C 3.359375 -0.03125 4.03125 0.328125 5.015625 0.328125 C 6.875 0.328125 8.28125 -1.4375 8.28125 -3.78125 C 8.28125 -4.84375 7.96875 -5.90625 7.453125 -6.65625 C 6.921875 -7.421875 5.96875 -7.90625 5.015625 -7.90625 C 4.03125 -7.90625 3.359375 -7.546875 2.859375 -6.765625 L 2.859375 -10.5 Z M 4.5625 -6.21875 C 5.5625 -6.21875 6.265625 -5.21875 6.265625 -3.78125 C 6.265625 -2.34375 5.578125 -1.359375 4.5625 -1.359375 C 3.546875 -1.359375 2.859375 -2.3125 2.859375 -3.8125 C 2.859375 -5.25 3.5625 -6.21875 4.5625 -6.21875 Z M 4.5625 -6.21875 "/>
</symbol>
<symbol overflow="visible" id="glyph2-17">
<path style="stroke:none;" d="M 5.671875 -7.78125 L 4.0625 -2.125 L 2.34375 -7.78125 L 0.125 -7.78125 L 3.03125 0.3125 C 3.03125 1.125 2.515625 1.671875 1.765625 1.671875 C 1.609375 1.671875 1.484375 1.640625 1.234375 1.578125 L 1.234375 3.09375 C 1.546875 3.140625 1.71875 3.15625 1.953125 3.15625 C 2.484375 3.15625 3.046875 3.046875 3.421875 2.90625 C 3.96875 2.671875 4.21875 2.359375 4.546875 1.421875 L 7.75 -7.78125 Z M 5.671875 -7.78125 "/>
</symbol>
<symbol overflow="visible" id="glyph2-18">
<path style="stroke:none;" d="M 2.109375 0.46875 L 2.671875 -2.484375 L 4.15625 -2.484375 L 3.59375 0.46875 L 5.09375 0.46875 L 5.671875 -2.484375 L 7.390625 -2.484375 L 7.390625 -3.90625 L 5.953125 -3.90625 L 6.390625 -6.109375 L 7.96875 -6.109375 L 7.96875 -7.53125 L 6.671875 -7.53125 L 7.15625 -10.046875 L 5.640625 -10.046875 L 5.15625 -7.53125 L 3.671875 -7.53125 L 4.15625 -10.046875 L 2.65625 -10.046875 L 2.15625 -7.53125 L 0.453125 -7.53125 L 0.453125 -6.109375 L 1.875 -6.109375 L 1.4375 -3.90625 L 0.046875 -3.90625 L 0.046875 -2.484375 L 1.15625 -2.484375 L 0.578125 0.46875 Z M 2.953125 -3.90625 L 3.390625 -6.109375 L 4.875 -6.109375 L 4.4375 -3.90625 Z M 2.953125 -3.90625 "/>
</symbol>
<symbol overflow="visible" id="glyph2-19">
<path style="stroke:none;" d="M 4.515625 -7.625 L 3.3125 -7.625 L 3.3125 -8.390625 C 3.3125 -8.78125 3.484375 -8.984375 3.859375 -8.984375 C 4.046875 -8.984375 4.234375 -8.96875 4.4375 -8.953125 L 4.4375 -10.453125 C 4 -10.484375 3.59375 -10.5 3.28125 -10.5 C 1.9375 -10.5 1.296875 -9.875 1.296875 -8.5625 L 1.296875 -7.625 L 0.203125 -7.625 L 0.203125 -6.28125 L 1.296875 -6.28125 L 1.296875 0 L 3.3125 0 L 3.3125 -6.28125 L 4.515625 -6.28125 Z M 4.515625 -7.625 "/>
</symbol>
<symbol overflow="visible" id="glyph2-20">
<path style="stroke:none;" d="M 5.546875 -8.703125 L 8.609375 -8.703125 L 8.609375 -10.5 L 0.203125 -10.5 L 0.203125 -8.703125 L 3.390625 -8.703125 L 3.390625 0 L 5.546875 0 Z M 5.546875 -8.703125 "/>
</symbol>
</g>
</defs>
<g id="surface3367">
<rect x="0" y="0" width="504" height="504" style="fill:rgb(100%,100%,100%);fill-opacity:1;stroke:none;"/>
<path style="fill:none;stroke-width:0.75;stroke-linecap:round;stroke-linejoin:round;stroke:rgb(0%,0%,0%);stroke-opacity:1;stroke-miterlimit:10;" d="M 75.019531 79.972656 L 85.074219 196.109375 "/>
<path style="fill:none;stroke-width:0.75;stroke-linecap:round;stroke-linejoin:round;stroke:rgb(0%,0%,0%);stroke-opacity:1;stroke-miterlimit:10;" d="M 90.660156 208.496094 L 92.023438 209.929688 "/>
<path style="fill:none;stroke-width:0.75;stroke-linecap:round;stroke-linejoin:round;stroke:rgb(0%,0%,0%);stroke-opacity:1;stroke-miterlimit:10;" d="M 99.167969 222.007812 L 106.105469 243.867188 "/>
<path style="fill:none;stroke-width:0.75;stroke-linecap:round;stroke-linejoin:round;stroke:rgb(0%,0%,0%);stroke-opacity:1;stroke-miterlimit:10;" d="M 109.410156 243.621094 L 118.449219 186.667969 "/>
<path style="fill:none;stroke-width:0.75;stroke-linecap:round;stroke-linejoin:round;stroke:rgb(0%,0%,0%);stroke-opacity:1;stroke-miterlimit:10;" d="M 121.242188 172.554688 L 129.203125 139.113281 "/>
<path style="fill:none;stroke-width:0.75;stroke-linecap:round;stroke-linejoin:round;stroke:rgb(0%,0%,0%);stroke-opacity:1;stroke-miterlimit:10;" d="M 131.195312 139.304688 L 141.839844 374.019531 "/>
<path style="fill:none;stroke-width:0.75;stroke-linecap:round;stroke-linejoin:round;stroke:rgb(0%,0%,0%);stroke-opacity:1;stroke-miterlimit:10;" d="M 142.691406 374.03125 L 152.933594 234.1875 "/>
<path style="fill:none;stroke-width:0.75;stroke-linecap:round;stroke-linejoin:round;stroke:rgb(0%,0%,0%);stroke-opacity:1;stroke-miterlimit:10;" d="M 154.585938 234.117188 L 163.625 291.066406 "/>
<path style="fill:none;stroke-width:0.75;stroke-linecap:round;stroke-linejoin:round;stroke:rgb(0%,0%,0%);stroke-opacity:1;stroke-miterlimit:10;" d="M 167.847656 304.679688 L 172.953125 315.402344 "/>
<path style="fill:none;stroke-width:0.75;stroke-linecap:round;stroke-linejoin:round;stroke:rgb(0%,0%,0%);stroke-opacity:1;stroke-miterlimit:10;" d="M 177.394531 314.832031 L 185.996094 269.664062 "/>
<path style="fill:none;stroke-width:0.75;stroke-linecap:round;stroke-linejoin:round;stroke:rgb(0%,0%,0%);stroke-opacity:1;stroke-miterlimit:10;" d="M 188.46875 255.480469 L 197.507812 198.53125 "/>
<path style="fill:none;stroke-width:0.75;stroke-linecap:round;stroke-linejoin:round;stroke:rgb(0%,0%,0%);stroke-opacity:1;stroke-miterlimit:10;" d="M 203.601562 196.636719 L 204.964844 198.066406 "/>
<path style="fill:none;stroke-width:0.75;stroke-linecap:round;stroke-linejoin:round;stroke:rgb(0%,0%,0%);stroke-opacity:1;stroke-miterlimit:10;" d="M 211.277344 210.355469 L 219.875 255.519531 "/>
<path style="fill:none;stroke-width:0.75;stroke-linecap:round;stroke-linejoin:round;stroke:rgb(0%,0%,0%);stroke-opacity:1;stroke-miterlimit:10;" d="M 222.890625 255.589844 L 230.851562 222.148438 "/>
<path style="fill:none;stroke-width:0.75;stroke-linecap:round;stroke-linejoin:round;stroke:rgb(0%,0%,0%);stroke-opacity:1;stroke-miterlimit:10;" d="M 234.183594 222.148438 L 242.144531 255.589844 "/>
<path style="fill:none;stroke-width:0.75;stroke-linecap:round;stroke-linejoin:round;stroke:rgb(0%,0%,0%);stroke-opacity:1;stroke-miterlimit:10;" d="M 244.496094 255.425781 L 254.421875 151.140625 "/>
<path style="fill:none;stroke-width:0.75;stroke-linecap:round;stroke-linejoin:round;stroke:rgb(0%,0%,0%);stroke-opacity:1;stroke-miterlimit:10;" d="M 255.789062 151.140625 L 265.71875 255.425781 "/>
<path style="fill:none;stroke-width:0.75;stroke-linecap:round;stroke-linejoin:round;stroke:rgb(0%,0%,0%);stroke-opacity:1;stroke-miterlimit:10;" d="M 267.527344 269.703125 L 276.566406 326.65625 "/>
<path style="fill:none;stroke-width:0.75;stroke-linecap:round;stroke-linejoin:round;stroke:rgb(0%,0%,0%);stroke-opacity:1;stroke-miterlimit:10;" d="M 280.789062 327.265625 L 285.894531 316.542969 "/>
<path style="fill:none;stroke-width:0.75;stroke-linecap:round;stroke-linejoin:round;stroke:rgb(0%,0%,0%);stroke-opacity:1;stroke-miterlimit:10;" d="M 293.953125 304.828125 L 295.316406 303.394531 "/>
<path style="fill:none;stroke-width:0.75;stroke-linecap:round;stroke-linejoin:round;stroke:rgb(0%,0%,0%);stroke-opacity:1;stroke-miterlimit:10;" d="M 301.628906 291.105469 L 310.230469 245.941406 "/>
<path style="fill:none;stroke-width:0.75;stroke-linecap:round;stroke-linejoin:round;stroke:rgb(0%,0%,0%);stroke-opacity:1;stroke-miterlimit:10;" d="M 312.703125 245.980469 L 321.742188 302.929688 "/>
<path style="fill:none;stroke-width:0.75;stroke-linecap:round;stroke-linejoin:round;stroke:rgb(0%,0%,0%);stroke-opacity:1;stroke-miterlimit:10;" d="M 325.964844 303.539062 L 331.070312 292.816406 "/>
<path style="fill:none;stroke-width:0.75;stroke-linecap:round;stroke-linejoin:round;stroke:rgb(0%,0%,0%);stroke-opacity:1;stroke-miterlimit:10;" d="M 334.785156 293.492188 L 344.839844 409.625 "/>
<path style="fill:none;stroke-width:0.75;stroke-linecap:round;stroke-linejoin:round;stroke:rgb(0%,0%,0%);stroke-opacity:1;stroke-miterlimit:10;" d="M 346.078125 409.625 L 356.132812 293.492188 "/>
<path style="fill:none;stroke-width:0.75;stroke-linecap:round;stroke-linejoin:round;stroke:rgb(0%,0%,0%);stroke-opacity:1;stroke-miterlimit:10;" d="M 357.882812 279.207031 L 366.917969 222.253906 "/>
<path style="fill:none;stroke-width:0.75;stroke-linecap:round;stroke-linejoin:round;stroke:rgb(0%,0%,0%);stroke-opacity:1;stroke-miterlimit:10;" d="M 370.226562 222.007812 L 377.164062 243.867188 "/>
<path style="fill:none;stroke-width:0.75;stroke-linecap:round;stroke-linejoin:round;stroke:rgb(0%,0%,0%);stroke-opacity:1;stroke-miterlimit:10;" d="M 391.484375 257.878906 L 401.078125 338.476562 "/>
<path style="fill:none;stroke-width:0.75;stroke-linecap:round;stroke-linejoin:round;stroke:rgb(0%,0%,0%);stroke-opacity:1;stroke-miterlimit:10;" d="M 402.898438 338.492188 L 412.253906 269.726562 "/>
<path style="fill:none;stroke-width:0.75;stroke-linecap:round;stroke-linejoin:round;stroke:rgb(0%,0%,0%);stroke-opacity:1;stroke-miterlimit:10;" d="M 416.320312 269.09375 L 421.421875 279.816406 "/>
<path style="fill:none;stroke-width:0.75;stroke-linecap:round;stroke-linejoin:round;stroke:rgb(0%,0%,0%);stroke-opacity:1;stroke-miterlimit:10;" d="M 427.613281 292.816406 L 432.71875 303.539062 "/>
<path style="fill:none;stroke-width:0.75;stroke-linecap:round;stroke-linejoin:round;stroke:rgb(0%,0%,0%);stroke-opacity:1;stroke-miterlimit:10;" d="M 440.777344 315.253906 L 442.140625 316.6875 "/>
<path style="fill:none;stroke-width:0.75;stroke-linecap:round;stroke-linejoin:round;stroke:rgb(0%,0%,0%);stroke-opacity:1;stroke-miterlimit:10;" d="M 448.234375 314.792969 L 457.273438 257.84375 "/>
<path style=" stroke:none;fill-rule:nonzero;fill:rgb(0%,0%,0%);fill-opacity:1;" d="M 77.101562 72.800781 C 77.101562 76.398438 71.699219 76.398438 71.699219 72.800781 C 71.699219 69.199219 77.101562 69.199219 77.101562 72.800781 "/>
<path style=" stroke:none;fill-rule:nonzero;fill:rgb(0%,0%,0%);fill-opacity:1;" d="M 88.394531 203.28125 C 88.394531 206.882812 82.992188 206.882812 82.992188 203.28125 C 82.992188 199.683594 88.394531 199.683594 88.394531 203.28125 "/>
<path style=" stroke:none;fill-rule:nonzero;fill:rgb(0%,0%,0%);fill-opacity:1;" d="M 99.6875 215.144531 C 99.6875 218.746094 94.289062 218.746094 94.289062 215.144531 C 94.289062 211.542969 99.6875 211.542969 99.6875 215.144531 "/>
<path style=" stroke:none;fill-rule:nonzero;fill:rgb(0%,0%,0%);fill-opacity:1;" d="M 110.980469 250.730469 C 110.980469 254.332031 105.582031 254.332031 105.582031 250.730469 C 105.582031 247.132812 110.980469 247.132812 110.980469 250.730469 "/>
<path style=" stroke:none;fill-rule:nonzero;fill:rgb(0%,0%,0%);fill-opacity:1;" d="M 122.277344 179.558594 C 122.277344 183.160156 116.875 183.160156 116.875 179.558594 C 116.875 175.957031 122.277344 175.957031 122.277344 179.558594 "/>
<path style=" stroke:none;fill-rule:nonzero;fill:rgb(0%,0%,0%);fill-opacity:1;" d="M 133.570312 132.109375 C 133.570312 135.710938 128.171875 135.710938 128.171875 132.109375 C 128.171875 128.511719 133.570312 128.511719 133.570312 132.109375 "/>
<path style=" stroke:none;fill-rule:nonzero;fill:rgb(0%,0%,0%);fill-opacity:1;" d="M 144.863281 381.214844 C 144.863281 384.8125 139.464844 384.8125 139.464844 381.214844 C 139.464844 377.613281 144.863281 377.613281 144.863281 381.214844 "/>
<path style=" stroke:none;fill-rule:nonzero;fill:rgb(0%,0%,0%);fill-opacity:1;" d="M 156.160156 227.007812 C 156.160156 230.605469 150.757812 230.605469 150.757812 227.007812 C 150.757812 223.40625 156.160156 223.40625 156.160156 227.007812 "/>
<path style=" stroke:none;fill-rule:nonzero;fill:rgb(0%,0%,0%);fill-opacity:1;" d="M 167.453125 298.179688 C 167.453125 301.78125 162.054688 301.78125 162.054688 298.179688 C 162.054688 294.578125 167.453125 294.578125 167.453125 298.179688 "/>
<path style=" stroke:none;fill-rule:nonzero;fill:rgb(0%,0%,0%);fill-opacity:1;" d="M 178.746094 321.902344 C 178.746094 325.503906 173.347656 325.503906 173.347656 321.902344 C 173.347656 318.304688 178.746094 318.304688 178.746094 321.902344 "/>
<path style=" stroke:none;fill-rule:nonzero;fill:rgb(0%,0%,0%);fill-opacity:1;" d="M 190.042969 262.59375 C 190.042969 266.191406 184.640625 266.191406 184.640625 262.59375 C 184.640625 258.992188 190.042969 258.992188 190.042969 262.59375 "/>
<path style=" stroke:none;fill-rule:nonzero;fill:rgb(0%,0%,0%);fill-opacity:1;" d="M 201.335938 191.421875 C 201.335938 195.019531 195.933594 195.019531 195.933594 191.421875 C 195.933594 187.820312 201.335938 187.820312 201.335938 191.421875 "/>
<path style=" stroke:none;fill-rule:nonzero;fill:rgb(0%,0%,0%);fill-opacity:1;" d="M 212.628906 203.28125 C 212.628906 206.882812 207.230469 206.882812 207.230469 203.28125 C 207.230469 199.683594 212.628906 199.683594 212.628906 203.28125 "/>
<path style=" stroke:none;fill-rule:nonzero;fill:rgb(0%,0%,0%);fill-opacity:1;" d="M 223.921875 262.59375 C 223.921875 266.191406 218.523438 266.191406 218.523438 262.59375 C 218.523438 258.992188 223.921875 258.992188 223.921875 262.59375 "/>
<path style=" stroke:none;fill-rule:nonzero;fill:rgb(0%,0%,0%);fill-opacity:1;" d="M 235.21875 215.144531 C 235.21875 218.746094 229.816406 218.746094 229.816406 215.144531 C 229.816406 211.542969 235.21875 211.542969 235.21875 215.144531 "/>
<path style=" stroke:none;fill-rule:nonzero;fill:rgb(0%,0%,0%);fill-opacity:1;" d="M 246.511719 262.59375 C 246.511719 266.191406 241.113281 266.191406 241.113281 262.59375 C 241.113281 258.992188 246.511719 258.992188 246.511719 262.59375 "/>
<path style=" stroke:none;fill-rule:nonzero;fill:rgb(0%,0%,0%);fill-opacity:1;" d="M 257.804688 143.972656 C 257.804688 147.574219 252.40625 147.574219 252.40625 143.972656 C 252.40625 140.371094 257.804688 140.371094 257.804688 143.972656 "/>
<path style=" stroke:none;fill-rule:nonzero;fill:rgb(0%,0%,0%);fill-opacity:1;" d="M 269.101562 262.59375 C 269.101562 266.191406 263.699219 266.191406 263.699219 262.59375 C 263.699219 258.992188 269.101562 258.992188 269.101562 262.59375 "/>
<path style=" stroke:none;fill-rule:nonzero;fill:rgb(0%,0%,0%);fill-opacity:1;" d="M 280.394531 333.765625 C 280.394531 337.367188 274.992188 337.367188 274.992188 333.765625 C 274.992188 330.164062 280.394531 330.164062 280.394531 333.765625 "/>
<path style=" stroke:none;fill-rule:nonzero;fill:rgb(0%,0%,0%);fill-opacity:1;" d="M 291.6875 310.042969 C 291.6875 313.640625 286.289062 313.640625 286.289062 310.042969 C 286.289062 306.441406 291.6875 306.441406 291.6875 310.042969 "/>
<path style=" stroke:none;fill-rule:nonzero;fill:rgb(0%,0%,0%);fill-opacity:1;" d="M 302.980469 298.179688 C 302.980469 301.78125 297.582031 301.78125 297.582031 298.179688 C 297.582031 294.578125 302.980469 294.578125 302.980469 298.179688 "/>
<path style=" stroke:none;fill-rule:nonzero;fill:rgb(0%,0%,0%);fill-opacity:1;" d="M 314.277344 238.867188 C 314.277344 242.46875 308.875 242.46875 308.875 238.867188 C 308.875 235.269531 314.277344 235.269531 314.277344 238.867188 "/>
<path style=" stroke:none;fill-rule:nonzero;fill:rgb(0%,0%,0%);fill-opacity:1;" d="M 325.570312 310.042969 C 325.570312 313.640625 320.171875 313.640625 320.171875 310.042969 C 320.171875 306.441406 325.570312 306.441406 325.570312 310.042969 "/>
<path style=" stroke:none;fill-rule:nonzero;fill:rgb(0%,0%,0%);fill-opacity:1;" d="M 336.863281 286.316406 C 336.863281 289.917969 331.464844 289.917969 331.464844 286.316406 C 331.464844 282.71875 336.863281 282.71875 336.863281 286.316406 "/>
<path style=" stroke:none;fill-rule:nonzero;fill:rgb(0%,0%,0%);fill-opacity:1;" d="M 348.160156 416.800781 C 348.160156 420.398438 342.757812 420.398438 342.757812 416.800781 C 342.757812 413.199219 348.160156 413.199219 348.160156 416.800781 "/>
<path style=" stroke:none;fill-rule:nonzero;fill:rgb(0%,0%,0%);fill-opacity:1;" d="M 359.453125 286.316406 C 359.453125 289.917969 354.054688 289.917969 354.054688 286.316406 C 354.054688 282.71875 359.453125 282.71875 359.453125 286.316406 "/>
<path style=" stroke:none;fill-rule:nonzero;fill:rgb(0%,0%,0%);fill-opacity:1;" d="M 370.746094 215.144531 C 370.746094 218.746094 365.347656 218.746094 365.347656 215.144531 C 365.347656 211.542969 370.746094 211.542969 370.746094 215.144531 "/>
<path style=" stroke:none;fill-rule:nonzero;fill:rgb(0%,0%,0%);fill-opacity:1;" d="M 382.042969 250.730469 C 382.042969 254.332031 376.640625 254.332031 376.640625 250.730469 C 376.640625 247.132812 382.042969 247.132812 382.042969 250.730469 "/>
<path style=" stroke:none;fill-rule:nonzero;fill:rgb(0%,0%,0%);fill-opacity:1;" d="M 393.335938 250.730469 C 393.335938 254.332031 387.933594 254.332031 387.933594 250.730469 C 387.933594 247.132812 393.335938 247.132812 393.335938 250.730469 "/>
<path style=" stroke:none;fill-rule:nonzero;fill:rgb(0%,0%,0%);fill-opacity:1;" d="M 404.628906 345.628906 C 404.628906 349.226562 399.230469 349.226562 399.230469 345.628906 C 399.230469 342.027344 404.628906 342.027344 404.628906 345.628906 "/>
<path style=" stroke:none;fill-rule:nonzero;fill:rgb(0%,0%,0%);fill-opacity:1;" d="M 415.921875 262.59375 C 415.921875 266.191406 410.523438 266.191406 410.523438 262.59375 C 410.523438 258.992188 415.921875 258.992188 415.921875 262.59375 "/>
<path style=" stroke:none;fill-rule:nonzero;fill:rgb(0%,0%,0%);fill-opacity:1;" d="M 427.21875 286.316406 C 427.21875 289.917969 421.816406 289.917969 421.816406 286.316406 C 421.816406 282.71875 427.21875 282.71875 427.21875 286.316406 "/>
<path style=" stroke:none;fill-rule:nonzero;fill:rgb(0%,0%,0%);fill-opacity:1;" d="M 438.511719 310.042969 C 438.511719 313.640625 433.113281 313.640625 433.113281 310.042969 C 433.113281 306.441406 438.511719 306.441406 438.511719 310.042969 "/>
<path style=" stroke:none;fill-rule:nonzero;fill:rgb(0%,0%,0%);fill-opacity:1;" d="M 449.804688 321.902344 C 449.804688 325.503906 444.40625 325.503906 444.40625 321.902344 C 444.40625 318.304688 449.804688 318.304688 449.804688 321.902344 "/>
<path style=" stroke:none;fill-rule:nonzero;fill:rgb(0%,0%,0%);fill-opacity:1;" d="M 461.101562 250.730469 C 461.101562 254.332031 455.699219 254.332031 455.699219 250.730469 C 455.699219 247.132812 461.101562 247.132812 461.101562 250.730469 "/>
<path style="fill:none;stroke-width:0.75;stroke-linecap:round;stroke-linejoin:round;stroke:rgb(0%,0%,0%);stroke-opacity:1;stroke-miterlimit:10;" d="M 63.105469 430.558594 L 458.398438 430.558594 "/>
<path style="fill:none;stroke-width:0.75;stroke-linecap:round;stroke-linejoin:round;stroke:rgb(0%,0%,0%);stroke-opacity:1;stroke-miterlimit:10;" d="M 63.105469 430.558594 L 63.105469 437.761719 "/>
<path style="fill:none;stroke-width:0.75;stroke-linecap:round;stroke-linejoin:round;stroke:rgb(0%,0%,0%);stroke-opacity:1;stroke-miterlimit:10;" d="M 119.578125 430.558594 L 119.578125 437.761719 "/>
<path style="fill:none;stroke-width:0.75;stroke-linecap:round;stroke-linejoin:round;stroke:rgb(0%,0%,0%);stroke-opacity:1;stroke-miterlimit:10;" d="M 176.046875 430.558594 L 176.046875 437.761719 "/>
<path style="fill:none;stroke-width:0.75;stroke-linecap:round;stroke-linejoin:round;stroke:rgb(0%,0%,0%);stroke-opacity:1;stroke-miterlimit:10;" d="M 232.519531 430.558594 L 232.519531 437.761719 "/>
<path style="fill:none;stroke-width:0.75;stroke-linecap:round;stroke-linejoin:round;stroke:rgb(0%,0%,0%);stroke-opacity:1;stroke-miterlimit:10;" d="M 288.988281 430.558594 L 288.988281 437.761719 "/>
<path style="fill:none;stroke-width:0.75;stroke-linecap:round;stroke-linejoin:round;stroke:rgb(0%,0%,0%);stroke-opacity:1;stroke-miterlimit:10;" d="M 345.457031 430.558594 L 345.457031 437.761719 "/>
<path style="fill:none;stroke-width:0.75;stroke-linecap:round;stroke-linejoin:round;stroke:rgb(0%,0%,0%);stroke-opacity:1;stroke-miterlimit:10;" d="M 401.929688 430.558594 L 401.929688 437.761719 "/>
<path style="fill:none;stroke-width:0.75;stroke-linecap:round;stroke-linejoin:round;stroke:rgb(0%,0%,0%);stroke-opacity:1;stroke-miterlimit:10;" d="M 458.398438 430.558594 L 458.398438 437.761719 "/>
<g style="fill:rgb(0%,0%,0%);fill-opacity:1;">
  <use xlink:href="#glyph0-1" x="59.605469" y="456.228516"/>
</g>
<g style="fill:rgb(0%,0%,0%);fill-opacity:1;">
  <use xlink:href="#glyph0-2" x="109.078125" y="456.228516"/>
  <use xlink:href="#glyph0-1" x="115.75" y="456.228516"/>
  <use xlink:href="#glyph0-1" x="122.421875" y="456.228516"/>
</g>
<g style="fill:rgb(0%,0%,0%);fill-opacity:1;">
  <use xlink:href="#glyph0-3" x="162.546875" y="456.228516"/>
  <use xlink:href="#glyph0-1" x="169.21875" y="456.228516"/>
  <use xlink:href="#glyph0-1" x="175.890625" y="456.228516"/>
  <use xlink:href="#glyph0-1" x="182.5625" y="456.228516"/>
</g>
<g style="fill:rgb(0%,0%,0%);fill-opacity:1;">
  <use xlink:href="#glyph0-3" x="219.019531" y="456.228516"/>
  <use xlink:href="#glyph0-2" x="225.691406" y="456.228516"/>
  <use xlink:href="#glyph0-1" x="232.363281" y="456.228516"/>
  <use xlink:href="#glyph0-1" x="239.035156" y="456.228516"/>
</g>
<g style="fill:rgb(0%,0%,0%);fill-opacity:1;">
  <use xlink:href="#glyph0-4" x="275.488281" y="456.228516"/>
  <use xlink:href="#glyph0-1" x="282.160156" y="456.228516"/>
  <use xlink:href="#glyph0-1" x="288.832031" y="456.228516"/>
  <use xlink:href="#glyph0-1" x="295.503906" y="456.228516"/>
</g>
<g style="fill:rgb(0%,0%,0%);fill-opacity:1;">
  <use xlink:href="#glyph0-4" x="331.957031" y="456.228516"/>
  <use xlink:href="#glyph0-2" x="338.628906" y="456.228516"/>
  <use xlink:href="#glyph0-1" x="345.300781" y="456.228516"/>
  <use xlink:href="#glyph0-1" x="351.972656" y="456.228516"/>
</g>
<g style="fill:rgb(0%,0%,0%);fill-opacity:1;">
  <use xlink:href="#glyph0-5" x="388.429688" y="456.228516"/>
  <use xlink:href="#glyph0-1" x="395.101562" y="456.228516"/>
  <use xlink:href="#glyph0-1" x="401.773438" y="456.228516"/>
  <use xlink:href="#glyph0-1" x="408.445312" y="456.228516"/>
</g>
<g style="fill:rgb(0%,0%,0%);fill-opacity:1;">
  <use xlink:href="#glyph0-5" x="444.898438" y="456.228516"/>
  <use xlink:href="#glyph0-2" x="451.570312" y="456.228516"/>
  <use xlink:href="#glyph0-1" x="458.242188" y="456.228516"/>
  <use xlink:href="#glyph0-1" x="464.914062" y="456.228516"/>
</g>
<path style="fill:none;stroke-width:0.75;stroke-linecap:round;stroke-linejoin:round;stroke:rgb(0%,0%,0%);stroke-opacity:1;stroke-miterlimit:10;" d="M 59.039062 408.496094 L 59.039062 115.800781 "/>
<path style="fill:none;stroke-width:0.75;stroke-linecap:round;stroke-linejoin:round;stroke:rgb(0%,0%,0%);stroke-opacity:1;stroke-miterlimit:10;" d="M 59.039062 408.496094 L 51.839844 408.496094 "/>
<path style="fill:none;stroke-width:0.75;stroke-linecap:round;stroke-linejoin:round;stroke:rgb(0%,0%,0%);stroke-opacity:1;stroke-miterlimit:10;" d="M 59.039062 310.929688 L 51.839844 310.929688 "/>
<path style="fill:none;stroke-width:0.75;stroke-linecap:round;stroke-linejoin:round;stroke:rgb(0%,0%,0%);stroke-opacity:1;stroke-miterlimit:10;" d="M 59.039062 213.367188 L 51.839844 213.367188 "/>
<path style="fill:none;stroke-width:0.75;stroke-linecap:round;stroke-linejoin:round;stroke:rgb(0%,0%,0%);stroke-opacity:1;stroke-miterlimit:10;" d="M 59.039062 115.800781 L 51.839844 115.800781 "/>
<g style="fill:rgb(0%,0%,0%);fill-opacity:1;">
  <use xlink:href="#glyph1-1" x="41.509766" y="423.996094"/>
  <use xlink:href="#glyph1-2" x="41.509766" y="417.324219"/>
  <use xlink:href="#glyph1-3" x="41.509766" y="413.988281"/>
  <use xlink:href="#glyph1-4" x="41.509766" y="407.316406"/>
  <use xlink:href="#glyph1-1" x="41.509766" y="400.644531"/>
</g>
<g style="fill:rgb(0%,0%,0%);fill-opacity:1;">
  <use xlink:href="#glyph1-1" x="41.509766" y="326.429688"/>
  <use xlink:href="#glyph1-2" x="41.509766" y="319.757812"/>
  <use xlink:href="#glyph1-3" x="41.509766" y="316.421875"/>
  <use xlink:href="#glyph1-4" x="41.509766" y="309.75"/>
  <use xlink:href="#glyph1-5" x="41.509766" y="303.078125"/>
</g>
<g style="fill:rgb(0%,0%,0%);fill-opacity:1;">
  <use xlink:href="#glyph1-1" x="41.509766" y="228.867188"/>
  <use xlink:href="#glyph1-2" x="41.509766" y="222.195312"/>
  <use xlink:href="#glyph1-3" x="41.509766" y="218.859375"/>
  <use xlink:href="#glyph1-6" x="41.509766" y="212.1875"/>
  <use xlink:href="#glyph1-1" x="41.509766" y="205.515625"/>
</g>
<g style="fill:rgb(0%,0%,0%);fill-opacity:1;">
  <use xlink:href="#glyph1-1" x="41.509766" y="131.300781"/>
  <use xlink:href="#glyph1-2" x="41.509766" y="124.628906"/>
  <use xlink:href="#glyph1-3" x="41.509766" y="121.292969"/>
  <use xlink:href="#glyph1-6" x="41.509766" y="114.621094"/>
  <use xlink:href="#glyph1-5" x="41.509766" y="107.949219"/>
</g>
<path style="fill:none;stroke-width:0.75;stroke-linecap:round;stroke-linejoin:round;stroke:rgb(0%,0%,0%);stroke-opacity:1;stroke-miterlimit:10;" d="M 59.039062 430.558594 L 473.761719 430.558594 L 473.761719 59.039062 L 59.039062 59.039062 L 59.039062 430.558594 "/>
<g style="fill:rgb(0%,0%,0%);fill-opacity:1;">
  <use xlink:href="#glyph2-1" x="153.898438" y="25.875977"/>
  <use xlink:href="#glyph2-2" x="164.294922" y="25.875977"/>
  <use xlink:href="#glyph2-3" x="172.300781" y="25.875977"/>
  <use xlink:href="#glyph2-4" x="181.098633" y="25.875977"/>
  <use xlink:href="#glyph2-5" x="189.896484" y="25.875977"/>
  <use xlink:href="#glyph2-6" x="198.694336" y="25.875977"/>
  <use xlink:href="#glyph2-7" x="211.495117" y="25.875977"/>
  <use xlink:href="#glyph2-8" x="215.498047" y="25.875977"/>
  <use xlink:href="#glyph2-5" x="224.09375" y="25.875977"/>
  <use xlink:href="#glyph2-9" x="232.891602" y="25.875977"/>
  <use xlink:href="#glyph2-10" x="238.550781" y="25.875977"/>
  <use xlink:href="#glyph2-11" x="246.614258" y="25.875977"/>
  <use xlink:href="#glyph2-12" x="254.605469" y="25.875977"/>
  <use xlink:href="#glyph2-7" x="259.400391" y="25.875977"/>
  <use xlink:href="#glyph2-13" x="263.40332" y="25.875977"/>
  <use xlink:href="#glyph2-13" x="274.606445" y="25.875977"/>
  <use xlink:href="#glyph2-14" x="285.80957" y="25.875977"/>
  <use xlink:href="#glyph2-7" x="296.206055" y="25.875977"/>
  <use xlink:href="#glyph2-15" x="300.208984" y="25.875977"/>
  <use xlink:href="#glyph2-9" x="309.813477" y="25.875977"/>
  <use xlink:href="#glyph2-9" x="315.37207" y="25.875977"/>
  <use xlink:href="#glyph2-5" x="320.958984" y="25.875977"/>
  <use xlink:href="#glyph2-9" x="329.756836" y="25.875977"/>
  <use xlink:href="#glyph2-7" x="335.358398" y="25.875977"/>
  <use xlink:href="#glyph2-1" x="339.361328" y="25.875977"/>
  <use xlink:href="#glyph2-2" x="349.757812" y="25.875977"/>
  <use xlink:href="#glyph2-12" x="357.720703" y="25.875977"/>
  <use xlink:href="#glyph2-10" x="362.458008" y="25.875977"/>
  <use xlink:href="#glyph2-11" x="370.521484" y="25.875977"/>
</g>
<g style="fill:rgb(0%,0%,0%);fill-opacity:1;">
  <use xlink:href="#glyph2-16" x="222.398438" y="43.157227"/>
  <use xlink:href="#glyph2-17" x="230.893555" y="43.157227"/>
  <use xlink:href="#glyph2-7" x="238.899414" y="43.157227"/>
  <use xlink:href="#glyph2-18" x="242.902344" y="43.157227"/>
  <use xlink:href="#glyph2-7" x="250.908203" y="43.157227"/>
  <use xlink:href="#glyph2-5" x="254.911133" y="43.157227"/>
  <use xlink:href="#glyph2-19" x="263.708984" y="43.157227"/>
  <use xlink:href="#glyph2-7" x="268.503906" y="43.157227"/>
  <use xlink:href="#glyph2-20" x="272.506836" y="43.157227"/>
  <use xlink:href="#glyph2-9" x="280.238281" y="43.157227"/>
  <use xlink:href="#glyph2-10" x="285.897461" y="43.157227"/>
  <use xlink:href="#glyph2-10" x="293.90332" y="43.157227"/>
  <use xlink:href="#glyph2-11" x="301.966797" y="43.157227"/>
</g>
<g style="fill:rgb(0%,0%,0%);fill-opacity:1;">
  <use xlink:href="#glyph0-6" x="207.398438" y="485.029297"/>
  <use xlink:href="#glyph0-7" x="213.638672" y="485.029297"/>
  <use xlink:href="#glyph0-8" x="220.202148" y="485.029297"/>
  <use xlink:href="#glyph0-9" x="223.513672" y="485.029297"/>
  <use xlink:href="#glyph0-10" x="230.185547" y="485.029297"/>
  <use xlink:href="#glyph0-11" x="232.849609" y="485.029297"/>
  <use xlink:href="#glyph0-12" x="236.185547" y="485.029297"/>
  <use xlink:href="#glyph0-13" x="244.837891" y="485.029297"/>
  <use xlink:href="#glyph0-14" x="251.509766" y="485.029297"/>
  <use xlink:href="#glyph0-15" x="261.505859" y="485.029297"/>
  <use xlink:href="#glyph0-16" x="268.177734" y="485.029297"/>
  <use xlink:href="#glyph0-17" x="274.849609" y="485.029297"/>
  <use xlink:href="#glyph0-11" x="278.845703" y="485.029297"/>
  <use xlink:href="#glyph0-7" x="282.181641" y="485.029297"/>
  <use xlink:href="#glyph0-18" x="288.853516" y="485.029297"/>
  <use xlink:href="#glyph0-11" x="292.189453" y="485.029297"/>
  <use xlink:href="#glyph0-6" x="295.525391" y="485.029297"/>
  <use xlink:href="#glyph0-17" x="301.753906" y="485.029297"/>
  <use xlink:href="#glyph0-16" x="305.629883" y="485.029297"/>
  <use xlink:href="#glyph0-16" x="312.301758" y="485.029297"/>
  <use xlink:href="#glyph0-19" x="318.925781" y="485.029297"/>
</g>
<g style="fill:rgb(0%,0%,0%);fill-opacity:1;">
  <use xlink:href="#glyph1-7" x="12.708984" y="317.300781"/>
  <use xlink:href="#glyph1-7" x="12.708984" y="307.964844"/>
  <use xlink:href="#glyph1-8" x="12.708984" y="298.628906"/>
  <use xlink:href="#glyph1-9" x="12.708984" y="290.625"/>
  <use xlink:href="#glyph1-10" x="12.708984" y="287.289062"/>
  <use xlink:href="#glyph1-11" x="12.708984" y="277.292969"/>
  <use xlink:href="#glyph1-12" x="12.708984" y="274.628906"/>
  <use xlink:href="#glyph1-13" x="12.708984" y="268.628906"/>
  <use xlink:href="#glyph1-14" x="12.708984" y="262.617188"/>
  <use xlink:href="#glyph1-15" x="12.708984" y="259.953125"/>
  <use xlink:href="#glyph1-12" x="12.708984" y="253.28125"/>
  <use xlink:href="#glyph1-12" x="12.708984" y="247.256836"/>
  <use xlink:href="#glyph1-11" x="12.708984" y="241.256836"/>
  <use xlink:href="#glyph1-16" x="12.708984" y="238.592773"/>
  <use xlink:href="#glyph1-13" x="12.708984" y="232.592773"/>
  <use xlink:href="#glyph1-15" x="12.708984" y="226.508789"/>
  <use xlink:href="#glyph1-17" x="12.708984" y="219.96875"/>
  <use xlink:href="#glyph1-11" x="12.708984" y="216.692383"/>
  <use xlink:href="#glyph1-18" x="12.708984" y="214.02832"/>
  <use xlink:href="#glyph1-19" x="12.708984" y="207.356445"/>
  <use xlink:href="#glyph1-9" x="12.708984" y="200.68457"/>
  <use xlink:href="#glyph1-20" x="12.708984" y="197.348633"/>
  <use xlink:href="#glyph1-15" x="12.708984" y="188.84082"/>
  <use xlink:href="#glyph1-17" x="12.708984" y="182.300781"/>
  <use xlink:href="#glyph1-21" x="12.708984" y="179.132812"/>
</g>
</g>
</svg>
