<?xml version="1.0" encoding="UTF-8"?>
<svg xmlns="http://www.w3.org/2000/svg" xmlns:xlink="http://www.w3.org/1999/xlink" width="504pt" height="504pt" viewBox="0 0 504 504" version="1.1">
<defs>
<g>
<symbol overflow="visible" id="glyph0-0">
<path style="stroke:none;" d=""/>
</symbol>
<symbol overflow="visible" id="glyph0-1">
<path style="stroke:none;" d="M 5.71875 -8.515625 L 1.3125 -8.515625 L 0.6875 -3.875 L 1.65625 -3.875 C 2.140625 -4.46875 2.5625 -4.671875 3.234375 -4.671875 C 4.375 -4.671875 5.078125 -3.890625 5.078125 -2.625 C 5.078125 -1.40625 4.375 -0.65625 3.21875 -0.65625 C 2.296875 -0.65625 1.734375 -1.125 1.46875 -2.09375 L 0.421875 -2.09375 C 0.5625 -1.390625 0.6875 -1.0625 0.9375 -0.75 C 1.421875 -0.09375 2.28125 0.28125 3.234375 0.28125 C 4.953125 0.28125 6.15625 -0.96875 6.15625 -2.765625 C 6.15625 -4.453125 5.046875 -5.609375 3.40625 -5.609375 C 2.8125 -5.609375 2.328125 -5.453125 1.84375 -5.09375 L 2.171875 -7.46875 L 5.71875 -7.46875 Z M 5.71875 -8.515625 "/>
</symbol>
<symbol overflow="visible" id="glyph0-2">
<path style="stroke:none;" d="M 3.109375 -6.0625 L 3.109375 0 L 4.15625 0 L 4.15625 -8.515625 L 3.46875 -8.515625 C 3.09375 -7.203125 2.859375 -7.015625 1.21875 -6.8125 L 1.21875 -6.0625 Z M 3.109375 -6.0625 "/>
</symbol>
<symbol overflow="visible" id="glyph0-3">
<path style="stroke:none;" d="M 3.296875 -8.515625 C 2.515625 -8.515625 1.78125 -8.15625 1.34375 -7.578125 C 0.796875 -6.828125 0.515625 -5.6875 0.515625 -4.109375 C 0.515625 -1.234375 1.46875 0.28125 3.296875 0.28125 C 5.09375 0.28125 6.078125 -1.25 6.078125 -4.046875 C 6.078125 -5.703125 5.8125 -6.796875 5.25 -7.578125 C 4.8125 -8.171875 4.109375 -8.515625 3.296875 -8.515625 Z M 3.296875 -7.578125 C 4.4375 -7.578125 5 -6.4375 5 -4.140625 C 5 -1.734375 4.453125 -0.59375 3.28125 -0.59375 C 2.15625 -0.59375 1.59375 -1.78125 1.59375 -4.109375 C 1.59375 -6.4375 2.15625 -7.578125 3.296875 -7.578125 Z M 3.296875 -7.578125 "/>
</symbol>
<symbol overflow="visible" id="glyph0-4">
<path style="stroke:none;" d="M 6.078125 -1.046875 L 1.59375 -1.046875 C 1.703125 -1.734375 2.09375 -2.1875 3.125 -2.796875 L 4.328125 -3.4375 C 5.515625 -4.09375 6.125 -4.96875 6.125 -6.015625 C 6.125 -6.71875 5.84375 -7.375 5.34375 -7.84375 C 4.84375 -8.296875 4.21875 -8.515625 3.40625 -8.515625 C 2.328125 -8.515625 1.53125 -8.140625 1.0625 -7.40625 C 0.75 -6.953125 0.625 -6.421875 0.59375 -5.5625 L 1.65625 -5.5625 C 1.6875 -6.125 1.765625 -6.484375 1.90625 -6.75 C 2.1875 -7.265625 2.734375 -7.578125 3.375 -7.578125 C 4.328125 -7.578125 5.046875 -6.90625 5.046875 -5.984375 C 5.046875 -5.3125 4.65625 -4.734375 3.90625 -4.3125 L 2.796875 -3.6875 C 1.015625 -2.671875 0.5 -1.875 0.40625 0 L 6.078125 0 Z M 6.078125 -1.046875 "/>
</symbol>
<symbol overflow="visible" id="glyph0-5">
<path style="stroke:none;" d="M 7.75 -8.75 L 6.703125 -8.75 L 6.703125 -1.59375 L 2.125 -8.75 L 0.90625 -8.75 L 0.90625 0 L 1.96875 0 L 1.96875 -7.09375 L 6.484375 0 L 7.75 0 Z M 7.75 -8.75 "/>
</symbol>
<symbol overflow="visible" id="glyph0-6">
<path style="stroke:none;" d="M 5.78125 0 L 5.78125 -6.28125 L 4.78125 -6.28125 L 4.78125 -2.71875 C 4.78125 -1.4375 4.109375 -0.59375 3.078125 -0.59375 C 2.28125 -0.59375 1.78125 -1.078125 1.78125 -1.84375 L 1.78125 -6.28125 L 0.78125 -6.28125 L 0.78125 -1.4375 C 0.78125 -0.390625 1.5625 0.28125 2.78125 0.28125 C 3.703125 0.28125 4.296875 -0.046875 4.890625 -0.875 L 4.890625 0 Z M 5.78125 0 "/>
</symbol>
<symbol overflow="visible" id="glyph0-7">
<path style="stroke:none;" d="M 0.84375 -6.28125 L 0.84375 0 L 1.84375 0 L 1.84375 -3.953125 C 1.84375 -4.859375 2.515625 -5.59375 3.328125 -5.59375 C 4.0625 -5.59375 4.484375 -5.140625 4.484375 -4.328125 L 4.484375 0 L 5.5 0 L 5.5 -3.953125 C 5.5 -4.859375 6.15625 -5.59375 6.96875 -5.59375 C 7.703125 -5.59375 8.140625 -5.125 8.140625 -4.328125 L 8.140625 0 L 9.140625 0 L 9.140625 -4.71875 C 9.140625 -5.84375 8.5 -6.46875 7.3125 -6.46875 C 6.484375 -6.46875 5.96875 -6.21875 5.390625 -5.515625 C 5.015625 -6.1875 4.515625 -6.46875 3.703125 -6.46875 C 2.859375 -6.46875 2.296875 -6.15625 1.765625 -5.40625 L 1.765625 -6.28125 Z M 0.84375 -6.28125 "/>
</symbol>
<symbol overflow="visible" id="glyph0-8">
<path style="stroke:none;" d="M 0.640625 -8.75 L 0.640625 0 L 1.546875 0 L 1.546875 -0.796875 C 2.03125 -0.078125 2.65625 0.28125 3.546875 0.28125 C 5.203125 0.28125 6.28125 -1.078125 6.28125 -3.171875 C 6.28125 -5.203125 5.25 -6.46875 3.59375 -6.46875 C 2.71875 -6.46875 2.109375 -6.140625 1.640625 -5.4375 L 1.640625 -8.75 Z M 3.390625 -5.53125 C 4.515625 -5.53125 5.234375 -4.5625 5.234375 -3.0625 C 5.234375 -1.625 4.484375 -0.65625 3.390625 -0.65625 C 2.328125 -0.65625 1.640625 -1.625 1.640625 -3.09375 C 1.640625 -4.578125 2.328125 -5.53125 3.390625 -5.53125 Z M 3.390625 -5.53125 "/>
</symbol>
<symbol overflow="visible" id="glyph0-9">
<path style="stroke:none;" d="M 6.15625 -2.8125 C 6.15625 -3.765625 6.078125 -4.34375 5.90625 -4.8125 C 5.5 -5.84375 4.53125 -6.46875 3.359375 -6.46875 C 1.609375 -6.46875 0.484375 -5.140625 0.484375 -3.0625 C 0.484375 -0.984375 1.5625 0.28125 3.34375 0.28125 C 4.78125 0.28125 5.765625 -0.546875 6.03125 -1.90625 L 5.015625 -1.90625 C 4.734375 -1.078125 4.171875 -0.640625 3.375 -0.640625 C 2.734375 -0.640625 2.203125 -0.9375 1.859375 -1.46875 C 1.625 -1.828125 1.53125 -2.1875 1.53125 -2.8125 Z M 1.546875 -3.625 C 1.625 -4.78125 2.34375 -5.546875 3.34375 -5.546875 C 4.375 -5.546875 5.078125 -4.75 5.078125 -3.625 Z M 1.546875 -3.625 "/>
</symbol>
<symbol overflow="visible" id="glyph0-10">
<path style="stroke:none;" d="M 0.828125 -6.28125 L 0.828125 0 L 1.84375 0 L 1.84375 -3.265625 C 1.84375 -4.78125 2.46875 -5.453125 3.859375 -5.40625 L 3.859375 -6.4375 C 3.6875 -6.453125 3.59375 -6.46875 3.46875 -6.46875 C 2.8125 -6.46875 2.328125 -6.078125 1.75 -5.140625 L 1.75 -6.28125 Z M 0.828125 -6.28125 "/>
</symbol>
<symbol overflow="visible" id="glyph0-11">
<path style="stroke:none;" d=""/>
</symbol>
<symbol overflow="visible" id="glyph0-12">
<path style="stroke:none;" d="M 3.265625 -6.46875 C 1.484375 -6.46875 0.4375 -5.203125 0.4375 -3.09375 C 0.4375 -0.96875 1.484375 0.28125 3.28125 0.28125 C 5.046875 0.28125 6.125 -0.984375 6.125 -3.046875 C 6.125 -5.234375 5.09375 -6.46875 3.265625 -6.46875 Z M 3.28125 -5.546875 C 4.40625 -5.546875 5.078125 -4.625 5.078125 -3.0625 C 5.078125 -1.578125 4.375 -0.640625 3.28125 -0.640625 C 2.15625 -0.640625 1.46875 -1.578125 1.46875 -3.09375 C 1.46875 -4.625 2.15625 -5.546875 3.28125 -5.546875 Z M 3.28125 -5.546875 "/>
</symbol>
<symbol overflow="visible" id="glyph0-13">
<path style="stroke:none;" d="M 3.09375 -6.28125 L 2.046875 -6.28125 L 2.046875 -7.265625 C 2.046875 -7.6875 2.28125 -7.90625 2.75 -7.90625 C 2.828125 -7.90625 2.875 -7.90625 3.09375 -7.890625 L 3.09375 -8.71875 C 2.875 -8.765625 2.734375 -8.78125 2.53125 -8.78125 C 1.609375 -8.78125 1.0625 -8.25 1.0625 -7.359375 L 1.0625 -6.28125 L 0.21875 -6.28125 L 0.21875 -5.46875 L 1.0625 -5.46875 L 1.0625 0 L 2.046875 0 L 2.046875 -5.46875 L 3.09375 -5.46875 Z M 3.09375 -6.28125 "/>
</symbol>
<symbol overflow="visible" id="glyph0-14">
<path style="stroke:none;" d="M 4.703125 0 L 7.734375 -8.75 L 6.546875 -8.75 L 4.125 -1.34375 L 1.5625 -8.75 L 0.359375 -8.75 L 3.5 0 Z M 4.703125 0 "/>
</symbol>
<symbol overflow="visible" id="glyph0-15">
<path style="stroke:none;" d="M 6.421875 -0.59375 C 6.3125 -0.5625 6.265625 -0.5625 6.203125 -0.5625 C 5.859375 -0.5625 5.65625 -0.75 5.65625 -1.0625 L 5.65625 -4.75 C 5.65625 -5.875 4.84375 -6.46875 3.296875 -6.46875 C 2.375 -6.46875 1.640625 -6.203125 1.21875 -5.734375 C 0.921875 -5.40625 0.796875 -5.046875 0.78125 -4.421875 L 1.78125 -4.421875 C 1.875 -5.203125 2.328125 -5.546875 3.265625 -5.546875 C 4.171875 -5.546875 4.671875 -5.203125 4.671875 -4.609375 L 4.671875 -4.34375 C 4.65625 -3.90625 4.4375 -3.75 3.625 -3.640625 C 2.203125 -3.46875 1.984375 -3.421875 1.609375 -3.265625 C 0.875 -2.953125 0.5 -2.40625 0.5 -1.578125 C 0.5 -0.4375 1.296875 0.28125 2.5625 0.28125 C 3.359375 0.28125 4 0 4.703125 -0.640625 C 4.78125 0 5.09375 0.28125 5.734375 0.28125 C 5.953125 0.28125 6.078125 0.25 6.421875 0.171875 Z M 4.671875 -1.984375 C 4.671875 -1.640625 4.578125 -1.4375 4.265625 -1.15625 C 3.859375 -0.796875 3.375 -0.59375 2.78125 -0.59375 C 2 -0.59375 1.546875 -0.96875 1.546875 -1.609375 C 1.546875 -2.265625 1.984375 -2.609375 3.0625 -2.765625 C 4.125 -2.90625 4.328125 -2.953125 4.671875 -3.109375 Z M 4.671875 -1.984375 "/>
</symbol>
<symbol overflow="visible" id="glyph0-16">
<path style="stroke:none;" d="M 1.796875 -6.28125 L 0.796875 -6.28125 L 0.796875 0 L 1.796875 0 Z M 1.796875 -8.75 L 0.796875 -8.75 L 0.796875 -7.484375 L 1.796875 -7.484375 Z M 1.796875 -8.75 "/>
</symbol>
<symbol overflow="visible" id="glyph0-17">
<path style="stroke:none;" d="M 1.828125 -8.75 L 0.8125 -8.75 L 0.8125 0 L 1.828125 0 Z M 1.828125 -8.75 "/>
</symbol>
<symbol overflow="visible" id="glyph0-18">
<path style="stroke:none;" d="M 5.25 -4.53125 C 5.25 -5.765625 4.421875 -6.46875 2.96875 -6.46875 C 1.515625 -6.46875 0.5625 -5.71875 0.5625 -4.546875 C 0.5625 -3.5625 1.0625 -3.09375 2.5625 -2.734375 L 3.484375 -2.515625 C 4.1875 -2.34375 4.46875 -2.09375 4.46875 -1.640625 C 4.46875 -1.046875 3.875 -0.640625 3 -0.640625 C 2.453125 -0.640625 2 -0.796875 1.75 -1.0625 C 1.59375 -1.25 1.53125 -1.421875 1.46875 -1.875 L 0.40625 -1.875 C 0.453125 -0.421875 1.265625 0.28125 2.921875 0.28125 C 4.5 0.28125 5.515625 -0.5 5.515625 -1.71875 C 5.515625 -2.65625 4.984375 -3.171875 3.734375 -3.46875 L 2.765625 -3.703125 C 1.953125 -3.890625 1.609375 -4.15625 1.609375 -4.59375 C 1.609375 -5.1875 2.125 -5.546875 2.9375 -5.546875 C 3.75 -5.546875 4.171875 -5.203125 4.203125 -4.53125 Z M 5.25 -4.53125 "/>
</symbol>
<symbol overflow="visible" id="glyph0-19">
<path style="stroke:none;" d="M 7.15625 -6.1875 C 7.15625 -6.78125 7.109375 -6.953125 6.921875 -7.359375 C 6.4375 -8.359375 5.421875 -8.890625 3.953125 -8.890625 C 2.03125 -8.890625 0.84375 -7.90625 0.84375 -6.328125 C 0.84375 -5.25 1.40625 -4.578125 2.5625 -4.28125 L 4.734375 -3.703125 C 5.84375 -3.421875 6.34375 -2.96875 6.34375 -2.296875 C 6.34375 -1.828125 6.078125 -1.34375 5.71875 -1.078125 C 5.359375 -0.828125 4.8125 -0.703125 4.109375 -0.703125 C 3.140625 -0.703125 2.515625 -0.9375 2.09375 -1.4375 C 1.765625 -1.828125 1.625 -2.25 1.625 -2.78125 L 0.578125 -2.78125 C 0.59375 -1.984375 0.75 -1.453125 1.09375 -0.96875 C 1.6875 -0.140625 2.703125 0.28125 4.03125 0.28125 C 5.078125 0.28125 5.921875 0.03125 6.484375 -0.390625 C 7.078125 -0.859375 7.453125 -1.640625 7.453125 -2.40625 C 7.453125 -3.484375 6.78125 -4.265625 5.59375 -4.59375 L 3.390625 -5.1875 C 2.34375 -5.46875 1.953125 -5.8125 1.953125 -6.484375 C 1.953125 -7.375 2.734375 -7.953125 3.90625 -7.953125 C 5.296875 -7.953125 6.078125 -7.328125 6.09375 -6.1875 Z M 7.15625 -6.1875 "/>
</symbol>
<symbol overflow="visible" id="glyph0-20">
<path style="stroke:none;" d="M 3.046875 -6.28125 L 2.015625 -6.28125 L 2.015625 -8.015625 L 1.015625 -8.015625 L 1.015625 -6.28125 L 0.171875 -6.28125 L 0.171875 -5.46875 L 1.015625 -5.46875 L 1.015625 -0.71875 C 1.015625 -0.078125 1.453125 0.28125 2.234375 0.28125 C 2.5 0.28125 2.71875 0.25 3.046875 0.1875 L 3.046875 -0.640625 C 2.90625 -0.609375 2.765625 -0.59375 2.5625 -0.59375 C 2.140625 -0.59375 2.015625 -0.71875 2.015625 -1.15625 L 2.015625 -5.46875 L 3.046875 -5.46875 Z M 3.046875 -6.28125 "/>
</symbol>
<symbol overflow="visible" id="glyph0-21">
<path style="stroke:none;" d="M 5.9375 -8.75 L 4.9375 -8.75 L 4.9375 -5.5 C 4.53125 -6.125 3.859375 -6.46875 3.015625 -6.46875 C 1.375 -6.46875 0.3125 -5.15625 0.3125 -3.15625 C 0.3125 -1.03125 1.34375 0.28125 3.046875 0.28125 C 3.90625 0.28125 4.515625 -0.046875 5.046875 -0.828125 L 5.046875 0 L 5.9375 0 Z M 3.1875 -5.53125 C 4.265625 -5.53125 4.9375 -4.578125 4.9375 -3.078125 C 4.9375 -1.625 4.25 -0.65625 3.1875 -0.65625 C 2.09375 -0.65625 1.359375 -1.625 1.359375 -3.09375 C 1.359375 -4.5625 2.09375 -5.53125 3.1875 -5.53125 Z M 3.1875 -5.53125 "/>
</symbol>
<symbol overflow="visible" id="glyph0-22">
<path style="stroke:none;" d="M 4.65625 -6.28125 L 2.921875 -1.390625 L 1.3125 -6.28125 L 0.234375 -6.28125 L 2.359375 0.03125 L 1.984375 1.015625 C 1.8125 1.46875 1.59375 1.625 1.171875 1.625 C 1.015625 1.625 0.859375 1.609375 0.640625 1.5625 L 0.640625 2.453125 C 0.859375 2.5625 1.0625 2.609375 1.3125 2.609375 C 1.640625 2.609375 1.984375 2.515625 2.25 2.3125 C 2.5625 2.09375 2.75 1.828125 2.9375 1.3125 L 5.734375 -6.28125 Z M 4.65625 -6.28125 "/>
</symbol>
<symbol overflow="visible" id="glyph0-23">
<path style="stroke:none;" d="M 2.328125 -8.75 L 1.203125 -8.75 L 1.203125 0 L 2.328125 0 Z M 2.328125 -8.75 "/>
</symbol>
<symbol overflow="visible" id="glyph0-24">
<path style="stroke:none;" d="M 0.640625 2.609375 L 1.65625 2.609375 L 1.65625 -0.65625 C 2.1875 -0.015625 2.765625 0.28125 3.59375 0.28125 C 5.21875 0.28125 6.28125 -1.03125 6.28125 -3.03125 C 6.28125 -5.140625 5.25 -6.46875 3.578125 -6.46875 C 2.71875 -6.46875 2.046875 -6.078125 1.578125 -5.34375 L 1.578125 -6.28125 L 0.640625 -6.28125 Z M 3.40625 -5.53125 C 4.515625 -5.53125 5.234375 -4.5625 5.234375 -3.0625 C 5.234375 -1.625 4.5 -0.65625 3.40625 -0.65625 C 2.34375 -0.65625 1.65625 -1.625 1.65625 -3.09375 C 1.65625 -4.578125 2.34375 -5.53125 3.40625 -5.53125 Z M 3.40625 -5.53125 "/>
</symbol>
<symbol overflow="visible" id="glyph0-25">
<path style="stroke:none;" d="M 0.84375 -6.28125 L 0.84375 0 L 1.84375 0 L 1.84375 -3.46875 C 1.84375 -4.75 2.515625 -5.59375 3.546875 -5.59375 C 4.34375 -5.59375 4.84375 -5.109375 4.84375 -4.359375 L 4.84375 0 L 5.84375 0 L 5.84375 -4.75 C 5.84375 -5.796875 5.0625 -6.46875 3.859375 -6.46875 C 2.921875 -6.46875 2.3125 -6.109375 1.765625 -5.234375 L 1.765625 -6.28125 Z M 0.84375 -6.28125 "/>
</symbol>
<symbol overflow="visible" id="glyph0-26">
<path style="stroke:none;" d="M 5.65625 -4.171875 C 5.609375 -4.78125 5.46875 -5.1875 5.234375 -5.53125 C 4.796875 -6.125 4.046875 -6.46875 3.171875 -6.46875 C 1.46875 -6.46875 0.375 -5.125 0.375 -3.03125 C 0.375 -1.015625 1.453125 0.28125 3.15625 0.28125 C 4.65625 0.28125 5.609375 -0.625 5.71875 -2.15625 L 4.71875 -2.15625 C 4.546875 -1.15625 4.03125 -0.640625 3.1875 -0.640625 C 2.078125 -0.640625 1.421875 -1.546875 1.421875 -3.03125 C 1.421875 -4.609375 2.0625 -5.546875 3.15625 -5.546875 C 4 -5.546875 4.53125 -5.046875 4.640625 -4.171875 Z M 5.65625 -4.171875 "/>
</symbol>
<symbol overflow="visible" id="glyph1-0">
<path style="stroke:none;" d=""/>
</symbol>
<symbol overflow="visible" id="glyph1-1">
<path style="stroke:none;" d="M -8.515625 -3.296875 C -8.515625 -2.515625 -8.15625 -1.78125 -7.578125 -1.34375 C -6.828125 -0.796875 -5.6875 -0.515625 -4.109375 -0.515625 C -1.234375 -0.515625 0.28125 -1.46875 0.28125 -3.296875 C 0.28125 -5.09375 -1.25 -6.078125 -4.046875 -6.078125 C -5.703125 -6.078125 -6.796875 -5.8125 -7.578125 -5.25 C -8.171875 -4.8125 -8.515625 -4.109375 -8.515625 -3.296875 Z M -7.578125 -3.296875 C -7.578125 -4.4375 -6.4375 -5 -4.140625 -5 C -1.734375 -5 -0.59375 -4.453125 -0.59375 -3.28125 C -0.59375 -2.15625 -1.78125 -1.59375 -4.109375 -1.59375 C -6.4375 -1.59375 -7.578125 -2.15625 -7.578125 -3.296875 Z M -7.578125 -3.296875 "/>
</symbol>
<symbol overflow="visible" id="glyph1-2">
<path style="stroke:none;" d="M -1.25 -2.296875 L -1.25 -1.046875 L 0 -1.046875 L 0 -2.296875 Z M -1.25 -2.296875 "/>
</symbol>
<symbol overflow="visible" id="glyph1-3">
<path style="stroke:none;" d="M -1.046875 -6.078125 L -1.046875 -1.59375 C -1.734375 -1.703125 -2.1875 -2.09375 -2.796875 -3.125 L -3.4375 -4.328125 C -4.09375 -5.515625 -4.96875 -6.125 -6.015625 -6.125 C -6.71875 -6.125 -7.375 -5.84375 -7.84375 -5.34375 C -8.296875 -4.84375 -8.515625 -4.21875 -8.515625 -3.40625 C -8.515625 -2.328125 -8.140625 -1.53125 -7.40625 -1.0625 C -6.953125 -0.75 -6.421875 -0.625 -5.5625 -0.59375 L -5.5625 -1.65625 C -6.125 -1.6875 -6.484375 -1.765625 -6.75 -1.90625 C -7.265625 -2.1875 -7.578125 -2.734375 -7.578125 -3.375 C -7.578125 -4.328125 -6.90625 -5.046875 -5.984375 -5.046875 C -5.3125 -5.046875 -4.734375 -4.65625 -4.3125 -3.90625 L -3.6875 -2.796875 C -2.671875 -1.015625 -1.875 -0.5 0 -0.40625 L 0 -6.078125 Z M -1.046875 -6.078125 "/>
</symbol>
<symbol overflow="visible" id="glyph1-4">
<path style="stroke:none;" d="M -8.515625 -6.234375 L -8.515625 -0.546875 L -7.46875 -0.546875 L -7.46875 -5.140625 C -4.578125 -3.125 -2.796875 -2.296875 0 -1.65625 L 0 -2.78125 C -2.71875 -3.25 -5.0625 -4.3125 -7.625 -6.234375 Z M -8.515625 -6.234375 "/>
</symbol>
<symbol overflow="visible" id="glyph1-5">
<path style="stroke:none;" d="M -4.46875 -4.6875 C -5.015625 -5.5625 -5.4375 -5.859375 -6.234375 -5.859375 C -7.578125 -5.859375 -8.515625 -4.8125 -8.515625 -3.296875 C -8.515625 -1.796875 -7.578125 -0.75 -6.234375 -0.75 C -5.453125 -0.75 -5.015625 -1.015625 -4.46875 -1.890625 C -4.015625 -0.921875 -3.296875 -0.4375 -2.359375 -0.4375 C -0.796875 -0.4375 0.28125 -1.609375 0.28125 -3.296875 C 0.28125 -4.984375 -0.796875 -6.15625 -2.359375 -6.15625 C -3.296875 -6.15625 -4.015625 -5.671875 -4.46875 -4.6875 Z M -7.578125 -3.296875 C -7.578125 -4.203125 -7.046875 -4.78125 -6.21875 -4.78125 C -5.421875 -4.78125 -4.890625 -4.1875 -4.890625 -3.296875 C -4.890625 -2.40625 -5.421875 -1.828125 -6.234375 -1.828125 C -7.046875 -1.828125 -7.578125 -2.40625 -7.578125 -3.296875 Z M -4.015625 -3.296875 C -4.015625 -4.359375 -3.34375 -5.078125 -2.34375 -5.078125 C -1.3125 -5.078125 -0.65625 -4.375 -0.65625 -3.28125 C -0.65625 -2.25 -1.34375 -1.53125 -2.34375 -1.53125 C -3.34375 -1.53125 -4.015625 -2.234375 -4.015625 -3.296875 Z M -4.015625 -3.296875 "/>
</symbol>
<symbol overflow="visible" id="glyph1-6">
<path style="stroke:none;" d="M -1.9375 -0.640625 C -0.546875 -0.84375 0.28125 -1.75 0.28125 -3.046875 C 0.28125 -4 -0.171875 -4.84375 -0.9375 -5.34375 C -1.765625 -5.875 -2.8125 -6.109375 -4.359375 -6.109375 C -5.78125 -6.109375 -6.703125 -5.890625 -7.453125 -5.390625 C -8.140625 -4.921875 -8.515625 -4.171875 -8.515625 -3.234375 C -8.515625 -1.625 -7.3125 -0.453125 -5.640625 -0.453125 C -4.0625 -0.453125 -2.9375 -1.53125 -2.9375 -3.078125 C -2.9375 -3.875 -3.234375 -4.46875 -3.890625 -5.015625 C -1.8125 -5 -0.65625 -4.328125 -0.65625 -3.125 C -0.65625 -2.375 -1.125 -1.859375 -1.9375 -1.6875 Z M -7.578125 -3.234375 C -7.578125 -4.21875 -6.765625 -4.953125 -5.65625 -4.953125 C -4.609375 -4.953125 -3.875 -4.234375 -3.875 -3.1875 C -3.875 -2.171875 -4.578125 -1.53125 -5.71875 -1.53125 C -6.796875 -1.53125 -7.578125 -2.25 -7.578125 -3.234375 Z M -7.578125 -3.234375 "/>
</symbol>
<symbol overflow="visible" id="glyph1-7">
<path style="stroke:none;" d="M -3.90625 -2.65625 L -3.90625 -3.234375 C -3.90625 -4.390625 -3.390625 -4.984375 -2.359375 -4.984375 C -1.296875 -4.984375 -0.65625 -4.328125 -0.65625 -3.234375 C -0.65625 -2.078125 -1.234375 -1.515625 -2.46875 -1.4375 L -2.46875 -0.390625 C -1.78125 -0.4375 -1.34375 -0.546875 -0.953125 -0.75 C -0.140625 -1.1875 0.28125 -2.03125 0.28125 -3.1875 C 0.28125 -4.9375 -0.765625 -6.078125 -2.375 -6.078125 C -3.453125 -6.078125 -4.0625 -5.65625 -4.40625 -4.625 C -4.734375 -5.421875 -5.3125 -5.8125 -6.171875 -5.8125 C -7.625 -5.8125 -8.515625 -4.84375 -8.515625 -3.234375 C -8.515625 -1.515625 -7.578125 -0.59375 -5.765625 -0.5625 L -5.765625 -1.625 C -6.28125 -1.625 -6.5625 -1.6875 -6.828125 -1.8125 C -7.296875 -2.046875 -7.578125 -2.578125 -7.578125 -3.234375 C -7.578125 -4.171875 -7.046875 -4.734375 -6.125 -4.734375 C -5.53125 -4.734375 -5.171875 -4.53125 -4.984375 -4.0625 C -4.859375 -3.765625 -4.8125 -3.390625 -4.796875 -2.65625 Z M -3.90625 -2.65625 "/>
</symbol>
<symbol overflow="visible" id="glyph1-8">
<path style="stroke:none;" d="M -6.0625 -3.109375 L 0 -3.109375 L 0 -4.15625 L -8.515625 -4.15625 L -8.515625 -3.46875 C -7.203125 -3.09375 -7.015625 -2.859375 -6.8125 -1.21875 L -6.0625 -1.21875 Z M -6.0625 -3.109375 "/>
</symbol>
<symbol overflow="visible" id="glyph1-9">
<path style="stroke:none;" d="M -8.890625 -4.671875 C -8.890625 -2.15625 -7.046875 -0.453125 -4.3125 -0.453125 C -1.5625 -0.453125 0.28125 -2.140625 0.28125 -4.6875 C 0.28125 -5.75 -0.046875 -6.6875 -0.640625 -7.390625 C -1.453125 -8.34375 -2.8125 -8.90625 -4.234375 -8.90625 C -7.0625 -8.90625 -8.890625 -7.234375 -8.890625 -4.671875 Z M -7.90625 -4.671875 C -7.90625 -6.5625 -6.484375 -7.78125 -4.265625 -7.78125 C -2.140625 -7.78125 -0.703125 -6.53125 -0.703125 -4.6875 C -0.703125 -2.8125 -2.140625 -1.578125 -4.3125 -1.578125 C -6.46875 -1.578125 -7.90625 -2.8125 -7.90625 -4.671875 Z M -7.90625 -4.671875 "/>
</symbol>
<symbol overflow="visible" id="glyph1-10">
<path style="stroke:none;" d="M 0 -0.953125 L 0 -4.890625 C 0 -5.71875 -0.234375 -6.34375 -0.734375 -6.796875 C -1.1875 -7.234375 -1.8125 -7.46875 -2.5 -7.46875 C -3.546875 -7.46875 -4.1875 -7 -4.625 -5.875 C -4.984375 -6.6875 -5.625 -7.09375 -6.53125 -7.09375 C -7.171875 -7.09375 -7.734375 -6.859375 -8.140625 -6.390625 C -8.5625 -5.921875 -8.75 -5.34375 -8.75 -4.5 L -8.75 -0.953125 Z M -4.984375 -2.0625 L -7.765625 -2.0625 L -7.765625 -4.21875 C -7.765625 -4.84375 -7.6875 -5.203125 -7.453125 -5.5 C -7.21875 -5.8125 -6.859375 -5.96875 -6.375 -5.96875 C -5.890625 -5.96875 -5.53125 -5.8125 -5.296875 -5.5 C -5.0625 -5.203125 -4.984375 -4.84375 -4.984375 -4.21875 Z M -0.984375 -2.0625 L -4 -2.0625 L -4 -4.78125 C -4 -5.765625 -3.4375 -6.359375 -2.484375 -6.359375 C -1.546875 -6.359375 -0.984375 -5.765625 -0.984375 -4.78125 Z M -0.984375 -2.0625 "/>
</symbol>
<symbol overflow="visible" id="glyph1-11">
<path style="stroke:none;" d=""/>
</symbol>
<symbol overflow="visible" id="glyph1-12">
<path style="stroke:none;" d="M -3.984375 -2.203125 L -3.984375 -6.953125 L -4.96875 -6.953125 L -4.96875 -2.203125 L -7.765625 -2.203125 L -7.765625 -7.140625 L -8.75 -7.140625 L -8.75 -1.078125 L 0 -1.078125 L 0 -7.359375 L -0.984375 -7.359375 L -0.984375 -2.203125 Z M -3.984375 -2.203125 "/>
</symbol>
<symbol overflow="visible" id="glyph1-13">
<path style="stroke:none;" d="M -6.28125 -0.828125 L 0 -0.828125 L 0 -1.84375 L -3.265625 -1.84375 C -4.78125 -1.84375 -5.453125 -2.46875 -5.40625 -3.859375 L -6.4375 -3.859375 C -6.453125 -3.6875 -6.46875 -3.59375 -6.46875 -3.46875 C -6.46875 -2.8125 -6.078125 -2.328125 -5.140625 -1.75 L -6.28125 -1.75 Z M -6.28125 -0.828125 "/>
</symbol>
<symbol overflow="visible" id="glyph1-14">
<path style="stroke:none;" d="M -6.46875 -3.265625 C -6.46875 -1.484375 -5.203125 -0.4375 -3.09375 -0.4375 C -0.96875 -0.4375 0.28125 -1.484375 0.28125 -3.28125 C 0.28125 -5.046875 -0.984375 -6.125 -3.046875 -6.125 C -5.234375 -6.125 -6.46875 -5.09375 -6.46875 -3.265625 Z M -5.546875 -3.28125 C -5.546875 -4.40625 -4.625 -5.078125 -3.0625 -5.078125 C -1.578125 -5.078125 -0.640625 -4.375 -0.640625 -3.28125 C -0.640625 -2.15625 -1.578125 -1.46875 -3.09375 -1.46875 C -4.625 -1.46875 -5.546875 -2.15625 -5.546875 -3.28125 Z M -5.546875 -3.28125 "/>
</symbol>
<symbol overflow="visible" id="glyph2-0">
<path style="stroke:none;" d=""/>
</symbol>
<symbol overflow="visible" id="glyph2-1">
<path style="stroke:none;" d="M 3.3125 -4.15625 L 5.796875 -4.15625 C 6.734375 -4.15625 7.125 -3.78125 7.125 -2.921875 L 7.125 -2.5 C 7.109375 -2.21875 7.109375 -1.953125 7.109375 -1.796875 C 7.109375 -0.8125 7.171875 -0.5 7.4375 0 L 9.75 0 L 9.75 -0.390625 C 9.421875 -0.578125 9.296875 -0.796875 9.296875 -1.25 C 9.234375 -4.34375 9.171875 -4.5 7.84375 -5.078125 C 9.015625 -5.53125 9.609375 -6.375 9.609375 -7.671875 C 9.609375 -8.5 9.328125 -9.265625 8.8125 -9.78125 C 8.34375 -10.265625 7.671875 -10.5 6.78125 -10.5 L 1.15625 -10.5 L 1.15625 0 L 3.3125 0 Z M 3.3125 -5.96875 L 3.3125 -8.703125 L 5.921875 -8.703125 C 6.546875 -8.703125 6.78125 -8.640625 7.0625 -8.421875 C 7.3125 -8.21875 7.453125 -7.84375 7.453125 -7.359375 C 7.453125 -6.859375 7.3125 -6.453125 7.0625 -6.234375 C 6.8125 -6.03125 6.546875 -5.96875 5.921875 -5.96875 Z M 3.3125 -5.96875 "/>
</symbol>
<symbol overflow="visible" id="glyph2-2">
<path style="stroke:none;" d="M 7.546875 -0.25 C 7.203125 -0.578125 7.09375 -0.8125 7.09375 -1.203125 L 7.09375 -5.515625 C 7.09375 -7.109375 6 -7.90625 3.90625 -7.90625 C 1.796875 -7.90625 0.703125 -7.015625 0.578125 -5.21875 L 2.515625 -5.21875 C 2.625 -6.015625 2.953125 -6.28125 3.953125 -6.28125 C 4.71875 -6.28125 5.109375 -6.015625 5.109375 -5.5 C 5.109375 -5.25 4.984375 -5.03125 4.765625 -4.890625 C 4.5 -4.75 4.5 -4.75 3.5 -4.59375 L 2.6875 -4.453125 C 1.15625 -4.1875 0.40625 -3.40625 0.40625 -2 C 0.40625 -0.609375 1.34375 0.328125 2.765625 0.328125 C 3.625 0.328125 4.40625 -0.03125 5.125 -0.78125 C 5.125 -0.375 5.171875 -0.234375 5.359375 0 L 7.546875 0 Z M 5.109375 -3.125 C 5.109375 -1.953125 4.53125 -1.296875 3.515625 -1.296875 C 2.84375 -1.296875 2.421875 -1.65625 2.421875 -2.234375 C 2.421875 -2.84375 2.734375 -3.125 3.578125 -3.296875 L 4.265625 -3.421875 C 4.796875 -3.53125 4.890625 -3.5625 5.109375 -3.671875 Z M 5.109375 -3.125 "/>
</symbol>
<symbol overflow="visible" id="glyph2-3">
<path style="stroke:none;" d="M 0.90625 -7.78125 L 0.90625 0 L 2.921875 0 L 2.921875 -4.671875 C 2.921875 -5.59375 3.5625 -6.1875 4.546875 -6.1875 C 5.421875 -6.1875 5.84375 -5.71875 5.84375 -4.796875 L 5.84375 0 L 7.859375 0 L 7.859375 -5.21875 C 7.859375 -6.9375 6.921875 -7.90625 5.265625 -7.90625 C 4.203125 -7.90625 3.5 -7.53125 2.921875 -6.65625 L 2.921875 -7.78125 Z M 0.90625 -7.78125 "/>
</symbol>
<symbol overflow="visible" id="glyph2-4">
<path style="stroke:none;" d="M 5.828125 0 L 7.84375 0 L 7.84375 -10.5 L 5.828125 -10.5 L 5.828125 -6.765625 C 5.328125 -7.546875 4.671875 -7.90625 3.6875 -7.90625 C 1.828125 -7.90625 0.421875 -6.125 0.421875 -3.78125 C 0.421875 -2.71875 0.734375 -1.65625 1.25 -0.90625 C 1.78125 -0.140625 2.734375 0.328125 3.6875 0.328125 C 4.671875 0.328125 5.328125 -0.015625 5.828125 -0.796875 Z M 4.140625 -6.21875 C 5.15625 -6.21875 5.828125 -5.25 5.828125 -3.75 C 5.828125 -2.328125 5.140625 -1.359375 4.140625 -1.359375 C 3.125 -1.359375 2.4375 -2.34375 2.4375 -3.78125 C 2.4375 -5.234375 3.125 -6.21875 4.140625 -6.21875 Z M 4.140625 -6.21875 "/>
</symbol>
<symbol overflow="visible" id="glyph2-5">
<path style="stroke:none;" d="M 4.34375 -7.90625 C 1.953125 -7.90625 0.5 -6.34375 0.5 -3.78125 C 0.5 -1.21875 1.953125 0.328125 4.34375 0.328125 C 6.734375 0.328125 8.203125 -1.21875 8.203125 -3.734375 C 8.203125 -6.375 6.765625 -7.90625 4.34375 -7.90625 Z M 4.34375 -6.28125 C 5.453125 -6.28125 6.1875 -5.28125 6.1875 -3.765625 C 6.1875 -2.3125 5.4375 -1.296875 4.34375 -1.296875 C 3.25 -1.296875 2.515625 -2.296875 2.515625 -3.78125 C 2.515625 -5.28125 3.25 -6.28125 4.34375 -6.28125 Z M 4.34375 -6.28125 "/>
</symbol>
<symbol overflow="visible" id="glyph2-6">
<path style="stroke:none;" d="M 0.859375 -7.78125 L 0.859375 0 L 2.875 0 L 2.875 -4.671875 C 2.875 -5.640625 3.40625 -6.1875 4.265625 -6.1875 C 4.9375 -6.1875 5.359375 -5.8125 5.359375 -5.1875 L 5.359375 0 L 7.375 0 L 7.375 -4.671875 C 7.375 -5.625 7.890625 -6.1875 8.765625 -6.1875 C 9.4375 -6.1875 9.859375 -5.8125 9.859375 -5.1875 L 9.859375 0 L 11.875 0 L 11.875 -5.5 C 11.875 -7.015625 10.953125 -7.90625 9.390625 -7.90625 C 8.40625 -7.90625 7.71875 -7.5625 7.109375 -6.75 C 6.734375 -7.484375 5.96875 -7.90625 5 -7.90625 C 4.109375 -7.90625 3.53125 -7.625 2.859375 -6.8125 L 2.859375 -7.78125 Z M 0.859375 -7.78125 "/>
</symbol>
<symbol overflow="visible" id="glyph2-7">
<path style="stroke:none;" d=""/>
</symbol>
<symbol overflow="visible" id="glyph2-8">
<path style="stroke:none;" d="M 3.234375 -4.53125 L 7.828125 -4.53125 L 7.828125 -6.328125 L 3.234375 -6.328125 L 3.234375 -8.703125 L 8.4375 -8.703125 L 8.4375 -10.5 L 1.0625 -10.5 L 1.0625 0 L 3.234375 0 Z M 3.234375 -4.53125 "/>
</symbol>
<symbol overflow="visible" id="glyph2-9">
<path style="stroke:none;" d="M 0.90625 -7.78125 L 0.90625 0 L 2.921875 0 L 2.921875 -4.140625 C 2.921875 -5.3125 3.515625 -5.90625 4.703125 -5.90625 C 4.90625 -5.90625 5.0625 -5.890625 5.328125 -5.84375 L 5.328125 -7.890625 C 5.21875 -7.90625 5.171875 -7.90625 5.078125 -7.90625 C 4.15625 -7.90625 3.375 -7.296875 2.921875 -6.25 L 2.921875 -7.78125 Z M 0.90625 -7.78125 "/>
</symbol>
<symbol overflow="visible" id="glyph2-10">
<path style="stroke:none;" d="M 7.546875 -3.25 C 7.5625 -3.421875 7.5625 -3.5 7.5625 -3.59375 C 7.5625 -4.375 7.453125 -5.09375 7.265625 -5.640625 C 6.734375 -7.0625 5.484375 -7.90625 3.921875 -7.90625 C 1.6875 -7.90625 0.3125 -6.296875 0.3125 -3.6875 C 0.3125 -1.203125 1.671875 0.328125 3.875 0.328125 C 5.625 0.328125 7.03125 -0.640625 7.484375 -2.1875 L 5.484375 -2.1875 C 5.25 -1.5625 4.6875 -1.203125 3.953125 -1.203125 C 3.375 -1.203125 2.90625 -1.453125 2.625 -1.890625 C 2.4375 -2.171875 2.359375 -2.515625 2.328125 -3.25 Z M 2.359375 -4.59375 C 2.5 -5.796875 3 -6.375 3.890625 -6.375 C 4.8125 -6.375 5.359375 -5.75 5.453125 -4.59375 Z M 2.359375 -4.59375 "/>
</symbol>
<symbol overflow="visible" id="glyph2-11">
<path style="stroke:none;" d="M 7.28125 -5.265625 C 7.25 -6.921875 5.984375 -7.90625 3.890625 -7.90625 C 1.921875 -7.90625 0.6875 -6.921875 0.6875 -5.3125 C 0.6875 -4.796875 0.84375 -4.34375 1.125 -4.046875 C 1.390625 -3.78125 1.640625 -3.640625 2.390625 -3.40625 L 4.796875 -2.65625 C 5.296875 -2.5 5.46875 -2.328125 5.46875 -2.015625 C 5.46875 -1.546875 4.90625 -1.25 3.96875 -1.25 C 3.4375 -1.25 3.046875 -1.34375 2.78125 -1.53125 C 2.5625 -1.6875 2.484375 -1.84375 2.390625 -2.265625 L 0.421875 -2.265625 C 0.46875 -0.546875 1.734375 0.328125 4.09375 0.328125 C 5.171875 0.328125 6 0.09375 6.5625 -0.359375 C 7.140625 -0.828125 7.484375 -1.546875 7.484375 -2.3125 C 7.484375 -3.3125 6.984375 -3.96875 5.96875 -4.265625 L 3.421875 -5 C 2.859375 -5.171875 2.703125 -5.28125 2.703125 -5.609375 C 2.703125 -6.03125 3.171875 -6.328125 3.875 -6.328125 C 4.84375 -6.328125 5.3125 -5.984375 5.328125 -5.265625 Z M 7.28125 -5.265625 "/>
</symbol>
<symbol overflow="visible" id="glyph2-12">
<path style="stroke:none;" d="M 4.34375 -7.625 L 3.21875 -7.625 L 3.21875 -9.703125 L 1.203125 -9.703125 L 1.203125 -7.625 L 0.203125 -7.625 L 0.203125 -6.28125 L 1.203125 -6.28125 L 1.203125 -1.5 C 1.203125 -0.28125 1.84375 0.328125 3.171875 0.328125 C 3.625 0.328125 3.96875 0.28125 4.34375 0.171875 L 4.34375 -1.234375 C 4.140625 -1.203125 4.03125 -1.203125 3.875 -1.203125 C 3.34375 -1.203125 3.21875 -1.359375 3.21875 -2.046875 L 3.21875 -6.28125 L 4.34375 -6.28125 Z M 4.34375 -7.625 "/>
</symbol>
<symbol overflow="visible" id="glyph2-13">
<path style="stroke:none;" d="M 5.625 -10.671875 C 4.15625 -10.671875 2.9375 -10.1875 2.046875 -9.21875 C 1.109375 -8.21875 0.578125 -6.734375 0.578125 -5.171875 C 0.578125 -3.59375 1.109375 -2.125 2.046875 -1.125 C 2.953125 -0.140625 4.140625 0.328125 5.640625 0.328125 C 7.125 0.328125 8.3125 -0.140625 9.21875 -1.125 C 10.125 -2.09375 10.6875 -3.609375 10.6875 -5.09375 C 10.6875 -6.734375 10.15625 -8.21875 9.21875 -9.21875 C 8.296875 -10.21875 7.140625 -10.671875 5.625 -10.671875 Z M 5.640625 -8.828125 C 7.40625 -8.828125 8.53125 -7.390625 8.53125 -5.109375 C 8.53125 -2.953125 7.359375 -1.515625 5.640625 -1.515625 C 3.875 -1.515625 2.734375 -2.953125 2.734375 -5.171875 C 2.734375 -7.390625 3.875 -8.828125 5.640625 -8.828125 Z M 5.640625 -8.828125 "/>
</symbol>
<symbol overflow="visible" id="glyph2-14">
<path style="stroke:none;" d="M 1.1875 0 L 5.90625 0 C 7.109375 0 7.921875 -0.234375 8.5625 -0.765625 C 9.1875 -1.296875 9.59375 -2.171875 9.59375 -3.03125 C 9.59375 -4.0625 9.046875 -4.890625 7.84375 -5.578125 C 8.890625 -6.234375 9.296875 -6.84375 9.296875 -7.734375 C 9.296875 -8.46875 8.9375 -9.21875 8.34375 -9.734375 C 7.71875 -10.265625 6.984375 -10.5 5.859375 -10.5 L 1.1875 -10.5 Z M 3.34375 -8.703125 L 5.6875 -8.703125 C 6.703125 -8.703125 7.21875 -8.296875 7.21875 -7.515625 C 7.21875 -6.734375 6.703125 -6.328125 5.6875 -6.328125 L 3.34375 -6.328125 Z M 3.34375 -4.53125 L 5.921875 -4.53125 C 6.96875 -4.53125 7.515625 -4.0625 7.515625 -3.15625 C 7.515625 -2.265625 6.96875 -1.796875 5.921875 -1.796875 L 3.34375 -1.796875 Z M 3.34375 -4.53125 "/>
</symbol>
<symbol overflow="visible" id="glyph2-15">
<path style="stroke:none;" d="M 3.296875 -4.53125 L 8.328125 -4.53125 L 8.328125 -6.328125 L 3.296875 -6.328125 L 3.296875 -8.703125 L 8.734375 -8.703125 L 8.734375 -10.5 L 1.140625 -10.5 L 1.140625 0 L 8.984375 0 L 8.984375 -1.796875 L 3.296875 -1.796875 Z M 3.296875 -4.53125 "/>
</symbol>
<symbol overflow="visible" id="glyph2-16">
<path style="stroke:none;" d="M 5.046875 0 L 7.71875 -7.78125 L 5.59375 -7.78125 L 4.015625 -2.09375 L 2.328125 -7.78125 L 0.203125 -7.78125 L 2.921875 0 Z M 5.046875 0 "/>
</symbol>
<symbol overflow="visible" id="glyph2-17">
<path style="stroke:none;" d="M 3.078125 -2.109375 L 0.921875 -2.109375 L 0.921875 0 L 3.078125 0 Z M 3.078125 -2.109375 "/>
</symbol>
<symbol overflow="visible" id="glyph2-18">
<path style="stroke:none;" d="M 2.109375 0.46875 L 2.671875 -2.484375 L 4.15625 -2.484375 L 3.59375 0.46875 L 5.09375 0.46875 L 5.671875 -2.484375 L 7.390625 -2.484375 L 7.390625 -3.90625 L 5.953125 -3.90625 L 6.390625 -6.109375 L 7.96875 -6.109375 L 7.96875 -7.53125 L 6.671875 -7.53125 L 7.15625 -10.046875 L 5.640625 -10.046875 L 5.15625 -7.53125 L 3.671875 -7.53125 L 4.15625 -10.046875 L 2.65625 -10.046875 L 2.15625 -7.53125 L 0.453125 -7.53125 L 0.453125 -6.109375 L 1.875 -6.109375 L 1.4375 -3.90625 L 0.046875 -3.90625 L 0.046875 -2.484375 L 1.15625 -2.484375 L 0.578125 0.46875 Z M 2.953125 -3.90625 L 3.390625 -6.109375 L 4.875 -6.109375 L 4.4375 -3.90625 Z M 2.953125 -3.90625 "/>
</symbol>
<symbol overflow="visible" id="glyph2-19">
<path style="stroke:none;" d="M 4.515625 -7.625 L 3.3125 -7.625 L 3.3125 -8.390625 C 3.3125 -8.78125 3.484375 -8.984375 3.859375 -8.984375 C 4.046875 -8.984375 4.234375 -8.96875 4.4375 -8.953125 L 4.4375 -10.453125 C 4 -10.484375 3.59375 -10.5 3.28125 -10.5 C 1.9375 -10.5 1.296875 -9.875 1.296875 -8.5625 L 1.296875 -7.625 L 0.203125 -7.625 L 0.203125 -6.28125 L 1.296875 -6.28125 L 1.296875 0 L 3.3125 0 L 3.3125 -6.28125 L 4.515625 -6.28125 Z M 4.515625 -7.625 "/>
</symbol>
<symbol overflow="visible" id="glyph2-20">
<path style="stroke:none;" d="M 5.71875 0 L 9.328125 -10.5 L 7.140625 -10.5 L 4.859375 -2.59375 L 2.515625 -10.5 L 0.34375 -10.5 L 3.890625 0 Z M 5.71875 0 "/>
</symbol>
<symbol overflow="visible" id="glyph2-21">
<path style="stroke:none;" d="M 2.984375 -7.78125 L 0.96875 -7.78125 L 0.96875 0 L 2.984375 0 Z M 2.984375 -10.5 L 0.96875 -10.5 L 0.96875 -8.703125 L 2.984375 -8.703125 Z M 2.984375 -10.5 "/>
</symbol>
<symbol overflow="visible" id="glyph2-22">
<path style="stroke:none;" d="M 0.84375 -10.5 L 0.84375 0 L 2.859375 0 L 2.859375 -0.796875 C 3.359375 -0.03125 4.03125 0.328125 5.015625 0.328125 C 6.875 0.328125 8.28125 -1.4375 8.28125 -3.78125 C 8.28125 -4.84375 7.96875 -5.90625 7.453125 -6.65625 C 6.921875 -7.421875 5.96875 -7.90625 5.015625 -7.90625 C 4.03125 -7.90625 3.359375 -7.546875 2.859375 -6.765625 L 2.859375 -10.5 Z M 4.5625 -6.21875 C 5.5625 -6.21875 6.265625 -5.21875 6.265625 -3.78125 C 6.265625 -2.34375 5.578125 -1.359375 4.5625 -1.359375 C 3.546875 -1.359375 2.859375 -2.3125 2.859375 -3.8125 C 2.859375 -5.25 3.5625 -6.21875 4.5625 -6.21875 Z M 4.5625 -6.21875 "/>
</symbol>
<symbol overflow="visible" id="glyph2-23">
<path style="stroke:none;" d="M 2.984375 -10.5 L 0.96875 -10.5 L 0.96875 0 L 2.984375 0 Z M 2.984375 -10.5 "/>
</symbol>
<symbol overflow="visible" id="glyph2-24">
<path style="stroke:none;" d="M 2.921875 -10.5 C 1.265625 -8 0.578125 -6.03125 0.578125 -3.8125 C 0.578125 -1.578125 1.265625 0.375 2.921875 2.875 L 4.359375 2.875 C 2.828125 -0.09375 2.34375 -1.6875 2.34375 -3.8125 C 2.34375 -5.9375 2.84375 -7.5625 4.359375 -10.5 Z M 2.921875 -10.5 "/>
</symbol>
<symbol overflow="visible" id="glyph2-25">
<path style="stroke:none;" d="M 10.25 -5.640625 L 6.03125 -5.640625 L 6.03125 -3.84375 L 8.421875 -3.84375 C 8.375 -3.25 8.21875 -2.890625 7.90625 -2.515625 C 7.390625 -1.890625 6.578125 -1.515625 5.765625 -1.515625 C 4 -1.515625 2.765625 -3.046875 2.765625 -5.203125 C 2.765625 -7.46875 3.859375 -8.828125 5.703125 -8.828125 C 6.453125 -8.828125 7.09375 -8.609375 7.5625 -8.203125 C 7.859375 -7.9375 8.03125 -7.6875 8.21875 -7.140625 L 10.25 -7.140625 C 9.984375 -9.328125 8.21875 -10.671875 5.6875 -10.671875 C 2.671875 -10.671875 0.609375 -8.4375 0.609375 -5.171875 C 0.609375 -1.984375 2.671875 0.328125 5.515625 0.328125 C 6.921875 0.328125 7.875 -0.171875 8.6875 -1.359375 L 8.953125 0.03125 L 10.25 0.03125 Z M 10.25 -5.640625 "/>
</symbol>
<symbol overflow="visible" id="glyph2-26">
<path style="stroke:none;" d="M 3.109375 -8.1875 L 5 0 L 7.15625 0 L 9.015625 -8.1875 L 9.015625 0 L 11.171875 0 L 11.171875 -10.5 L 7.921875 -10.5 L 6.078125 -2.140625 L 4.171875 -10.5 L 0.953125 -10.5 L 0.953125 0 L 3.109375 0 Z M 3.109375 -8.1875 "/>
</symbol>
<symbol overflow="visible" id="glyph2-27">
<path style="stroke:none;" d="M 7.515625 -4.875 C 7.375 -6.765625 6.125 -7.90625 4.15625 -7.90625 C 1.828125 -7.90625 0.484375 -6.375 0.484375 -3.734375 C 0.484375 -1.171875 1.828125 0.328125 4.140625 0.328125 C 6.015625 0.328125 7.328125 -0.828125 7.515625 -2.6875 L 5.59375 -2.6875 C 5.34375 -1.6875 4.9375 -1.296875 4.140625 -1.296875 C 3.109375 -1.296875 2.5 -2.203125 2.5 -3.734375 C 2.5 -4.484375 2.65625 -5.15625 2.890625 -5.625 C 3.125 -6.046875 3.578125 -6.28125 4.15625 -6.28125 C 4.96875 -6.28125 5.359375 -5.890625 5.59375 -4.875 Z M 7.515625 -4.875 "/>
</symbol>
<symbol overflow="visible" id="glyph2-28">
<path style="stroke:none;" d="M 1.75 2.875 C 3.421875 0.375 4.109375 -1.578125 4.109375 -3.796875 C 4.109375 -6.03125 3.421875 -8 1.75 -10.5 L 0.3125 -10.5 C 1.859375 -7.53125 2.328125 -5.9375 2.328125 -3.796875 C 2.328125 -1.6875 1.84375 -0.0625 0.3125 2.875 Z M 1.75 2.875 "/>
</symbol>
</g>
</defs>
<g id="surface2617">
<rect x="0" y="0" width="504" height="504" style="fill:rgb(100%,100%,100%);fill-opacity:1;stroke:none;"/>
<path style="fill:none;stroke-width:0.75;stroke-linecap:round;stroke-linejoin:round;stroke:rgb(0%,0%,0%);stroke-opacity:1;stroke-miterlimit:10;" d="M 94.554688 72.800781 C 94.554688 76.398438 89.15625 76.398438 89.15625 72.800781 C 89.15625 69.199219 94.554688 69.199219 94.554688 72.800781 "/>
<path style="fill:none;stroke-width:0.75;stroke-linecap:round;stroke-linejoin:round;stroke:rgb(0%,0%,0%);stroke-opacity:1;stroke-miterlimit:10;" d="M 112.007812 206.1875 C 112.007812 209.789062 106.609375 209.789062 106.609375 206.1875 C 106.609375 202.585938 112.007812 202.585938 112.007812 206.1875 "/>
<path style="fill:none;stroke-width:0.75;stroke-linecap:round;stroke-linejoin:round;stroke:rgb(0%,0%,0%);stroke-opacity:1;stroke-miterlimit:10;" d="M 129.464844 258.839844 C 129.464844 262.441406 124.0625 262.441406 124.0625 258.839844 C 124.0625 255.242188 129.464844 255.242188 129.464844 258.839844 "/>
<path style="fill:none;stroke-width:0.75;stroke-linecap:round;stroke-linejoin:round;stroke:rgb(0%,0%,0%);stroke-opacity:1;stroke-miterlimit:10;" d="M 146.917969 343.085938 C 146.917969 346.6875 141.519531 346.6875 141.519531 343.085938 C 141.519531 339.484375 146.917969 339.484375 146.917969 343.085938 "/>
<path style="fill:none;stroke-width:0.75;stroke-linecap:round;stroke-linejoin:round;stroke:rgb(0%,0%,0%);stroke-opacity:1;stroke-miterlimit:10;" d="M 164.371094 336.066406 C 164.371094 339.664062 158.972656 339.664062 158.972656 336.066406 C 158.972656 332.464844 164.371094 332.464844 164.371094 336.066406 "/>
<path style="fill:none;stroke-width:0.75;stroke-linecap:round;stroke-linejoin:round;stroke:rgb(0%,0%,0%);stroke-opacity:1;stroke-miterlimit:10;" d="M 181.828125 322.023438 C 181.828125 325.625 176.425781 325.625 176.425781 322.023438 C 176.425781 318.425781 181.828125 318.425781 181.828125 322.023438 "/>
<path style="fill:none;stroke-width:0.75;stroke-linecap:round;stroke-linejoin:round;stroke:rgb(0%,0%,0%);stroke-opacity:1;stroke-miterlimit:10;" d="M 199.28125 297.453125 C 199.28125 301.054688 193.882812 301.054688 193.882812 297.453125 C 193.882812 293.851562 199.28125 293.851562 199.28125 297.453125 "/>
<path style="fill:none;stroke-width:0.75;stroke-linecap:round;stroke-linejoin:round;stroke:rgb(0%,0%,0%);stroke-opacity:1;stroke-miterlimit:10;" d="M 216.738281 329.042969 C 216.738281 332.644531 211.335938 332.644531 211.335938 329.042969 C 211.335938 325.445312 216.738281 325.445312 216.738281 329.042969 "/>
<path style="fill:none;stroke-width:0.75;stroke-linecap:round;stroke-linejoin:round;stroke:rgb(0%,0%,0%);stroke-opacity:1;stroke-miterlimit:10;" d="M 234.191406 315.003906 C 234.191406 318.605469 228.789062 318.605469 228.789062 315.003906 C 228.789062 311.402344 234.191406 311.402344 234.191406 315.003906 "/>
<path style="fill:none;stroke-width:0.75;stroke-linecap:round;stroke-linejoin:round;stroke:rgb(0%,0%,0%);stroke-opacity:1;stroke-miterlimit:10;" d="M 251.644531 336.066406 C 251.644531 339.664062 246.246094 339.664062 246.246094 336.066406 C 246.246094 332.464844 251.644531 332.464844 251.644531 336.066406 "/>
<path style="fill:none;stroke-width:0.75;stroke-linecap:round;stroke-linejoin:round;stroke:rgb(0%,0%,0%);stroke-opacity:1;stroke-miterlimit:10;" d="M 269.101562 353.617188 C 269.101562 357.214844 263.699219 357.214844 263.699219 353.617188 C 263.699219 350.015625 269.101562 350.015625 269.101562 353.617188 "/>
<path style="fill:none;stroke-width:0.75;stroke-linecap:round;stroke-linejoin:round;stroke:rgb(0%,0%,0%);stroke-opacity:1;stroke-miterlimit:10;" d="M 286.554688 374.675781 C 286.554688 378.277344 281.15625 378.277344 281.15625 374.675781 C 281.15625 371.078125 286.554688 371.078125 286.554688 374.675781 "/>
<path style="fill:none;stroke-width:0.75;stroke-linecap:round;stroke-linejoin:round;stroke:rgb(0%,0%,0%);stroke-opacity:1;stroke-miterlimit:10;" d="M 304.007812 388.71875 C 304.007812 392.320312 298.609375 392.320312 298.609375 388.71875 C 298.609375 385.117188 304.007812 385.117188 304.007812 388.71875 "/>
<path style="fill:none;stroke-width:0.75;stroke-linecap:round;stroke-linejoin:round;stroke:rgb(0%,0%,0%);stroke-opacity:1;stroke-miterlimit:10;" d="M 321.464844 385.207031 C 321.464844 388.808594 316.0625 388.808594 316.0625 385.207031 C 316.0625 381.609375 321.464844 381.609375 321.464844 385.207031 "/>
<path style="fill:none;stroke-width:0.75;stroke-linecap:round;stroke-linejoin:round;stroke:rgb(0%,0%,0%);stroke-opacity:1;stroke-miterlimit:10;" d="M 338.917969 336.066406 C 338.917969 339.664062 333.519531 339.664062 333.519531 336.066406 C 333.519531 332.464844 338.917969 332.464844 338.917969 336.066406 "/>
<path style="fill:none;stroke-width:0.75;stroke-linecap:round;stroke-linejoin:round;stroke:rgb(0%,0%,0%);stroke-opacity:1;stroke-miterlimit:10;" d="M 356.371094 371.167969 C 356.371094 374.765625 350.972656 374.765625 350.972656 371.167969 C 350.972656 367.566406 356.371094 367.566406 356.371094 371.167969 "/>
<path style="fill:none;stroke-width:0.75;stroke-linecap:round;stroke-linejoin:round;stroke:rgb(0%,0%,0%);stroke-opacity:1;stroke-miterlimit:10;" d="M 373.828125 385.207031 C 373.828125 388.808594 368.425781 388.808594 368.425781 385.207031 C 368.425781 381.609375 373.828125 381.609375 373.828125 385.207031 "/>
<path style="fill:none;stroke-width:0.75;stroke-linecap:round;stroke-linejoin:round;stroke:rgb(0%,0%,0%);stroke-opacity:1;stroke-miterlimit:10;" d="M 391.28125 381.699219 C 391.28125 385.296875 385.882812 385.296875 385.882812 381.699219 C 385.882812 378.097656 391.28125 378.097656 391.28125 381.699219 "/>
<path style="fill:none;stroke-width:0.75;stroke-linecap:round;stroke-linejoin:round;stroke:rgb(0%,0%,0%);stroke-opacity:1;stroke-miterlimit:10;" d="M 408.738281 381.699219 C 408.738281 385.296875 403.335938 385.296875 403.335938 381.699219 C 403.335938 378.097656 408.738281 378.097656 408.738281 381.699219 "/>
<path style="fill:none;stroke-width:0.75;stroke-linecap:round;stroke-linejoin:round;stroke:rgb(0%,0%,0%);stroke-opacity:1;stroke-miterlimit:10;" d="M 426.191406 416.800781 C 426.191406 420.398438 420.789062 420.398438 420.789062 416.800781 C 420.789062 413.199219 426.191406 413.199219 426.191406 416.800781 "/>
<path style="fill:none;stroke-width:0.75;stroke-linecap:round;stroke-linejoin:round;stroke:rgb(0%,0%,0%);stroke-opacity:1;stroke-miterlimit:10;" d="M 443.644531 378.1875 C 443.644531 381.789062 438.246094 381.789062 438.246094 378.1875 C 438.246094 374.585938 443.644531 374.585938 443.644531 378.1875 "/>
<path style="fill:none;stroke-width:0.75;stroke-linecap:round;stroke-linejoin:round;stroke:rgb(0%,0%,0%);stroke-opacity:1;stroke-miterlimit:10;" d="M 461.101562 392.230469 C 461.101562 395.828125 455.699219 395.828125 455.699219 392.230469 C 455.699219 388.628906 461.101562 388.628906 461.101562 392.230469 "/>
<path style="fill:none;stroke-width:0.75;stroke-linecap:round;stroke-linejoin:round;stroke:rgb(0%,0%,0%);stroke-opacity:1;stroke-miterlimit:10;" d="M 144.21875 430.558594 L 406.035156 430.558594 "/>
<path style="fill:none;stroke-width:0.75;stroke-linecap:round;stroke-linejoin:round;stroke:rgb(0%,0%,0%);stroke-opacity:1;stroke-miterlimit:10;" d="M 144.21875 430.558594 L 144.21875 437.761719 "/>
<path style="fill:none;stroke-width:0.75;stroke-linecap:round;stroke-linejoin:round;stroke:rgb(0%,0%,0%);stroke-opacity:1;stroke-miterlimit:10;" d="M 231.492188 430.558594 L 231.492188 437.761719 "/>
<path style="fill:none;stroke-width:0.75;stroke-linecap:round;stroke-linejoin:round;stroke:rgb(0%,0%,0%);stroke-opacity:1;stroke-miterlimit:10;" d="M 318.761719 430.558594 L 318.761719 437.761719 "/>
<path style="fill:none;stroke-width:0.75;stroke-linecap:round;stroke-linejoin:round;stroke:rgb(0%,0%,0%);stroke-opacity:1;stroke-miterlimit:10;" d="M 406.035156 430.558594 L 406.035156 437.761719 "/>
<g style="fill:rgb(0%,0%,0%);fill-opacity:1;">
  <use xlink:href="#glyph0-1" x="140.71875" y="456.228516"/>
</g>
<g style="fill:rgb(0%,0%,0%);fill-opacity:1;">
  <use xlink:href="#glyph0-2" x="224.492188" y="456.228516"/>
  <use xlink:href="#glyph0-3" x="231.164062" y="456.228516"/>
</g>
<g style="fill:rgb(0%,0%,0%);fill-opacity:1;">
  <use xlink:href="#glyph0-2" x="311.761719" y="456.228516"/>
  <use xlink:href="#glyph0-1" x="318.433594" y="456.228516"/>
</g>
<g style="fill:rgb(0%,0%,0%);fill-opacity:1;">
  <use xlink:href="#glyph0-4" x="399.035156" y="456.228516"/>
  <use xlink:href="#glyph0-3" x="405.707031" y="456.228516"/>
</g>
<path style="fill:none;stroke-width:0.75;stroke-linecap:round;stroke-linejoin:round;stroke:rgb(0%,0%,0%);stroke-opacity:1;stroke-miterlimit:10;" d="M 59.039062 391.703125 L 59.039062 102.988281 "/>
<path style="fill:none;stroke-width:0.75;stroke-linecap:round;stroke-linejoin:round;stroke:rgb(0%,0%,0%);stroke-opacity:1;stroke-miterlimit:10;" d="M 59.039062 391.703125 L 51.839844 391.703125 "/>
<path style="fill:none;stroke-width:0.75;stroke-linecap:round;stroke-linejoin:round;stroke:rgb(0%,0%,0%);stroke-opacity:1;stroke-miterlimit:10;" d="M 59.039062 333.960938 L 51.839844 333.960938 "/>
<path style="fill:none;stroke-width:0.75;stroke-linecap:round;stroke-linejoin:round;stroke:rgb(0%,0%,0%);stroke-opacity:1;stroke-miterlimit:10;" d="M 59.039062 276.214844 L 51.839844 276.214844 "/>
<path style="fill:none;stroke-width:0.75;stroke-linecap:round;stroke-linejoin:round;stroke:rgb(0%,0%,0%);stroke-opacity:1;stroke-miterlimit:10;" d="M 59.039062 218.472656 L 51.839844 218.472656 "/>
<path style="fill:none;stroke-width:0.75;stroke-linecap:round;stroke-linejoin:round;stroke:rgb(0%,0%,0%);stroke-opacity:1;stroke-miterlimit:10;" d="M 59.039062 160.730469 L 51.839844 160.730469 "/>
<path style="fill:none;stroke-width:0.75;stroke-linecap:round;stroke-linejoin:round;stroke:rgb(0%,0%,0%);stroke-opacity:1;stroke-miterlimit:10;" d="M 59.039062 102.988281 L 51.839844 102.988281 "/>
<g style="fill:rgb(0%,0%,0%);fill-opacity:1;">
  <use xlink:href="#glyph1-1" x="41.509766" y="403.703125"/>
  <use xlink:href="#glyph1-2" x="41.509766" y="397.03125"/>
  <use xlink:href="#glyph1-3" x="41.509766" y="393.695312"/>
  <use xlink:href="#glyph1-4" x="41.509766" y="387.023438"/>
</g>
<g style="fill:rgb(0%,0%,0%);fill-opacity:1;">
  <use xlink:href="#glyph1-1" x="41.509766" y="345.960938"/>
  <use xlink:href="#glyph1-2" x="41.509766" y="339.289062"/>
  <use xlink:href="#glyph1-3" x="41.509766" y="335.953125"/>
  <use xlink:href="#glyph1-5" x="41.509766" y="329.28125"/>
</g>
<g style="fill:rgb(0%,0%,0%);fill-opacity:1;">
  <use xlink:href="#glyph1-1" x="41.509766" y="288.214844"/>
  <use xlink:href="#glyph1-2" x="41.509766" y="281.542969"/>
  <use xlink:href="#glyph1-3" x="41.509766" y="278.207031"/>
  <use xlink:href="#glyph1-6" x="41.509766" y="271.535156"/>
</g>
<g style="fill:rgb(0%,0%,0%);fill-opacity:1;">
  <use xlink:href="#glyph1-1" x="41.509766" y="230.472656"/>
  <use xlink:href="#glyph1-2" x="41.509766" y="223.800781"/>
  <use xlink:href="#glyph1-7" x="41.509766" y="220.464844"/>
  <use xlink:href="#glyph1-1" x="41.509766" y="213.792969"/>
</g>
<g style="fill:rgb(0%,0%,0%);fill-opacity:1;">
  <use xlink:href="#glyph1-1" x="41.509766" y="172.730469"/>
  <use xlink:href="#glyph1-2" x="41.509766" y="166.058594"/>
  <use xlink:href="#glyph1-7" x="41.509766" y="162.722656"/>
  <use xlink:href="#glyph1-8" x="41.509766" y="156.050781"/>
</g>
<g style="fill:rgb(0%,0%,0%);fill-opacity:1;">
  <use xlink:href="#glyph1-1" x="41.509766" y="114.988281"/>
  <use xlink:href="#glyph1-2" x="41.509766" y="108.316406"/>
  <use xlink:href="#glyph1-7" x="41.509766" y="104.980469"/>
  <use xlink:href="#glyph1-3" x="41.509766" y="98.308594"/>
</g>
<path style="fill:none;stroke-width:0.75;stroke-linecap:round;stroke-linejoin:round;stroke:rgb(0%,0%,0%);stroke-opacity:1;stroke-miterlimit:10;" d="M 59.039062 430.558594 L 473.761719 430.558594 L 473.761719 59.039062 L 59.039062 59.039062 L 59.039062 430.558594 "/>
<g style="fill:rgb(0%,0%,0%);fill-opacity:1;">
  <use xlink:href="#glyph2-1" x="70.898438" y="34.516602"/>
  <use xlink:href="#glyph2-2" x="81.299805" y="34.516602"/>
  <use xlink:href="#glyph2-3" x="89.30957" y="34.516602"/>
  <use xlink:href="#glyph2-4" x="98.111328" y="34.516602"/>
  <use xlink:href="#glyph2-5" x="106.913086" y="34.516602"/>
  <use xlink:href="#glyph2-6" x="115.714844" y="34.516602"/>
  <use xlink:href="#glyph2-7" x="128.521484" y="34.516602"/>
  <use xlink:href="#glyph2-8" x="132.526367" y="34.516602"/>
  <use xlink:href="#glyph2-5" x="141.125977" y="34.516602"/>
  <use xlink:href="#glyph2-9" x="149.927734" y="34.516602"/>
  <use xlink:href="#glyph2-10" x="155.589844" y="34.516602"/>
  <use xlink:href="#glyph2-11" x="163.657227" y="34.516602"/>
  <use xlink:href="#glyph2-12" x="171.652344" y="34.516602"/>
  <use xlink:href="#glyph2-7" x="176.449219" y="34.516602"/>
  <use xlink:href="#glyph2-13" x="180.454102" y="34.516602"/>
  <use xlink:href="#glyph2-13" x="191.662109" y="34.516602"/>
  <use xlink:href="#glyph2-14" x="202.870117" y="34.516602"/>
  <use xlink:href="#glyph2-7" x="213.271484" y="34.516602"/>
  <use xlink:href="#glyph2-15" x="217.276367" y="34.516602"/>
  <use xlink:href="#glyph2-9" x="226.885742" y="34.516602"/>
  <use xlink:href="#glyph2-9" x="232.447266" y="34.516602"/>
  <use xlink:href="#glyph2-5" x="238.037109" y="34.516602"/>
  <use xlink:href="#glyph2-9" x="246.838867" y="34.516602"/>
  <use xlink:href="#glyph2-7" x="252.443359" y="34.516602"/>
  <use xlink:href="#glyph2-16" x="256.448242" y="34.516602"/>
  <use xlink:href="#glyph2-11" x="264.198242" y="34.516602"/>
  <use xlink:href="#glyph2-17" x="272.265625" y="34.516602"/>
  <use xlink:href="#glyph2-7" x="276.270508" y="34.516602"/>
  <use xlink:href="#glyph2-18" x="280.275391" y="34.516602"/>
  <use xlink:href="#glyph2-7" x="288.285156" y="34.516602"/>
  <use xlink:href="#glyph2-5" x="292.290039" y="34.516602"/>
  <use xlink:href="#glyph2-19" x="301.091797" y="34.516602"/>
  <use xlink:href="#glyph2-7" x="305.888672" y="34.516602"/>
  <use xlink:href="#glyph2-20" x="309.893555" y="34.516602"/>
  <use xlink:href="#glyph2-2" x="318.826172" y="34.516602"/>
  <use xlink:href="#glyph2-9" x="326.835938" y="34.516602"/>
  <use xlink:href="#glyph2-21" x="332.368164" y="34.516602"/>
  <use xlink:href="#glyph2-2" x="336.373047" y="34.516602"/>
  <use xlink:href="#glyph2-22" x="344.382812" y="34.516602"/>
  <use xlink:href="#glyph2-23" x="353.18457" y="34.516602"/>
  <use xlink:href="#glyph2-10" x="357.189453" y="34.516602"/>
  <use xlink:href="#glyph2-11" x="365.256836" y="34.516602"/>
  <use xlink:href="#glyph2-7" x="373.266602" y="34.516602"/>
  <use xlink:href="#glyph2-24" x="377.271484" y="34.516602"/>
  <use xlink:href="#glyph2-25" x="382.068359" y="34.516602"/>
  <use xlink:href="#glyph2-21" x="393.276367" y="34.516602"/>
  <use xlink:href="#glyph2-3" x="397.28125" y="34.516602"/>
  <use xlink:href="#glyph2-21" x="406.083008" y="34.516602"/>
  <use xlink:href="#glyph2-7" x="410.087891" y="34.516602"/>
  <use xlink:href="#glyph2-26" x="414.092773" y="34.516602"/>
  <use xlink:href="#glyph2-10" x="426.092773" y="34.516602"/>
  <use xlink:href="#glyph2-12" x="434.044922" y="34.516602"/>
  <use xlink:href="#glyph2-9" x="438.841797" y="34.516602"/>
  <use xlink:href="#glyph2-21" x="444.374023" y="34.516602"/>
  <use xlink:href="#glyph2-27" x="448.378906" y="34.516602"/>
  <use xlink:href="#glyph2-28" x="456.388672" y="34.516602"/>
</g>
<g style="fill:rgb(0%,0%,0%);fill-opacity:1;">
  <use xlink:href="#glyph0-5" x="152.398438" y="485.029297"/>
  <use xlink:href="#glyph0-6" x="161.050781" y="485.029297"/>
  <use xlink:href="#glyph0-7" x="167.722656" y="485.029297"/>
  <use xlink:href="#glyph0-8" x="177.71875" y="485.029297"/>
  <use xlink:href="#glyph0-9" x="184.390625" y="485.029297"/>
  <use xlink:href="#glyph0-10" x="191.0625" y="485.029297"/>
  <use xlink:href="#glyph0-11" x="195.058594" y="485.029297"/>
  <use xlink:href="#glyph0-12" x="198.394531" y="485.029297"/>
  <use xlink:href="#glyph0-13" x="205.066406" y="485.029297"/>
  <use xlink:href="#glyph0-11" x="208.402344" y="485.029297"/>
  <use xlink:href="#glyph0-14" x="211.738281" y="485.029297"/>
  <use xlink:href="#glyph0-15" x="219.045898" y="485.029297"/>
  <use xlink:href="#glyph0-10" x="225.717773" y="485.029297"/>
  <use xlink:href="#glyph0-16" x="229.725586" y="485.029297"/>
  <use xlink:href="#glyph0-15" x="232.389648" y="485.029297"/>
  <use xlink:href="#glyph0-8" x="239.061523" y="485.029297"/>
  <use xlink:href="#glyph0-17" x="245.733398" y="485.029297"/>
  <use xlink:href="#glyph0-9" x="248.397461" y="485.029297"/>
  <use xlink:href="#glyph0-18" x="255.021484" y="485.029297"/>
  <use xlink:href="#glyph0-11" x="261.021484" y="485.029297"/>
  <use xlink:href="#glyph0-19" x="264.357422" y="485.029297"/>
  <use xlink:href="#glyph0-12" x="272.349609" y="485.029297"/>
  <use xlink:href="#glyph0-10" x="279.021484" y="485.029297"/>
  <use xlink:href="#glyph0-20" x="283.341797" y="485.029297"/>
  <use xlink:href="#glyph0-9" x="286.509766" y="485.029297"/>
  <use xlink:href="#glyph0-21" x="293.181641" y="485.029297"/>
  <use xlink:href="#glyph0-11" x="299.853516" y="485.029297"/>
  <use xlink:href="#glyph0-8" x="303.189453" y="485.029297"/>
  <use xlink:href="#glyph0-22" x="309.657227" y="485.029297"/>
  <use xlink:href="#glyph0-11" x="315.657227" y="485.029297"/>
  <use xlink:href="#glyph0-23" x="318.993164" y="485.029297"/>
  <use xlink:href="#glyph0-7" x="322.329102" y="485.029297"/>
  <use xlink:href="#glyph0-24" x="332.336914" y="485.029297"/>
  <use xlink:href="#glyph0-12" x="339.008789" y="485.029297"/>
  <use xlink:href="#glyph0-10" x="345.680664" y="485.029297"/>
  <use xlink:href="#glyph0-20" x="350.000977" y="485.029297"/>
  <use xlink:href="#glyph0-15" x="353.3125" y="485.029297"/>
  <use xlink:href="#glyph0-25" x="359.984375" y="485.029297"/>
  <use xlink:href="#glyph0-26" x="366.65625" y="485.029297"/>
  <use xlink:href="#glyph0-9" x="372.728516" y="485.029297"/>
</g>
<g style="fill:rgb(0%,0%,0%);fill-opacity:1;">
  <use xlink:href="#glyph1-9" x="12.708984" y="273.300781"/>
  <use xlink:href="#glyph1-9" x="12.708984" y="263.964844"/>
  <use xlink:href="#glyph1-10" x="12.708984" y="254.628906"/>
  <use xlink:href="#glyph1-11" x="12.708984" y="246.625"/>
  <use xlink:href="#glyph1-12" x="12.708984" y="243.289062"/>
  <use xlink:href="#glyph1-13" x="12.708984" y="235.285156"/>
  <use xlink:href="#glyph1-13" x="12.708984" y="231.289062"/>
  <use xlink:href="#glyph1-14" x="12.708984" y="227.365234"/>
  <use xlink:href="#glyph1-13" x="12.708984" y="220.693359"/>
</g>
<path style="fill:none;stroke-width:0.75;stroke-linecap:round;stroke-linejoin:round;stroke:rgb(0%,0%,0%);stroke-opacity:1;stroke-miterlimit:10;" d="M 91.855469 72.800781 L 109.308594 206.1875 L 126.761719 258.839844 L 144.21875 343.085938 L 161.671875 336.066406 L 179.128906 322.023438 L 196.582031 297.453125 L 214.035156 329.042969 L 231.492188 315.003906 L 248.945312 336.066406 L 266.398438 353.617188 L 283.855469 374.675781 L 301.308594 388.71875 L 318.761719 385.207031 L 336.21875 336.066406 L 353.671875 371.167969 L 371.128906 385.207031 L 388.582031 381.699219 L 406.035156 381.699219 L 423.492188 416.800781 L 440.945312 378.1875 L 458.398438 392.230469 "/>
</g>
</svg>
